                Open      High       Low    Volume  adj close
Date                                                         
1970-01-02  0.035484  0.036381  0.036309  0.000131   0.036532
1970-01-05  0.036523  0.036897  0.037367  0.000143   0.036532
1970-01-06  0.036523  0.036209  0.036130  0.000192   0.035499
1970-01-07  0.035484  0.035180  0.035949  0.000147   0.035332
1970-01-08  0.035317  0.035014  0.035597  0.000239   0.034982
1970-01-09  0.034965  0.034840  0.035597  0.000110   0.035158
1970-01-12  0.035142  0.035014  0.035241  0.000111   0.034465
1970-01-13  0.034446  0.034324  0.034533  0.000164   0.033603
1970-01-14  0.033580  0.033467  0.033291  0.000259   0.033085
1970-01-15  0.033059  0.032949  0.032764  0.000264   0.032049
1970-01-16  0.032019  0.032261  0.032050  0.000306   0.031188
1970-01-19  0.031154  0.030887  0.031344  0.000314   0.030500
1970-01-20  0.030463  0.030887  0.031344  0.000253   0.031188
1970-01-21  0.031505  0.032261  0.032410  0.000177   0.032395
1970-01-22  0.032367  0.032261  0.032050  0.000124   0.031365
1970-01-23  0.031154  0.030887  0.030989  0.000271   0.030328
1970-01-26  0.030117  0.029859  0.030285  0.000559   0.029639
1970-01-27  0.029598  0.030202  0.028870  0.000362   0.028257
1970-01-28  0.028210  0.027968  0.026565  0.000540   0.026194
1970-01-29  0.026138  0.027288  0.026209  0.000365   0.026194
1970-01-30  0.026138  0.027288  0.026919  0.000271   0.027228
1970-02-02  0.025098  0.024883  0.022667  0.003975   0.022402
1970-02-03  0.022329  0.023853  0.023021  0.001395   0.023953
1970-02-04  0.023886  0.024198  0.022844  0.001028   0.022230
1970-02-05  0.022156  0.022995  0.022844  0.000343   0.023263
1970-02-06  0.023540  0.026429  0.024261  0.000515   0.025677
1970-02-09  0.025619  0.026599  0.025855  0.000727   0.025335
1970-02-10  0.025275  0.025399  0.025148  0.000341   0.025159
1970-02-11  0.025098  0.026944  0.024082  0.000461   0.026882
1970-02-12  0.026138  0.025914  0.025500  0.000246   0.026026
...              ...       ...       ...       ...        ...
2017-10-02  0.120471  0.120883  0.123137  0.059692   0.121397
2017-10-03  0.122088  0.121746  0.124845  0.053203   0.121981
2017-10-04  0.122443  0.122379  0.124990  0.057520   0.121857
2017-10-05  0.122248  0.124476  0.124845  0.087869   0.124793
2017-10-06  0.125339  0.124635  0.127116  0.071895   0.124651
2017-10-09  0.125374  0.124378  0.127100  0.057245   0.124209
2017-10-10  0.124611  0.123542  0.126262  0.061833   0.123837
2017-10-11  0.123847  0.123418  0.126317  0.082897   0.123413
2017-10-12  0.125356  0.124845  0.121978  0.179566   0.118867
2017-10-13  0.118748  0.118144  0.119501  0.137874   0.118407
2017-10-16  0.117468  0.118574  0.120337  0.094240   0.117807
2017-10-17  0.118997  0.118822  0.121483  0.070236   0.118549
2017-10-18  0.119743  0.119896  0.122481  0.067493   0.120194
2017-10-19  0.119192  0.119209  0.120955  0.054181   0.119770
2017-10-20  0.121697  0.120865  0.123628  0.069740   0.120919
2017-10-23  0.121199  0.121093  0.124082  0.048286   0.120919
2017-10-24  0.122052  0.122397  0.124626  0.067836   0.122175
2017-10-25  0.122976  0.122185  0.123772  0.076670   0.121079
2017-10-26  0.121520  0.121516  0.124384  0.058915   0.121379
2017-10-27  0.121112  0.121040  0.123317  0.050459   0.121521
2017-10-30  0.120721  0.120918  0.123628  0.047103   0.121361
2017-10-31  0.121893  0.121235  0.123781  0.052345   0.120866
2017-11-01  0.122106  0.121992  0.124772  0.050682   0.121804
2017-11-02  0.122034  0.122574  0.123900  0.057976   0.123059
2017-11-03  0.123082  0.122326  0.125404  0.047501   0.122402
2017-11-06  0.121957  0.121689  0.124181  0.056139   0.121958
2017-11-07  0.122296  0.121636  0.122629  0.076652   0.120022
2017-11-08  0.119816  0.119107  0.121169  0.083124   0.119365
2017-11-09  0.118621  0.119443  0.121041  0.068807   0.119525
2017-11-10  0.120066  0.119620  0.122246  0.057104   0.119205

[12074 rows x 5 columns]
Compilation Time :  0.026362180709838867
Train on 8692 samples, validate on 2173 samples
Epoch 1/50

 512/8692 [>.............................] - ETA: 18s - loss: 0.0272 - acc: 0.0000e+00
1024/8692 [==>...........................] - ETA: 9s - loss: 0.0252 - acc: 0.0000e+00 
1536/8692 [====>.........................] - ETA: 7s - loss: 0.0209 - acc: 6.5104e-04
2048/8692 [======>.......................] - ETA: 5s - loss: 0.0185 - acc: 4.8828e-04
2560/8692 [=======>......................] - ETA: 4s - loss: 0.0164 - acc: 3.9063e-04
3072/8692 [=========>....................] - ETA: 3s - loss: 0.0144 - acc: 3.2552e-04
3584/8692 [===========>..................] - ETA: 3s - loss: 0.0128 - acc: 2.7902e-04
4096/8692 [=============>................] - ETA: 2s - loss: 0.0116 - acc: 2.4414e-04
4608/8692 [==============>...............] - ETA: 2s - loss: 0.0106 - acc: 2.1701e-04
5120/8692 [================>.............] - ETA: 1s - loss: 0.0096 - acc: 1.9531e-04
5632/8692 [==================>...........] - ETA: 1s - loss: 0.0088 - acc: 1.7756e-04
6144/8692 [====================>.........] - ETA: 1s - loss: 0.0083 - acc: 1.6276e-04
6656/8692 [=====================>........] - ETA: 1s - loss: 0.0081 - acc: 1.5024e-04
7168/8692 [=======================>......] - ETA: 0s - loss: 0.0134 - acc: 1.3951e-04
7680/8692 [=========================>....] - ETA: 0s - loss: 0.0294 - acc: 1.3021e-04
8192/8692 [===========================>..] - ETA: 0s - loss: 0.0630 - acc: 1.2207e-04
8692/8692 [==============================] - 5s 518us/step - loss: 0.0812 - acc: 1.1505e-04 - val_loss: 0.2072 - val_acc: 0.0000e+00
Epoch 2/50

 512/8692 [>.............................] - ETA: 3s - loss: 0.0084 - acc: 0.0000e+00
1024/8692 [==>...........................] - ETA: 2s - loss: 0.0094 - acc: 0.0000e+00
1536/8692 [====>.........................] - ETA: 2s - loss: 0.0125 - acc: 6.5104e-04
2048/8692 [======>.......................] - ETA: 2s - loss: 0.0140 - acc: 4.8828e-04
2560/8692 [=======>......................] - ETA: 2s - loss: 0.0153 - acc: 3.9063e-04
3072/8692 [=========>....................] - ETA: 2s - loss: 0.0166 - acc: 3.2552e-04
3584/8692 [===========>..................] - ETA: 2s - loss: 0.0177 - acc: 2.7902e-04
4096/8692 [=============>................] - ETA: 1s - loss: 0.0181 - acc: 2.4414e-04
4608/8692 [==============>...............] - ETA: 1s - loss: 0.0180 - acc: 2.1701e-04
5120/8692 [================>.............] - ETA: 1s - loss: 0.0183 - acc: 1.9531e-04
5632/8692 [==================>...........] - ETA: 1s - loss: 0.0184 - acc: 1.7756e-04
6144/8692 [====================>.........] - ETA: 1s - loss: 0.0177 - acc: 1.6276e-04
6656/8692 [=====================>........] - ETA: 0s - loss: 0.0166 - acc: 1.5024e-04
7168/8692 [=======================>......] - ETA: 0s - loss: 0.0180 - acc: 1.3951e-04
7680/8692 [=========================>....] - ETA: 0s - loss: 0.0281 - acc: 1.3021e-04
8192/8692 [===========================>..] - ETA: 0s - loss: 0.0546 - acc: 1.2207e-04
8692/8692 [==============================] - 4s 441us/step - loss: 0.0684 - acc: 1.1505e-04 - val_loss: 0.1745 - val_acc: 0.0000e+00
Epoch 3/50

 512/8692 [>.............................] - ETA: 3s - loss: 0.0245 - acc: 0.0000e+00
1024/8692 [==>...........................] - ETA: 2s - loss: 0.0250 - acc: 0.0000e+00
1536/8692 [====>.........................] - ETA: 2s - loss: 0.0283 - acc: 6.5104e-04
2048/8692 [======>.......................] - ETA: 2s - loss: 0.0294 - acc: 4.8828e-04
2560/8692 [=======>......................] - ETA: 2s - loss: 0.0302 - acc: 3.9063e-04
3072/8692 [=========>....................] - ETA: 2s - loss: 0.0309 - acc: 3.2552e-04
3584/8692 [===========>..................] - ETA: 1s - loss: 0.0313 - acc: 2.7902e-04
4096/8692 [=============>................] - ETA: 1s - loss: 0.0310 - acc: 2.4414e-04
4608/8692 [==============>...............] - ETA: 1s - loss: 0.0300 - acc: 2.1701e-04
5120/8692 [================>.............] - ETA: 1s - loss: 0.0297 - acc: 1.9531e-04
5632/8692 [==================>...........] - ETA: 1s - loss: 0.0290 - acc: 1.7756e-04
6144/8692 [====================>.........] - ETA: 0s - loss: 0.0275 - acc: 1.6276e-04
6656/8692 [=====================>........] - ETA: 0s - loss: 0.0258 - acc: 1.5024e-04
7168/8692 [=======================>......] - ETA: 0s - loss: 0.0263 - acc: 1.3951e-04
7680/8692 [=========================>....] - ETA: 0s - loss: 0.0358 - acc: 1.3021e-04
8192/8692 [===========================>..] - ETA: 0s - loss: 0.0616 - acc: 1.2207e-04
8692/8692 [==============================] - 3s 400us/step - loss: 0.0750 - acc: 1.1505e-04 - val_loss: 0.1741 - val_acc: 0.0000e+00
Epoch 4/50

 512/8692 [>.............................] - ETA: 3s - loss: 0.0226 - acc: 0.0000e+00
1024/8692 [==>...........................] - ETA: 2s - loss: 0.0228 - acc: 0.0000e+00
1536/8692 [====>.........................] - ETA: 2s - loss: 0.0258 - acc: 6.5104e-04
2048/8692 [======>.......................] - ETA: 2s - loss: 0.0266 - acc: 4.8828e-04
2560/8692 [=======>......................] - ETA: 2s - loss: 0.0271 - acc: 3.9063e-04
3072/8692 [=========>....................] - ETA: 2s - loss: 0.0276 - acc: 3.2552e-04
3584/8692 [===========>..................] - ETA: 1s - loss: 0.0278 - acc: 2.7902e-04
4096/8692 [=============>................] - ETA: 1s - loss: 0.0273 - acc: 2.4414e-04
4608/8692 [==============>...............] - ETA: 1s - loss: 0.0263 - acc: 2.1701e-04
5120/8692 [================>.............] - ETA: 1s - loss: 0.0259 - acc: 1.9531e-04
5632/8692 [==================>...........] - ETA: 1s - loss: 0.0252 - acc: 1.7756e-04
6144/8692 [====================>.........] - ETA: 0s - loss: 0.0238 - acc: 1.6276e-04
6656/8692 [=====================>........] - ETA: 0s - loss: 0.0222 - acc: 1.5024e-04
7168/8692 [=======================>......] - ETA: 0s - loss: 0.0232 - acc: 1.3951e-04
7680/8692 [=========================>....] - ETA: 0s - loss: 0.0327 - acc: 1.3021e-04
8192/8692 [===========================>..] - ETA: 0s - loss: 0.0576 - acc: 1.2207e-04
8692/8692 [==============================] - 4s 452us/step - loss: 0.0704 - acc: 1.1505e-04 - val_loss: 0.1593 - val_acc: 0.0000e+00
Epoch 5/50

 512/8692 [>.............................] - ETA: 4s - loss: 0.0181 - acc: 0.0000e+00
1024/8692 [==>...........................] - ETA: 3s - loss: 0.0183 - acc: 0.0000e+00
1536/8692 [====>.........................] - ETA: 3s - loss: 0.0207 - acc: 6.5104e-04
2048/8692 [======>.......................] - ETA: 3s - loss: 0.0214 - acc: 4.8828e-04
2560/8692 [=======>......................] - ETA: 2s - loss: 0.0218 - acc: 3.9063e-04
3072/8692 [=========>....................] - ETA: 2s - loss: 0.0222 - acc: 3.2552e-04
3584/8692 [===========>..................] - ETA: 2s - loss: 0.0223 - acc: 2.7902e-04
4096/8692 [=============>................] - ETA: 2s - loss: 0.0218 - acc: 2.4414e-04
4608/8692 [==============>...............] - ETA: 2s - loss: 0.0210 - acc: 2.1701e-04
5120/8692 [================>.............] - ETA: 1s - loss: 0.0205 - acc: 1.9531e-04
5632/8692 [==================>...........] - ETA: 1s - loss: 0.0199 - acc: 1.7756e-04
6144/8692 [====================>.........] - ETA: 1s - loss: 0.0187 - acc: 1.6276e-04
6656/8692 [=====================>........] - ETA: 1s - loss: 0.0174 - acc: 1.5024e-04
7168/8692 [=======================>......] - ETA: 0s - loss: 0.0177 - acc: 1.3951e-04
7680/8692 [=========================>....] - ETA: 0s - loss: 0.0230 - acc: 1.3021e-04
8192/8692 [===========================>..] - ETA: 0s - loss: 0.0370 - acc: 1.2207e-04
8692/8692 [==============================] - 5s 616us/step - loss: 0.0429 - acc: 1.1505e-04 - val_loss: 0.0731 - val_acc: 0.0000e+00
Epoch 6/50

 512/8692 [>.............................] - ETA: 6s - loss: 0.0087 - acc: 0.0000e+00
1024/8692 [==>...........................] - ETA: 4s - loss: 0.0086 - acc: 0.0000e+00
1536/8692 [====>.........................] - ETA: 4s - loss: 0.0094 - acc: 6.5104e-04
2048/8692 [======>.......................] - ETA: 3s - loss: 0.0093 - acc: 4.8828e-04
2560/8692 [=======>......................] - ETA: 3s - loss: 0.0091 - acc: 3.9063e-04
3072/8692 [=========>....................] - ETA: 3s - loss: 0.0089 - acc: 3.2552e-04
3584/8692 [===========>..................] - ETA: 2s - loss: 0.0085 - acc: 2.7902e-04
4096/8692 [=============>................] - ETA: 2s - loss: 0.0080 - acc: 2.4414e-04
4608/8692 [==============>...............] - ETA: 2s - loss: 0.0075 - acc: 2.1701e-04
5120/8692 [================>.............] - ETA: 2s - loss: 0.0069 - acc: 1.9531e-04
5632/8692 [==================>...........] - ETA: 1s - loss: 0.0064 - acc: 1.7756e-04
6144/8692 [====================>.........] - ETA: 1s - loss: 0.0060 - acc: 1.6276e-04
6656/8692 [=====================>........] - ETA: 1s - loss: 0.0055 - acc: 1.5024e-04
7168/8692 [=======================>......] - ETA: 0s - loss: 0.0054 - acc: 1.3951e-04
7680/8692 [=========================>....] - ETA: 0s - loss: 0.0056 - acc: 1.3021e-04
8192/8692 [===========================>..] - ETA: 0s - loss: 0.0097 - acc: 2.4414e-04
8692/8692 [==============================] - 6s 659us/step - loss: 0.0108 - acc: 2.3010e-04 - val_loss: 0.0230 - val_acc: 0.0000e+00
Epoch 7/50

 512/8692 [>.............................] - ETA: 4s - loss: 0.0011 - acc: 0.0000e+00
1024/8692 [==>...........................] - ETA: 4s - loss: 0.0013 - acc: 0.0000e+00
1536/8692 [====>.........................] - ETA: 4s - loss: 0.0014 - acc: 6.5104e-04
2048/8692 [======>.......................] - ETA: 4s - loss: 0.0015 - acc: 4.8828e-04
2560/8692 [=======>......................] - ETA: 3s - loss: 0.0016 - acc: 3.9063e-04
3072/8692 [=========>....................] - ETA: 3s - loss: 0.0016 - acc: 3.2552e-04
3584/8692 [===========>..................] - ETA: 3s - loss: 0.0016 - acc: 2.7902e-04
4096/8692 [=============>................] - ETA: 3s - loss: 0.0016 - acc: 2.4414e-04
4608/8692 [==============>...............] - ETA: 2s - loss: 0.0015 - acc: 2.1701e-04
5120/8692 [================>.............] - ETA: 2s - loss: 0.0014 - acc: 1.9531e-04
5632/8692 [==================>...........] - ETA: 1s - loss: 0.0013 - acc: 1.7756e-04
6144/8692 [====================>.........] - ETA: 1s - loss: 0.0012 - acc: 1.6276e-04
6656/8692 [=====================>........] - ETA: 1s - loss: 0.0013 - acc: 1.5024e-04
7168/8692 [=======================>......] - ETA: 0s - loss: 0.0025 - acc: 1.3951e-04
7680/8692 [=========================>....] - ETA: 0s - loss: 0.0030 - acc: 1.3021e-04
8192/8692 [===========================>..] - ETA: 0s - loss: 0.0055 - acc: 2.4414e-04
8692/8692 [==============================] - 6s 653us/step - loss: 0.0061 - acc: 2.3010e-04 - val_loss: 0.0158 - val_acc: 0.0000e+00
Epoch 8/50

 512/8692 [>.............................] - ETA: 4s - loss: 8.6954e-05 - acc: 0.0000e+00
1024/8692 [==>...........................] - ETA: 4s - loss: 8.9837e-05 - acc: 0.0000e+00
1536/8692 [====>.........................] - ETA: 4s - loss: 9.6868e-05 - acc: 6.5104e-04
2048/8692 [======>.......................] - ETA: 3s - loss: 9.8359e-05 - acc: 4.8828e-04
2560/8692 [=======>......................] - ETA: 3s - loss: 1.0449e-04 - acc: 3.9063e-04
3072/8692 [=========>....................] - ETA: 3s - loss: 1.0811e-04 - acc: 3.2552e-04
3584/8692 [===========>..................] - ETA: 2s - loss: 1.1034e-04 - acc: 2.7902e-04
4096/8692 [=============>................] - ETA: 2s - loss: 1.1153e-04 - acc: 2.4414e-04
4608/8692 [==============>...............] - ETA: 2s - loss: 1.1039e-04 - acc: 2.1701e-04
5120/8692 [================>.............] - ETA: 1s - loss: 1.1220e-04 - acc: 1.9531e-04
5632/8692 [==================>...........] - ETA: 1s - loss: 1.1169e-04 - acc: 1.7756e-04
6144/8692 [====================>.........] - ETA: 1s - loss: 1.1527e-04 - acc: 1.6276e-04
6656/8692 [=====================>........] - ETA: 1s - loss: 1.5079e-04 - acc: 1.5024e-04
7168/8692 [=======================>......] - ETA: 0s - loss: 0.0011 - acc: 1.3951e-04    
7680/8692 [=========================>....] - ETA: 0s - loss: 0.0016 - acc: 1.3021e-04
8192/8692 [===========================>..] - ETA: 0s - loss: 0.0037 - acc: 2.4414e-04
8692/8692 [==============================] - 5s 612us/step - loss: 0.0042 - acc: 2.3010e-04 - val_loss: 0.0120 - val_acc: 0.0000e+00
Epoch 9/50

 512/8692 [>.............................] - ETA: 4s - loss: 1.2654e-04 - acc: 0.0000e+00
1024/8692 [==>...........................] - ETA: 4s - loss: 1.3494e-04 - acc: 0.0000e+00
1536/8692 [====>.........................] - ETA: 3s - loss: 1.2446e-04 - acc: 6.5104e-04
2048/8692 [======>.......................] - ETA: 3s - loss: 1.2289e-04 - acc: 4.8828e-04
2560/8692 [=======>......................] - ETA: 3s - loss: 1.2221e-04 - acc: 3.9063e-04
3072/8692 [=========>....................] - ETA: 3s - loss: 1.1973e-04 - acc: 3.2552e-04
3584/8692 [===========>..................] - ETA: 2s - loss: 1.1866e-04 - acc: 2.7902e-04
4096/8692 [=============>................] - ETA: 2s - loss: 1.2205e-04 - acc: 2.4414e-04
4608/8692 [==============>...............] - ETA: 2s - loss: 1.3204e-04 - acc: 2.1701e-04
5120/8692 [================>.............] - ETA: 1s - loss: 1.3093e-04 - acc: 1.9531e-04
5632/8692 [==================>...........] - ETA: 1s - loss: 1.3134e-04 - acc: 1.7756e-04
6144/8692 [====================>.........] - ETA: 1s - loss: 1.4109e-04 - acc: 1.6276e-04
6656/8692 [=====================>........] - ETA: 1s - loss: 1.4822e-04 - acc: 1.5024e-04
7168/8692 [=======================>......] - ETA: 0s - loss: 4.0495e-04 - acc: 1.3951e-04
7680/8692 [=========================>....] - ETA: 0s - loss: 6.6263e-04 - acc: 1.3021e-04
8192/8692 [===========================>..] - ETA: 0s - loss: 0.0025 - acc: 2.4414e-04    
8692/8692 [==============================] - 5s 599us/step - loss: 0.0030 - acc: 2.3010e-04 - val_loss: 0.0095 - val_acc: 0.0000e+00
Epoch 10/50

 512/8692 [>.............................] - ETA: 4s - loss: 1.2647e-04 - acc: 0.0000e+00
1024/8692 [==>...........................] - ETA: 4s - loss: 1.2725e-04 - acc: 0.0000e+00
1536/8692 [====>.........................] - ETA: 4s - loss: 1.8323e-04 - acc: 6.5104e-04
2048/8692 [======>.......................] - ETA: 3s - loss: 1.8259e-04 - acc: 4.8828e-04
2560/8692 [=======>......................] - ETA: 3s - loss: 1.8970e-04 - acc: 3.9063e-04
3072/8692 [=========>....................] - ETA: 3s - loss: 1.9817e-04 - acc: 3.2552e-04
3584/8692 [===========>..................] - ETA: 2s - loss: 1.9791e-04 - acc: 2.7902e-04
4096/8692 [=============>................] - ETA: 2s - loss: 1.8800e-04 - acc: 2.4414e-04
4608/8692 [==============>...............] - ETA: 2s - loss: 1.7844e-04 - acc: 2.1701e-04
5120/8692 [================>.............] - ETA: 2s - loss: 1.7117e-04 - acc: 1.9531e-04
5632/8692 [==================>...........] - ETA: 1s - loss: 1.6519e-04 - acc: 1.7756e-04
6144/8692 [====================>.........] - ETA: 1s - loss: 1.7549e-04 - acc: 1.6276e-04
6656/8692 [=====================>........] - ETA: 1s - loss: 1.9063e-04 - acc: 1.5024e-04
7168/8692 [=======================>......] - ETA: 0s - loss: 3.4487e-04 - acc: 1.3951e-04
7680/8692 [=========================>....] - ETA: 0s - loss: 5.4862e-04 - acc: 1.3021e-04
8192/8692 [===========================>..] - ETA: 0s - loss: 0.0020 - acc: 2.4414e-04    
8692/8692 [==============================] - 5s 609us/step - loss: 0.0023 - acc: 2.3010e-04 - val_loss: 0.0070 - val_acc: 0.0000e+00
Epoch 11/50

 512/8692 [>.............................] - ETA: 4s - loss: 1.2163e-04 - acc: 0.0000e+00
1024/8692 [==>...........................] - ETA: 4s - loss: 1.1785e-04 - acc: 0.0000e+00
1536/8692 [====>.........................] - ETA: 3s - loss: 1.7428e-04 - acc: 6.5104e-04
2048/8692 [======>.......................] - ETA: 3s - loss: 1.7303e-04 - acc: 4.8828e-04
2560/8692 [=======>......................] - ETA: 3s - loss: 1.7176e-04 - acc: 3.9063e-04
3072/8692 [=========>....................] - ETA: 2s - loss: 1.7322e-04 - acc: 3.2552e-04
3584/8692 [===========>..................] - ETA: 2s - loss: 1.7200e-04 - acc: 2.7902e-04
4096/8692 [=============>................] - ETA: 2s - loss: 1.6379e-04 - acc: 2.4414e-04
4608/8692 [==============>...............] - ETA: 2s - loss: 1.6332e-04 - acc: 2.1701e-04
5120/8692 [================>.............] - ETA: 1s - loss: 1.5824e-04 - acc: 1.9531e-04
5632/8692 [==================>...........] - ETA: 1s - loss: 1.5575e-04 - acc: 1.7756e-04
6144/8692 [====================>.........] - ETA: 1s - loss: 1.8326e-04 - acc: 1.6276e-04
6656/8692 [=====================>........] - ETA: 1s - loss: 2.2336e-04 - acc: 1.5024e-04
7168/8692 [=======================>......] - ETA: 0s - loss: 3.5756e-04 - acc: 1.3951e-04
7680/8692 [=========================>....] - ETA: 0s - loss: 5.6784e-04 - acc: 1.3021e-04
8192/8692 [===========================>..] - ETA: 0s - loss: 0.0016 - acc: 2.4414e-04    
8692/8692 [==============================] - 5s 593us/step - loss: 0.0019 - acc: 2.3010e-04 - val_loss: 0.0051 - val_acc: 0.0000e+00
Epoch 12/50

 512/8692 [>.............................] - ETA: 4s - loss: 1.3692e-04 - acc: 0.0000e+00
1024/8692 [==>...........................] - ETA: 4s - loss: 1.3198e-04 - acc: 0.0000e+00
1536/8692 [====>.........................] - ETA: 3s - loss: 2.2138e-04 - acc: 6.5104e-04
2048/8692 [======>.......................] - ETA: 3s - loss: 2.2777e-04 - acc: 4.8828e-04
2560/8692 [=======>......................] - ETA: 3s - loss: 2.2781e-04 - acc: 3.9063e-04
3072/8692 [=========>....................] - ETA: 2s - loss: 2.3301e-04 - acc: 3.2552e-04
3584/8692 [===========>..................] - ETA: 2s - loss: 2.2923e-04 - acc: 2.7902e-04
4096/8692 [=============>................] - ETA: 2s - loss: 2.1511e-04 - acc: 2.4414e-04
4608/8692 [==============>...............] - ETA: 2s - loss: 2.1021e-04 - acc: 2.1701e-04
5120/8692 [================>.............] - ETA: 1s - loss: 2.0074e-04 - acc: 1.9531e-04
5632/8692 [==================>...........] - ETA: 1s - loss: 1.9464e-04 - acc: 1.7756e-04
6144/8692 [====================>.........] - ETA: 1s - loss: 2.2701e-04 - acc: 1.6276e-04
6656/8692 [=====================>........] - ETA: 1s - loss: 2.8653e-04 - acc: 1.5024e-04
7168/8692 [=======================>......] - ETA: 0s - loss: 3.7688e-04 - acc: 1.3951e-04
7680/8692 [=========================>....] - ETA: 0s - loss: 5.4220e-04 - acc: 1.3021e-04
8192/8692 [===========================>..] - ETA: 0s - loss: 0.0014 - acc: 2.4414e-04    
8692/8692 [==============================] - 5s 584us/step - loss: 0.0016 - acc: 2.3010e-04 - val_loss: 0.0040 - val_acc: 0.0000e+00
Epoch 13/50

 512/8692 [>.............................] - ETA: 4s - loss: 1.6667e-04 - acc: 0.0000e+00
1024/8692 [==>...........................] - ETA: 4s - loss: 1.6218e-04 - acc: 0.0000e+00
1536/8692 [====>.........................] - ETA: 4s - loss: 2.6167e-04 - acc: 6.5104e-04
2048/8692 [======>.......................] - ETA: 3s - loss: 2.6362e-04 - acc: 4.8828e-04
2560/8692 [=======>......................] - ETA: 3s - loss: 2.5921e-04 - acc: 3.9063e-04
3072/8692 [=========>....................] - ETA: 3s - loss: 2.6262e-04 - acc: 3.2552e-04
3584/8692 [===========>..................] - ETA: 2s - loss: 2.5934e-04 - acc: 2.7902e-04
4096/8692 [=============>................] - ETA: 2s - loss: 2.4445e-04 - acc: 2.4414e-04
4608/8692 [==============>...............] - ETA: 2s - loss: 2.3650e-04 - acc: 2.1701e-04
5120/8692 [================>.............] - ETA: 2s - loss: 2.2419e-04 - acc: 1.9531e-04
5632/8692 [==================>...........] - ETA: 1s - loss: 2.1649e-04 - acc: 1.7756e-04
6144/8692 [====================>.........] - ETA: 1s - loss: 2.5895e-04 - acc: 1.6276e-04
6656/8692 [=====================>........] - ETA: 1s - loss: 3.3622e-04 - acc: 1.5024e-04
7168/8692 [=======================>......] - ETA: 0s - loss: 4.2377e-04 - acc: 1.3951e-04
7680/8692 [=========================>....] - ETA: 0s - loss: 5.5751e-04 - acc: 1.3021e-04
8192/8692 [===========================>..] - ETA: 0s - loss: 0.0012 - acc: 2.4414e-04    
8692/8692 [==============================] - 5s 598us/step - loss: 0.0014 - acc: 2.3010e-04 - val_loss: 0.0031 - val_acc: 0.0000e+00
Epoch 14/50

 512/8692 [>.............................] - ETA: 3s - loss: 1.9540e-04 - acc: 0.0000e+00
1024/8692 [==>...........................] - ETA: 3s - loss: 1.9042e-04 - acc: 0.0000e+00
1536/8692 [====>.........................] - ETA: 3s - loss: 3.0434e-04 - acc: 6.5104e-04
2048/8692 [======>.......................] - ETA: 3s - loss: 3.1399e-04 - acc: 4.8828e-04
2560/8692 [=======>......................] - ETA: 2s - loss: 3.1836e-04 - acc: 3.9063e-04
3072/8692 [=========>....................] - ETA: 2s - loss: 3.1393e-04 - acc: 3.2552e-04
3584/8692 [===========>..................] - ETA: 2s - loss: 3.0861e-04 - acc: 2.7902e-04
4096/8692 [=============>................] - ETA: 1s - loss: 2.8604e-04 - acc: 2.4414e-04
4608/8692 [==============>...............] - ETA: 1s - loss: 2.7521e-04 - acc: 2.1701e-04
5120/8692 [================>.............] - ETA: 1s - loss: 2.5999e-04 - acc: 1.9531e-04
5632/8692 [==================>...........] - ETA: 1s - loss: 2.5071e-04 - acc: 1.7756e-04
6144/8692 [====================>.........] - ETA: 1s - loss: 2.9750e-04 - acc: 1.6276e-04
6656/8692 [=====================>........] - ETA: 0s - loss: 3.8384e-04 - acc: 1.5024e-04
7168/8692 [=======================>......] - ETA: 0s - loss: 4.7088e-04 - acc: 1.3951e-04
7680/8692 [=========================>....] - ETA: 0s - loss: 6.0728e-04 - acc: 1.3021e-04
8192/8692 [===========================>..] - ETA: 0s - loss: 0.0012 - acc: 2.4414e-04    
8692/8692 [==============================] - 4s 433us/step - loss: 0.0013 - acc: 2.3010e-04 - val_loss: 0.0025 - val_acc: 0.0000e+00
Epoch 15/50

 512/8692 [>.............................] - ETA: 3s - loss: 2.2094e-04 - acc: 0.0000e+00
1024/8692 [==>...........................] - ETA: 2s - loss: 2.1604e-04 - acc: 0.0000e+00
1536/8692 [====>.........................] - ETA: 2s - loss: 3.4622e-04 - acc: 6.5104e-04
2048/8692 [======>.......................] - ETA: 2s - loss: 3.4929e-04 - acc: 4.8828e-04
2560/8692 [=======>......................] - ETA: 2s - loss: 3.4666e-04 - acc: 3.9063e-04
3072/8692 [=========>....................] - ETA: 2s - loss: 3.5251e-04 - acc: 3.2552e-04
3584/8692 [===========>..................] - ETA: 1s - loss: 3.4366e-04 - acc: 2.7902e-04
4096/8692 [=============>................] - ETA: 1s - loss: 3.1739e-04 - acc: 2.4414e-04
4608/8692 [==============>...............] - ETA: 1s - loss: 3.0398e-04 - acc: 2.1701e-04
5120/8692 [================>.............] - ETA: 1s - loss: 2.8624e-04 - acc: 1.9531e-04
5632/8692 [==================>...........] - ETA: 1s - loss: 2.7565e-04 - acc: 1.7756e-04
6144/8692 [====================>.........] - ETA: 1s - loss: 3.2989e-04 - acc: 1.6276e-04
6656/8692 [=====================>........] - ETA: 0s - loss: 4.3437e-04 - acc: 1.5024e-04
7168/8692 [=======================>......] - ETA: 0s - loss: 5.2470e-04 - acc: 1.3951e-04
7680/8692 [=========================>....] - ETA: 0s - loss: 6.4124e-04 - acc: 1.3021e-04
8192/8692 [===========================>..] - ETA: 0s - loss: 0.0011 - acc: 2.4414e-04    
8692/8692 [==============================] - 4s 472us/step - loss: 0.0012 - acc: 2.3010e-04 - val_loss: 0.0021 - val_acc: 0.0000e+00
Epoch 16/50

 512/8692 [>.............................] - ETA: 3s - loss: 2.4391e-04 - acc: 0.0000e+00
1024/8692 [==>...........................] - ETA: 2s - loss: 2.4371e-04 - acc: 0.0000e+00
1536/8692 [====>.........................] - ETA: 2s - loss: 3.9147e-04 - acc: 6.5104e-04
2048/8692 [======>.......................] - ETA: 2s - loss: 3.9898e-04 - acc: 4.8828e-04
2560/8692 [=======>......................] - ETA: 2s - loss: 3.9308e-04 - acc: 3.9063e-04
3072/8692 [=========>....................] - ETA: 2s - loss: 3.8811e-04 - acc: 3.2552e-04
3584/8692 [===========>..................] - ETA: 1s - loss: 3.7553e-04 - acc: 2.7902e-04
4096/8692 [=============>................] - ETA: 1s - loss: 3.4631e-04 - acc: 2.4414e-04
4608/8692 [==============>...............] - ETA: 1s - loss: 3.3208e-04 - acc: 2.1701e-04
5120/8692 [================>.............] - ETA: 1s - loss: 3.1194e-04 - acc: 1.9531e-04
5632/8692 [==================>...........] - ETA: 1s - loss: 2.9904e-04 - acc: 1.7756e-04
6144/8692 [====================>.........] - ETA: 0s - loss: 3.5648e-04 - acc: 1.6276e-04
6656/8692 [=====================>........] - ETA: 0s - loss: 4.5819e-04 - acc: 1.5024e-04
7168/8692 [=======================>......] - ETA: 0s - loss: 5.5782e-04 - acc: 1.3951e-04
7680/8692 [=========================>....] - ETA: 0s - loss: 6.7938e-04 - acc: 1.3021e-04
8192/8692 [===========================>..] - ETA: 0s - loss: 0.0011 - acc: 2.4414e-04    
8692/8692 [==============================] - 4s 407us/step - loss: 0.0012 - acc: 2.3010e-04 - val_loss: 0.0018 - val_acc: 0.0000e+00
Epoch 17/50

 512/8692 [>.............................] - ETA: 2s - loss: 2.3927e-04 - acc: 0.0000e+00
1024/8692 [==>...........................] - ETA: 2s - loss: 2.4061e-04 - acc: 0.0000e+00
1536/8692 [====>.........................] - ETA: 2s - loss: 3.7677e-04 - acc: 6.5104e-04
2048/8692 [======>.......................] - ETA: 2s - loss: 3.8425e-04 - acc: 4.8828e-04
2560/8692 [=======>......................] - ETA: 2s - loss: 3.8486e-04 - acc: 3.9063e-04
3072/8692 [=========>....................] - ETA: 2s - loss: 3.8474e-04 - acc: 3.2552e-04
3584/8692 [===========>..................] - ETA: 1s - loss: 3.7122e-04 - acc: 2.7902e-04
4096/8692 [=============>................] - ETA: 1s - loss: 3.4270e-04 - acc: 2.4414e-04
4608/8692 [==============>...............] - ETA: 1s - loss: 3.3033e-04 - acc: 2.1701e-04
5120/8692 [================>.............] - ETA: 1s - loss: 3.1186e-04 - acc: 1.9531e-04
5632/8692 [==================>...........] - ETA: 1s - loss: 2.9853e-04 - acc: 1.7756e-04
6144/8692 [====================>.........] - ETA: 0s - loss: 3.5315e-04 - acc: 1.6276e-04
6656/8692 [=====================>........] - ETA: 0s - loss: 4.6519e-04 - acc: 1.5024e-04
7168/8692 [=======================>......] - ETA: 0s - loss: 5.6885e-04 - acc: 1.3951e-04
7680/8692 [=========================>....] - ETA: 0s - loss: 6.5412e-04 - acc: 1.3021e-04
8192/8692 [===========================>..] - ETA: 0s - loss: 0.0010 - acc: 2.4414e-04    
8692/8692 [==============================] - 4s 410us/step - loss: 0.0011 - acc: 2.3010e-04 - val_loss: 0.0016 - val_acc: 0.0000e+00
Epoch 18/50

 512/8692 [>.............................] - ETA: 3s - loss: 2.9727e-04 - acc: 0.0000e+00
1024/8692 [==>...........................] - ETA: 2s - loss: 2.8240e-04 - acc: 0.0000e+00
1536/8692 [====>.........................] - ETA: 2s - loss: 4.4623e-04 - acc: 6.5104e-04
2048/8692 [======>.......................] - ETA: 2s - loss: 4.5184e-04 - acc: 4.8828e-04
2560/8692 [=======>......................] - ETA: 2s - loss: 4.5405e-04 - acc: 3.9063e-04
3072/8692 [=========>....................] - ETA: 2s - loss: 4.5403e-04 - acc: 3.2552e-04
3584/8692 [===========>..................] - ETA: 2s - loss: 4.3222e-04 - acc: 2.7902e-04
4096/8692 [=============>................] - ETA: 1s - loss: 4.0002e-04 - acc: 2.4414e-04
4608/8692 [==============>...............] - ETA: 1s - loss: 3.8200e-04 - acc: 2.1701e-04
5120/8692 [================>.............] - ETA: 1s - loss: 3.5721e-04 - acc: 1.9531e-04
5632/8692 [==================>...........] - ETA: 1s - loss: 3.4419e-04 - acc: 1.7756e-04
6144/8692 [====================>.........] - ETA: 0s - loss: 4.0055e-04 - acc: 1.6276e-04
6656/8692 [=====================>........] - ETA: 0s - loss: 5.0746e-04 - acc: 1.5024e-04
7168/8692 [=======================>......] - ETA: 0s - loss: 5.9694e-04 - acc: 1.3951e-04
7680/8692 [=========================>....] - ETA: 0s - loss: 7.2792e-04 - acc: 1.3021e-04
8192/8692 [===========================>..] - ETA: 0s - loss: 0.0010 - acc: 2.4414e-04    
8692/8692 [==============================] - 4s 408us/step - loss: 0.0011 - acc: 2.3010e-04 - val_loss: 0.0014 - val_acc: 0.0000e+00
Epoch 19/50

 512/8692 [>.............................] - ETA: 2s - loss: 2.1827e-04 - acc: 0.0000e+00
1024/8692 [==>...........................] - ETA: 2s - loss: 2.3327e-04 - acc: 0.0000e+00
1536/8692 [====>.........................] - ETA: 2s - loss: 3.7336e-04 - acc: 6.5104e-04
2048/8692 [======>.......................] - ETA: 2s - loss: 3.8196e-04 - acc: 4.8828e-04
2560/8692 [=======>......................] - ETA: 2s - loss: 3.8595e-04 - acc: 3.9063e-04
3072/8692 [=========>....................] - ETA: 2s - loss: 3.8595e-04 - acc: 3.2552e-04
3584/8692 [===========>..................] - ETA: 1s - loss: 3.7408e-04 - acc: 2.7902e-04
4096/8692 [=============>................] - ETA: 1s - loss: 3.4662e-04 - acc: 2.4414e-04
4608/8692 [==============>...............] - ETA: 1s - loss: 3.3382e-04 - acc: 2.1701e-04
5120/8692 [================>.............] - ETA: 1s - loss: 3.1399e-04 - acc: 1.9531e-04
5632/8692 [==================>...........] - ETA: 1s - loss: 3.0339e-04 - acc: 1.7756e-04
6144/8692 [====================>.........] - ETA: 0s - loss: 3.6522e-04 - acc: 1.6276e-04
6656/8692 [=====================>........] - ETA: 0s - loss: 4.8127e-04 - acc: 1.5024e-04
7168/8692 [=======================>......] - ETA: 0s - loss: 5.9378e-04 - acc: 1.3951e-04
7680/8692 [=========================>....] - ETA: 0s - loss: 6.5947e-04 - acc: 1.3021e-04
8192/8692 [===========================>..] - ETA: 0s - loss: 9.7394e-04 - acc: 2.4414e-04
8692/8692 [==============================] - 3s 400us/step - loss: 0.0010 - acc: 2.3010e-04 - val_loss: 0.0013 - val_acc: 0.0000e+00
Epoch 20/50

 512/8692 [>.............................] - ETA: 3s - loss: 3.2309e-04 - acc: 0.0000e+00
1024/8692 [==>...........................] - ETA: 2s - loss: 3.3480e-04 - acc: 0.0000e+00
1536/8692 [====>.........................] - ETA: 2s - loss: 5.2097e-04 - acc: 6.5104e-04
2048/8692 [======>.......................] - ETA: 2s - loss: 5.2791e-04 - acc: 4.8828e-04
2560/8692 [=======>......................] - ETA: 2s - loss: 5.1995e-04 - acc: 3.9063e-04
3072/8692 [=========>....................] - ETA: 2s - loss: 5.1260e-04 - acc: 3.2552e-04
3584/8692 [===========>..................] - ETA: 1s - loss: 4.8466e-04 - acc: 2.7902e-04
4096/8692 [=============>................] - ETA: 1s - loss: 4.4479e-04 - acc: 2.4414e-04
4608/8692 [==============>...............] - ETA: 1s - loss: 4.2191e-04 - acc: 2.1701e-04
5120/8692 [================>.............] - ETA: 1s - loss: 3.9532e-04 - acc: 1.9531e-04
5632/8692 [==================>...........] - ETA: 1s - loss: 3.7810e-04 - acc: 1.7756e-04
6144/8692 [====================>.........] - ETA: 0s - loss: 4.3199e-04 - acc: 1.6276e-04
6656/8692 [=====================>........] - ETA: 0s - loss: 5.3476e-04 - acc: 1.5024e-04
7168/8692 [=======================>......] - ETA: 0s - loss: 6.2130e-04 - acc: 1.3951e-04
7680/8692 [=========================>....] - ETA: 0s - loss: 7.9349e-04 - acc: 1.3021e-04
8192/8692 [===========================>..] - ETA: 0s - loss: 0.0010 - acc: 2.4414e-04    
8692/8692 [==============================] - 4s 409us/step - loss: 0.0011 - acc: 2.3010e-04 - val_loss: 0.0012 - val_acc: 0.0000e+00
Epoch 21/50

 512/8692 [>.............................] - ETA: 3s - loss: 2.2799e-04 - acc: 0.0000e+00
1024/8692 [==>...........................] - ETA: 2s - loss: 2.3171e-04 - acc: 0.0000e+00
1536/8692 [====>.........................] - ETA: 2s - loss: 3.5397e-04 - acc: 6.5104e-04
2048/8692 [======>.......................] - ETA: 2s - loss: 3.7631e-04 - acc: 4.8828e-04
2560/8692 [=======>......................] - ETA: 2s - loss: 3.7831e-04 - acc: 3.9063e-04
3072/8692 [=========>....................] - ETA: 2s - loss: 3.7808e-04 - acc: 3.2552e-04
3584/8692 [===========>..................] - ETA: 1s - loss: 3.6471e-04 - acc: 2.7902e-04
4096/8692 [=============>................] - ETA: 1s - loss: 3.3691e-04 - acc: 2.4414e-04
4608/8692 [==============>...............] - ETA: 1s - loss: 3.2691e-04 - acc: 2.1701e-04
5120/8692 [================>.............] - ETA: 1s - loss: 3.0788e-04 - acc: 1.9531e-04
5632/8692 [==================>...........] - ETA: 1s - loss: 2.9982e-04 - acc: 1.7756e-04
6144/8692 [====================>.........] - ETA: 0s - loss: 3.6882e-04 - acc: 1.6276e-04
6656/8692 [=====================>........] - ETA: 0s - loss: 4.9806e-04 - acc: 1.5024e-04
7168/8692 [=======================>......] - ETA: 0s - loss: 6.6165e-04 - acc: 1.3951e-04
7680/8692 [=========================>....] - ETA: 0s - loss: 6.9173e-04 - acc: 1.3021e-04
8192/8692 [===========================>..] - ETA: 0s - loss: 0.0010 - acc: 2.4414e-04    
8692/8692 [==============================] - 4s 407us/step - loss: 0.0011 - acc: 2.3010e-04 - val_loss: 0.0012 - val_acc: 0.0000e+00
Epoch 22/50

 512/8692 [>.............................] - ETA: 3s - loss: 4.7225e-04 - acc: 0.0000e+00
1024/8692 [==>...........................] - ETA: 2s - loss: 4.7455e-04 - acc: 0.0000e+00
1536/8692 [====>.........................] - ETA: 2s - loss: 6.6806e-04 - acc: 6.5104e-04
2048/8692 [======>.......................] - ETA: 2s - loss: 6.8669e-04 - acc: 4.8828e-04
2560/8692 [=======>......................] - ETA: 2s - loss: 6.7781e-04 - acc: 3.9063e-04
3072/8692 [=========>....................] - ETA: 2s - loss: 6.5468e-04 - acc: 3.2552e-04
3584/8692 [===========>..................] - ETA: 1s - loss: 6.1864e-04 - acc: 2.7902e-04
4096/8692 [=============>................] - ETA: 1s - loss: 5.6200e-04 - acc: 2.4414e-04
4608/8692 [==============>...............] - ETA: 1s - loss: 5.2334e-04 - acc: 2.1701e-04
5120/8692 [================>.............] - ETA: 1s - loss: 4.8645e-04 - acc: 1.9531e-04
5632/8692 [==================>...........] - ETA: 1s - loss: 4.6464e-04 - acc: 1.7756e-04
6144/8692 [====================>.........] - ETA: 0s - loss: 4.9840e-04 - acc: 1.6276e-04
6656/8692 [=====================>........] - ETA: 0s - loss: 5.6523e-04 - acc: 1.5024e-04
7168/8692 [=======================>......] - ETA: 0s - loss: 7.3353e-04 - acc: 1.3951e-04
7680/8692 [=========================>....] - ETA: 0s - loss: 0.0012 - acc: 1.3021e-04    
8192/8692 [===========================>..] - ETA: 0s - loss: 0.0013 - acc: 2.4414e-04
8692/8692 [==============================] - 4s 408us/step - loss: 0.0014 - acc: 2.3010e-04 - val_loss: 0.0011 - val_acc: 0.0000e+00
Epoch 23/50

 512/8692 [>.............................] - ETA: 3s - loss: 1.6139e-04 - acc: 0.0000e+00
1024/8692 [==>...........................] - ETA: 2s - loss: 1.5613e-04 - acc: 0.0000e+00
1536/8692 [====>.........................] - ETA: 2s - loss: 2.2046e-04 - acc: 6.5104e-04
2048/8692 [======>.......................] - ETA: 2s - loss: 2.2221e-04 - acc: 4.8828e-04
2560/8692 [=======>......................] - ETA: 2s - loss: 2.2653e-04 - acc: 3.9063e-04
3072/8692 [=========>....................] - ETA: 2s - loss: 2.2695e-04 - acc: 3.2552e-04
3584/8692 [===========>..................] - ETA: 1s - loss: 2.2408e-04 - acc: 2.7902e-04
4096/8692 [=============>................] - ETA: 1s - loss: 2.1647e-04 - acc: 2.4414e-04
4608/8692 [==============>...............] - ETA: 1s - loss: 2.2527e-04 - acc: 2.1701e-04
5120/8692 [================>.............] - ETA: 1s - loss: 2.1646e-04 - acc: 1.9531e-04
5632/8692 [==================>...........] - ETA: 1s - loss: 2.1650e-04 - acc: 1.7756e-04
6144/8692 [====================>.........] - ETA: 0s - loss: 2.9647e-04 - acc: 1.6276e-04
6656/8692 [=====================>........] - ETA: 0s - loss: 4.5648e-04 - acc: 1.5024e-04
7168/8692 [=======================>......] - ETA: 0s - loss: 9.9803e-04 - acc: 1.3951e-04
7680/8692 [=========================>....] - ETA: 0s - loss: 0.0014 - acc: 1.3021e-04    
8192/8692 [===========================>..] - ETA: 0s - loss: 0.0021 - acc: 2.4414e-04
8692/8692 [==============================] - 3s 401us/step - loss: 0.0022 - acc: 2.3010e-04 - val_loss: 0.0014 - val_acc: 0.0000e+00
Epoch 24/50

 512/8692 [>.............................] - ETA: 2s - loss: 0.0011 - acc: 0.0000e+00
1024/8692 [==>...........................] - ETA: 2s - loss: 0.0011 - acc: 0.0000e+00
1536/8692 [====>.........................] - ETA: 2s - loss: 0.0014 - acc: 6.5104e-04
2048/8692 [======>.......................] - ETA: 2s - loss: 0.0014 - acc: 4.8828e-04
2560/8692 [=======>......................] - ETA: 2s - loss: 0.0014 - acc: 3.9063e-04
3072/8692 [=========>....................] - ETA: 2s - loss: 0.0013 - acc: 3.2552e-04
3584/8692 [===========>..................] - ETA: 1s - loss: 0.0012 - acc: 2.7902e-04
4096/8692 [=============>................] - ETA: 1s - loss: 0.0011 - acc: 2.4414e-04
4608/8692 [==============>...............] - ETA: 1s - loss: 9.7309e-04 - acc: 2.1701e-04
5120/8692 [================>.............] - ETA: 1s - loss: 8.9463e-04 - acc: 1.9531e-04
5632/8692 [==================>...........] - ETA: 1s - loss: 8.4055e-04 - acc: 1.7756e-04
6144/8692 [====================>.........] - ETA: 0s - loss: 8.1056e-04 - acc: 1.6276e-04
6656/8692 [=====================>........] - ETA: 0s - loss: 7.7827e-04 - acc: 1.5024e-04
7168/8692 [=======================>......] - ETA: 0s - loss: 0.0030 - acc: 1.3951e-04    
7680/8692 [=========================>....] - ETA: 0s - loss: 0.0057 - acc: 1.3021e-04
8192/8692 [===========================>..] - ETA: 0s - loss: 0.0056 - acc: 2.4414e-04
8692/8692 [==============================] - 4s 405us/step - loss: 0.0062 - acc: 2.3010e-04 - val_loss: 0.0027 - val_acc: 0.0000e+00
Epoch 25/50

 512/8692 [>.............................] - ETA: 3s - loss: 0.0010 - acc: 0.0000e+00
1024/8692 [==>...........................] - ETA: 2s - loss: 0.0011 - acc: 0.0000e+00
1536/8692 [====>.........................] - ETA: 2s - loss: 8.8756e-04 - acc: 6.5104e-04
2048/8692 [======>.......................] - ETA: 2s - loss: 8.0625e-04 - acc: 4.8828e-04
2560/8692 [=======>......................] - ETA: 2s - loss: 7.2644e-04 - acc: 3.9063e-04
3072/8692 [=========>....................] - ETA: 2s - loss: 6.4343e-04 - acc: 3.2552e-04
3584/8692 [===========>..................] - ETA: 1s - loss: 5.7817e-04 - acc: 2.7902e-04
4096/8692 [=============>................] - ETA: 1s - loss: 5.3122e-04 - acc: 2.4414e-04
4608/8692 [==============>...............] - ETA: 1s - loss: 5.0611e-04 - acc: 2.1701e-04
5120/8692 [================>.............] - ETA: 1s - loss: 4.6904e-04 - acc: 1.9531e-04
5632/8692 [==================>...........] - ETA: 1s - loss: 4.3993e-04 - acc: 1.7756e-04
6144/8692 [====================>.........] - ETA: 0s - loss: 4.6474e-04 - acc: 1.6276e-04
6656/8692 [=====================>........] - ETA: 0s - loss: 5.5771e-04 - acc: 1.5024e-04
7168/8692 [=======================>......] - ETA: 0s - loss: 0.0014 - acc: 1.3951e-04    
7680/8692 [=========================>....] - ETA: 0s - loss: 0.0030 - acc: 1.3021e-04
8192/8692 [===========================>..] - ETA: 0s - loss: 0.0055 - acc: 2.4414e-04
8692/8692 [==============================] - 3s 402us/step - loss: 0.0061 - acc: 2.3010e-04 - val_loss: 0.0053 - val_acc: 0.0000e+00
Epoch 26/50

 512/8692 [>.............................] - ETA: 2s - loss: 0.0023 - acc: 0.0000e+00
1024/8692 [==>...........................] - ETA: 2s - loss: 0.0022 - acc: 0.0000e+00
1536/8692 [====>.........................] - ETA: 2s - loss: 0.0026 - acc: 6.5104e-04
2048/8692 [======>.......................] - ETA: 2s - loss: 0.0025 - acc: 4.8828e-04
2560/8692 [=======>......................] - ETA: 2s - loss: 0.0024 - acc: 3.9063e-04
3072/8692 [=========>....................] - ETA: 2s - loss: 0.0022 - acc: 3.2552e-04
3584/8692 [===========>..................] - ETA: 1s - loss: 0.0020 - acc: 2.7902e-04
4096/8692 [=============>................] - ETA: 1s - loss: 0.0018 - acc: 2.4414e-04
4608/8692 [==============>...............] - ETA: 1s - loss: 0.0016 - acc: 2.1701e-04
5120/8692 [================>.............] - ETA: 1s - loss: 0.0015 - acc: 1.9531e-04
5632/8692 [==================>...........] - ETA: 1s - loss: 0.0014 - acc: 1.7756e-04
6144/8692 [====================>.........] - ETA: 0s - loss: 0.0013 - acc: 1.6276e-04
6656/8692 [=====================>........] - ETA: 0s - loss: 0.0012 - acc: 1.5024e-04
7168/8692 [=======================>......] - ETA: 0s - loss: 0.0048 - acc: 1.3951e-04
7680/8692 [=========================>....] - ETA: 0s - loss: 0.0086 - acc: 1.3021e-04
8192/8692 [===========================>..] - ETA: 0s - loss: 0.0083 - acc: 2.4414e-04
8692/8692 [==============================] - 4s 411us/step - loss: 0.0092 - acc: 2.3010e-04 - val_loss: 0.0061 - val_acc: 0.0000e+00
Epoch 27/50

 512/8692 [>.............................] - ETA: 3s - loss: 0.0021 - acc: 0.0000e+00
1024/8692 [==>...........................] - ETA: 2s - loss: 0.0023 - acc: 0.0000e+00
1536/8692 [====>.........................] - ETA: 2s - loss: 0.0020 - acc: 6.5104e-04
2048/8692 [======>.......................] - ETA: 2s - loss: 0.0019 - acc: 4.8828e-04
2560/8692 [=======>......................] - ETA: 2s - loss: 0.0018 - acc: 3.9063e-04
3072/8692 [=========>....................] - ETA: 2s - loss: 0.0016 - acc: 3.2552e-04
3584/8692 [===========>..................] - ETA: 1s - loss: 0.0014 - acc: 2.7902e-04
4096/8692 [=============>................] - ETA: 1s - loss: 0.0013 - acc: 2.4414e-04
4608/8692 [==============>...............] - ETA: 1s - loss: 0.0012 - acc: 2.1701e-04
5120/8692 [================>.............] - ETA: 1s - loss: 0.0011 - acc: 1.9531e-04
5632/8692 [==================>...........] - ETA: 1s - loss: 0.0010 - acc: 1.7756e-04
6144/8692 [====================>.........] - ETA: 0s - loss: 9.5484e-04 - acc: 1.6276e-04
6656/8692 [=====================>........] - ETA: 0s - loss: 9.1783e-04 - acc: 1.5024e-04
7168/8692 [=======================>......] - ETA: 0s - loss: 9.0777e-04 - acc: 1.3951e-04
7680/8692 [=========================>....] - ETA: 0s - loss: 9.2084e-04 - acc: 1.3021e-04
8192/8692 [===========================>..] - ETA: 0s - loss: 0.0018 - acc: 2.4414e-04    
8692/8692 [==============================] - 4s 418us/step - loss: 0.0020 - acc: 2.3010e-04 - val_loss: 0.0043 - val_acc: 0.0000e+00
Epoch 28/50

 512/8692 [>.............................] - ETA: 2s - loss: 0.0021 - acc: 0.0000e+00
1024/8692 [==>...........................] - ETA: 2s - loss: 0.0020 - acc: 0.0000e+00
1536/8692 [====>.........................] - ETA: 2s - loss: 0.0024 - acc: 6.5104e-04
2048/8692 [======>.......................] - ETA: 2s - loss: 0.0024 - acc: 4.8828e-04
2560/8692 [=======>......................] - ETA: 2s - loss: 0.0023 - acc: 3.9063e-04
3072/8692 [=========>....................] - ETA: 2s - loss: 0.0022 - acc: 3.2552e-04
3584/8692 [===========>..................] - ETA: 1s - loss: 0.0020 - acc: 2.7902e-04
4096/8692 [=============>................] - ETA: 1s - loss: 0.0018 - acc: 2.4414e-04
4608/8692 [==============>...............] - ETA: 1s - loss: 0.0016 - acc: 2.1701e-04
5120/8692 [================>.............] - ETA: 1s - loss: 0.0014 - acc: 1.9531e-04
5632/8692 [==================>...........] - ETA: 1s - loss: 0.0013 - acc: 1.7756e-04
6144/8692 [====================>.........] - ETA: 0s - loss: 0.0013 - acc: 1.6276e-04
6656/8692 [=====================>........] - ETA: 0s - loss: 0.0014 - acc: 1.5024e-04
7168/8692 [=======================>......] - ETA: 0s - loss: 0.0015 - acc: 1.3951e-04
7680/8692 [=========================>....] - ETA: 0s - loss: 0.0016 - acc: 1.3021e-04
8192/8692 [===========================>..] - ETA: 0s - loss: 0.0021 - acc: 2.4414e-04
8692/8692 [==============================] - 4s 410us/step - loss: 0.0021 - acc: 2.3010e-04 - val_loss: 0.0030 - val_acc: 0.0000e+00
Epoch 29/50

 512/8692 [>.............................] - ETA: 3s - loss: 2.7467e-04 - acc: 0.0000e+00
1024/8692 [==>...........................] - ETA: 3s - loss: 2.8408e-04 - acc: 0.0000e+00
1536/8692 [====>.........................] - ETA: 3s - loss: 2.4051e-04 - acc: 6.5104e-04
2048/8692 [======>.......................] - ETA: 2s - loss: 2.1416e-04 - acc: 4.8828e-04
2560/8692 [=======>......................] - ETA: 2s - loss: 1.9789e-04 - acc: 3.9063e-04
3072/8692 [=========>....................] - ETA: 2s - loss: 1.8659e-04 - acc: 3.2552e-04
3584/8692 [===========>..................] - ETA: 2s - loss: 1.7993e-04 - acc: 2.7902e-04
4096/8692 [=============>................] - ETA: 1s - loss: 1.7419e-04 - acc: 2.4414e-04
4608/8692 [==============>...............] - ETA: 1s - loss: 1.7982e-04 - acc: 2.1701e-04
5120/8692 [================>.............] - ETA: 1s - loss: 1.7476e-04 - acc: 1.9531e-04
5632/8692 [==================>...........] - ETA: 1s - loss: 1.7321e-04 - acc: 1.7756e-04
6144/8692 [====================>.........] - ETA: 1s - loss: 2.0307e-04 - acc: 1.6276e-04
6656/8692 [=====================>........] - ETA: 0s - loss: 2.5909e-04 - acc: 1.5024e-04
7168/8692 [=======================>......] - ETA: 0s - loss: 3.3940e-04 - acc: 1.3951e-04
7680/8692 [=========================>....] - ETA: 0s - loss: 5.1370e-04 - acc: 1.3021e-04
8192/8692 [===========================>..] - ETA: 0s - loss: 9.6136e-04 - acc: 2.4414e-04
8692/8692 [==============================] - 4s 434us/step - loss: 0.0011 - acc: 2.3010e-04 - val_loss: 0.0020 - val_acc: 0.0000e+00
Epoch 30/50

 512/8692 [>.............................] - ETA: 3s - loss: 6.8817e-04 - acc: 0.0000e+00
1024/8692 [==>...........................] - ETA: 2s - loss: 6.4946e-04 - acc: 0.0000e+00
1536/8692 [====>.........................] - ETA: 2s - loss: 8.8677e-04 - acc: 6.5104e-04
2048/8692 [======>.......................] - ETA: 2s - loss: 8.6982e-04 - acc: 4.8828e-04
2560/8692 [=======>......................] - ETA: 2s - loss: 8.4093e-04 - acc: 3.9063e-04
3072/8692 [=========>....................] - ETA: 2s - loss: 8.0989e-04 - acc: 3.2552e-04
3584/8692 [===========>..................] - ETA: 1s - loss: 7.5483e-04 - acc: 2.7902e-04
4096/8692 [=============>................] - ETA: 1s - loss: 6.8197e-04 - acc: 2.4414e-04
4608/8692 [==============>...............] - ETA: 1s - loss: 6.3082e-04 - acc: 2.1701e-04
5120/8692 [================>.............] - ETA: 1s - loss: 5.8132e-04 - acc: 1.9531e-04
5632/8692 [==================>...........] - ETA: 1s - loss: 5.5238e-04 - acc: 1.7756e-04
6144/8692 [====================>.........] - ETA: 0s - loss: 6.1203e-04 - acc: 1.6276e-04
6656/8692 [=====================>........] - ETA: 0s - loss: 7.3389e-04 - acc: 1.5024e-04
7168/8692 [=======================>......] - ETA: 0s - loss: 8.2573e-04 - acc: 1.3951e-04
7680/8692 [=========================>....] - ETA: 0s - loss: 8.9861e-04 - acc: 1.3021e-04
8192/8692 [===========================>..] - ETA: 0s - loss: 0.0013 - acc: 2.4414e-04    
8692/8692 [==============================] - 4s 406us/step - loss: 0.0014 - acc: 2.3010e-04 - val_loss: 0.0020 - val_acc: 0.0000e+00
Epoch 31/50

 512/8692 [>.............................] - ETA: 3s - loss: 1.5792e-04 - acc: 0.0000e+00
1024/8692 [==>...........................] - ETA: 2s - loss: 1.6314e-04 - acc: 0.0000e+00
1536/8692 [====>.........................] - ETA: 2s - loss: 2.6876e-04 - acc: 6.5104e-04
2048/8692 [======>.......................] - ETA: 2s - loss: 2.8051e-04 - acc: 4.8828e-04
2560/8692 [=======>......................] - ETA: 2s - loss: 2.8484e-04 - acc: 3.9063e-04
3072/8692 [=========>....................] - ETA: 2s - loss: 2.8904e-04 - acc: 3.2552e-04
3584/8692 [===========>..................] - ETA: 2s - loss: 2.8224e-04 - acc: 2.7902e-04
4096/8692 [=============>................] - ETA: 2s - loss: 2.6514e-04 - acc: 2.4414e-04
4608/8692 [==============>...............] - ETA: 1s - loss: 2.6139e-04 - acc: 2.1701e-04
5120/8692 [================>.............] - ETA: 1s - loss: 2.4933e-04 - acc: 1.9531e-04
5632/8692 [==================>...........] - ETA: 1s - loss: 2.4315e-04 - acc: 1.7756e-04
6144/8692 [====================>.........] - ETA: 1s - loss: 2.9310e-04 - acc: 1.6276e-04
6656/8692 [=====================>........] - ETA: 0s - loss: 3.8437e-04 - acc: 1.5024e-04
7168/8692 [=======================>......] - ETA: 0s - loss: 4.6964e-04 - acc: 1.3951e-04
7680/8692 [=========================>....] - ETA: 0s - loss: 6.1491e-04 - acc: 1.3021e-04
8192/8692 [===========================>..] - ETA: 0s - loss: 9.3656e-04 - acc: 2.4414e-04
8692/8692 [==============================] - 4s 484us/step - loss: 0.0010 - acc: 2.3010e-04 - val_loss: 0.0015 - val_acc: 0.0000e+00
Epoch 32/50

 512/8692 [>.............................] - ETA: 3s - loss: 3.7067e-04 - acc: 0.0000e+00
1024/8692 [==>...........................] - ETA: 3s - loss: 3.5777e-04 - acc: 0.0000e+00
1536/8692 [====>.........................] - ETA: 3s - loss: 5.3557e-04 - acc: 6.5104e-04
2048/8692 [======>.......................] - ETA: 3s - loss: 5.4072e-04 - acc: 4.8828e-04
2560/8692 [=======>......................] - ETA: 2s - loss: 5.2878e-04 - acc: 3.9063e-04
3072/8692 [=========>....................] - ETA: 2s - loss: 5.1832e-04 - acc: 3.2552e-04
3584/8692 [===========>..................] - ETA: 2s - loss: 4.9271e-04 - acc: 2.7902e-04
4096/8692 [=============>................] - ETA: 2s - loss: 4.5076e-04 - acc: 2.4414e-04
4608/8692 [==============>...............] - ETA: 1s - loss: 4.2695e-04 - acc: 2.1701e-04
5120/8692 [================>.............] - ETA: 1s - loss: 4.0014e-04 - acc: 1.9531e-04
5632/8692 [==================>...........] - ETA: 1s - loss: 3.8499e-04 - acc: 1.7756e-04
6144/8692 [====================>.........] - ETA: 1s - loss: 4.4842e-04 - acc: 1.6276e-04
6656/8692 [=====================>........] - ETA: 0s - loss: 5.6693e-04 - acc: 1.5024e-04
7168/8692 [=======================>......] - ETA: 0s - loss: 6.6401e-04 - acc: 1.3951e-04
7680/8692 [=========================>....] - ETA: 0s - loss: 7.3263e-04 - acc: 1.3021e-04
8192/8692 [===========================>..] - ETA: 0s - loss: 0.0010 - acc: 2.4414e-04    
8692/8692 [==============================] - 4s 492us/step - loss: 0.0011 - acc: 2.3010e-04 - val_loss: 0.0014 - val_acc: 0.0000e+00
Epoch 33/50

 512/8692 [>.............................] - ETA: 3s - loss: 2.4884e-04 - acc: 0.0000e+00
1024/8692 [==>...........................] - ETA: 3s - loss: 2.5256e-04 - acc: 0.0000e+00
1536/8692 [====>.........................] - ETA: 3s - loss: 4.3034e-04 - acc: 6.5104e-04
2048/8692 [======>.......................] - ETA: 2s - loss: 4.4158e-04 - acc: 4.8828e-04
2560/8692 [=======>......................] - ETA: 2s - loss: 4.4033e-04 - acc: 3.9063e-04
3072/8692 [=========>....................] - ETA: 2s - loss: 4.4293e-04 - acc: 3.2552e-04
3584/8692 [===========>..................] - ETA: 2s - loss: 4.2465e-04 - acc: 2.7902e-04
4096/8692 [=============>................] - ETA: 2s - loss: 3.9322e-04 - acc: 2.4414e-04
4608/8692 [==============>...............] - ETA: 1s - loss: 3.7636e-04 - acc: 2.1701e-04
5120/8692 [================>.............] - ETA: 1s - loss: 3.5336e-04 - acc: 1.9531e-04
5632/8692 [==================>...........] - ETA: 1s - loss: 3.3992e-04 - acc: 1.7756e-04
6144/8692 [====================>.........] - ETA: 1s - loss: 3.9508e-04 - acc: 1.6276e-04
6656/8692 [=====================>........] - ETA: 0s - loss: 4.9749e-04 - acc: 1.5024e-04
7168/8692 [=======================>......] - ETA: 0s - loss: 5.8413e-04 - acc: 1.3951e-04
7680/8692 [=========================>....] - ETA: 0s - loss: 7.1338e-04 - acc: 1.3021e-04
8192/8692 [===========================>..] - ETA: 0s - loss: 9.5891e-04 - acc: 2.4414e-04
8692/8692 [==============================] - 4s 469us/step - loss: 0.0010 - acc: 2.3010e-04 - val_loss: 0.0012 - val_acc: 0.0000e+00
Epoch 34/50

 512/8692 [>.............................] - ETA: 3s - loss: 3.0476e-04 - acc: 0.0000e+00
1024/8692 [==>...........................] - ETA: 2s - loss: 2.8951e-04 - acc: 0.0000e+00
1536/8692 [====>.........................] - ETA: 2s - loss: 4.5483e-04 - acc: 6.5104e-04
2048/8692 [======>.......................] - ETA: 2s - loss: 4.6592e-04 - acc: 4.8828e-04
2560/8692 [=======>......................] - ETA: 2s - loss: 4.5375e-04 - acc: 3.9063e-04
3072/8692 [=========>....................] - ETA: 2s - loss: 4.4881e-04 - acc: 3.2552e-04
3584/8692 [===========>..................] - ETA: 1s - loss: 4.2219e-04 - acc: 2.7902e-04
4096/8692 [=============>................] - ETA: 1s - loss: 3.9069e-04 - acc: 2.4414e-04
4608/8692 [==============>...............] - ETA: 1s - loss: 3.7456e-04 - acc: 2.1701e-04
5120/8692 [================>.............] - ETA: 1s - loss: 3.5422e-04 - acc: 1.9531e-04
5632/8692 [==================>...........] - ETA: 1s - loss: 3.4378e-04 - acc: 1.7756e-04
6144/8692 [====================>.........] - ETA: 0s - loss: 4.0840e-04 - acc: 1.6276e-04
6656/8692 [=====================>........] - ETA: 0s - loss: 5.1485e-04 - acc: 1.5024e-04
7168/8692 [=======================>......] - ETA: 0s - loss: 6.1552e-04 - acc: 1.3951e-04
7680/8692 [=========================>....] - ETA: 0s - loss: 6.8816e-04 - acc: 1.3021e-04
8192/8692 [===========================>..] - ETA: 0s - loss: 9.4448e-04 - acc: 2.4414e-04
8692/8692 [==============================] - 4s 408us/step - loss: 9.9651e-04 - acc: 2.3010e-04 - val_loss: 0.0012 - val_acc: 0.0000e+00
Epoch 35/50

 512/8692 [>.............................] - ETA: 2s - loss: 3.6084e-04 - acc: 0.0000e+00
1024/8692 [==>...........................] - ETA: 2s - loss: 3.5044e-04 - acc: 0.0000e+00
1536/8692 [====>.........................] - ETA: 2s - loss: 5.2090e-04 - acc: 6.5104e-04
2048/8692 [======>.......................] - ETA: 2s - loss: 5.3133e-04 - acc: 4.8828e-04
2560/8692 [=======>......................] - ETA: 2s - loss: 5.2691e-04 - acc: 3.9063e-04
3072/8692 [=========>....................] - ETA: 2s - loss: 5.1152e-04 - acc: 3.2552e-04
3584/8692 [===========>..................] - ETA: 1s - loss: 4.8722e-04 - acc: 2.7902e-04
4096/8692 [=============>................] - ETA: 1s - loss: 4.4739e-04 - acc: 2.4414e-04
4608/8692 [==============>...............] - ETA: 1s - loss: 4.2570e-04 - acc: 2.1701e-04
5120/8692 [================>.............] - ETA: 1s - loss: 3.9918e-04 - acc: 1.9531e-04
5632/8692 [==================>...........] - ETA: 1s - loss: 3.8945e-04 - acc: 1.7756e-04
6144/8692 [====================>.........] - ETA: 0s - loss: 4.5206e-04 - acc: 1.6276e-04
6656/8692 [=====================>........] - ETA: 0s - loss: 5.5343e-04 - acc: 1.5024e-04
7168/8692 [=======================>......] - ETA: 0s - loss: 6.3337e-04 - acc: 1.3951e-04
7680/8692 [=========================>....] - ETA: 0s - loss: 7.5009e-04 - acc: 1.3021e-04
8192/8692 [===========================>..] - ETA: 0s - loss: 9.4784e-04 - acc: 2.4414e-04
8692/8692 [==============================] - 4s 404us/step - loss: 0.0010 - acc: 2.3010e-04 - val_loss: 0.0010 - val_acc: 0.0000e+00
Epoch 36/50

 512/8692 [>.............................] - ETA: 3s - loss: 2.9488e-04 - acc: 0.0000e+00
1024/8692 [==>...........................] - ETA: 2s - loss: 3.0955e-04 - acc: 0.0000e+00
1536/8692 [====>.........................] - ETA: 2s - loss: 4.4980e-04 - acc: 6.5104e-04
2048/8692 [======>.......................] - ETA: 2s - loss: 4.8429e-04 - acc: 4.8828e-04
2560/8692 [=======>......................] - ETA: 2s - loss: 4.8071e-04 - acc: 3.9063e-04
3072/8692 [=========>....................] - ETA: 2s - loss: 4.7940e-04 - acc: 3.2552e-04
3584/8692 [===========>..................] - ETA: 1s - loss: 4.5254e-04 - acc: 2.7902e-04
4096/8692 [=============>................] - ETA: 1s - loss: 4.1525e-04 - acc: 2.4414e-04
4608/8692 [==============>...............] - ETA: 1s - loss: 3.9632e-04 - acc: 2.1701e-04
5120/8692 [================>.............] - ETA: 1s - loss: 3.7464e-04 - acc: 1.9531e-04
5632/8692 [==================>...........] - ETA: 1s - loss: 3.6518e-04 - acc: 1.7756e-04
6144/8692 [====================>.........] - ETA: 0s - loss: 4.2444e-04 - acc: 1.6276e-04
6656/8692 [=====================>........] - ETA: 0s - loss: 5.3397e-04 - acc: 1.5024e-04
7168/8692 [=======================>......] - ETA: 0s - loss: 6.3088e-04 - acc: 1.3951e-04
7680/8692 [=========================>....] - ETA: 0s - loss: 6.7125e-04 - acc: 1.3021e-04
8192/8692 [===========================>..] - ETA: 0s - loss: 9.1415e-04 - acc: 2.4414e-04
8692/8692 [==============================] - 4s 405us/step - loss: 9.5974e-04 - acc: 2.3010e-04 - val_loss: 0.0011 - val_acc: 0.0000e+00
Epoch 37/50

 512/8692 [>.............................] - ETA: 3s - loss: 3.6657e-04 - acc: 0.0000e+00
1024/8692 [==>...........................] - ETA: 2s - loss: 3.7169e-04 - acc: 0.0000e+00
1536/8692 [====>.........................] - ETA: 2s - loss: 5.4745e-04 - acc: 6.5104e-04
2048/8692 [======>.......................] - ETA: 2s - loss: 5.5276e-04 - acc: 4.8828e-04
2560/8692 [=======>......................] - ETA: 2s - loss: 5.3514e-04 - acc: 3.9063e-04
3072/8692 [=========>....................] - ETA: 2s - loss: 5.2408e-04 - acc: 3.2552e-04
3584/8692 [===========>..................] - ETA: 1s - loss: 4.9053e-04 - acc: 2.7902e-04
4096/8692 [=============>................] - ETA: 1s - loss: 4.5048e-04 - acc: 2.4414e-04
4608/8692 [==============>...............] - ETA: 1s - loss: 4.3370e-04 - acc: 2.1701e-04
5120/8692 [================>.............] - ETA: 1s - loss: 4.0886e-04 - acc: 1.9531e-04
5632/8692 [==================>...........] - ETA: 1s - loss: 3.9886e-04 - acc: 1.7756e-04
6144/8692 [====================>.........] - ETA: 0s - loss: 4.5963e-04 - acc: 1.6276e-04
6656/8692 [=====================>........] - ETA: 0s - loss: 5.5006e-04 - acc: 1.5024e-04
7168/8692 [=======================>......] - ETA: 0s - loss: 6.2153e-04 - acc: 1.3951e-04
7680/8692 [=========================>....] - ETA: 0s - loss: 7.8445e-04 - acc: 1.3021e-04
8192/8692 [===========================>..] - ETA: 0s - loss: 9.3204e-04 - acc: 2.4414e-04
8692/8692 [==============================] - 4s 408us/step - loss: 9.9904e-04 - acc: 2.3010e-04 - val_loss: 9.0113e-04 - val_acc: 0.0000e+00
Epoch 38/50

 512/8692 [>.............................] - ETA: 3s - loss: 3.2164e-04 - acc: 0.0000e+00
1024/8692 [==>...........................] - ETA: 2s - loss: 3.3319e-04 - acc: 0.0000e+00
1536/8692 [====>.........................] - ETA: 2s - loss: 4.7505e-04 - acc: 6.5104e-04
2048/8692 [======>.......................] - ETA: 2s - loss: 4.8654e-04 - acc: 4.8828e-04
2560/8692 [=======>......................] - ETA: 2s - loss: 4.7957e-04 - acc: 3.9063e-04
3072/8692 [=========>....................] - ETA: 2s - loss: 4.7103e-04 - acc: 3.2552e-04
3584/8692 [===========>..................] - ETA: 1s - loss: 4.4250e-04 - acc: 2.7902e-04
4096/8692 [=============>................] - ETA: 1s - loss: 4.0663e-04 - acc: 2.4414e-04
4608/8692 [==============>...............] - ETA: 1s - loss: 3.9383e-04 - acc: 2.1701e-04
5120/8692 [================>.............] - ETA: 1s - loss: 3.7178e-04 - acc: 1.9531e-04
5632/8692 [==================>...........] - ETA: 1s - loss: 3.6015e-04 - acc: 1.7756e-04
6144/8692 [====================>.........] - ETA: 0s - loss: 4.2512e-04 - acc: 1.6276e-04
6656/8692 [=====================>........] - ETA: 0s - loss: 5.3538e-04 - acc: 1.5024e-04
7168/8692 [=======================>......] - ETA: 0s - loss: 6.5568e-04 - acc: 1.3951e-04
7680/8692 [=========================>....] - ETA: 0s - loss: 6.8092e-04 - acc: 1.3021e-04
8192/8692 [===========================>..] - ETA: 0s - loss: 9.6289e-04 - acc: 2.4414e-04
8692/8692 [==============================] - 4s 405us/step - loss: 0.0010 - acc: 2.3010e-04 - val_loss: 0.0010 - val_acc: 0.0000e+00
Epoch 39/50

 512/8692 [>.............................] - ETA: 3s - loss: 3.6148e-04 - acc: 0.0000e+00
1024/8692 [==>...........................] - ETA: 2s - loss: 3.8641e-04 - acc: 0.0000e+00
1536/8692 [====>.........................] - ETA: 2s - loss: 5.9144e-04 - acc: 6.5104e-04
2048/8692 [======>.......................] - ETA: 2s - loss: 5.9921e-04 - acc: 4.8828e-04
2560/8692 [=======>......................] - ETA: 2s - loss: 5.8501e-04 - acc: 3.9063e-04
3072/8692 [=========>....................] - ETA: 2s - loss: 5.5492e-04 - acc: 3.2552e-04
3584/8692 [===========>..................] - ETA: 1s - loss: 5.1522e-04 - acc: 2.7902e-04
4096/8692 [=============>................] - ETA: 1s - loss: 4.7056e-04 - acc: 2.4414e-04
4608/8692 [==============>...............] - ETA: 1s - loss: 4.5092e-04 - acc: 2.1701e-04
5120/8692 [================>.............] - ETA: 1s - loss: 4.2763e-04 - acc: 1.9531e-04
5632/8692 [==================>...........] - ETA: 1s - loss: 4.1590e-04 - acc: 1.7756e-04
6144/8692 [====================>.........] - ETA: 0s - loss: 4.5956e-04 - acc: 1.6276e-04
6656/8692 [=====================>........] - ETA: 0s - loss: 5.3155e-04 - acc: 1.5024e-04
7168/8692 [=======================>......] - ETA: 0s - loss: 6.1955e-04 - acc: 1.3951e-04
7680/8692 [=========================>....] - ETA: 0s - loss: 9.5928e-04 - acc: 1.3021e-04
8192/8692 [===========================>..] - ETA: 0s - loss: 0.0011 - acc: 2.4414e-04    
8692/8692 [==============================] - 4s 406us/step - loss: 0.0012 - acc: 2.3010e-04 - val_loss: 8.0582e-04 - val_acc: 0.0000e+00
Epoch 40/50

 512/8692 [>.............................] - ETA: 2s - loss: 2.5672e-04 - acc: 0.0000e+00
1024/8692 [==>...........................] - ETA: 2s - loss: 2.6422e-04 - acc: 0.0000e+00
1536/8692 [====>.........................] - ETA: 2s - loss: 3.9322e-04 - acc: 6.5104e-04
2048/8692 [======>.......................] - ETA: 2s - loss: 4.0824e-04 - acc: 4.8828e-04
2560/8692 [=======>......................] - ETA: 2s - loss: 4.0793e-04 - acc: 3.9063e-04
3072/8692 [=========>....................] - ETA: 2s - loss: 4.1278e-04 - acc: 3.2552e-04
3584/8692 [===========>..................] - ETA: 1s - loss: 3.9428e-04 - acc: 2.7902e-04
4096/8692 [=============>................] - ETA: 1s - loss: 3.6425e-04 - acc: 2.4414e-04
4608/8692 [==============>...............] - ETA: 1s - loss: 3.5613e-04 - acc: 2.1701e-04
5120/8692 [================>.............] - ETA: 1s - loss: 3.3976e-04 - acc: 1.9531e-04
5632/8692 [==================>...........] - ETA: 1s - loss: 3.3160e-04 - acc: 1.7756e-04
6144/8692 [====================>.........] - ETA: 0s - loss: 3.9659e-04 - acc: 1.6276e-04
6656/8692 [=====================>........] - ETA: 0s - loss: 5.2186e-04 - acc: 1.5024e-04
7168/8692 [=======================>......] - ETA: 0s - loss: 7.9912e-04 - acc: 1.3951e-04
7680/8692 [=========================>....] - ETA: 0s - loss: 9.3359e-04 - acc: 1.3021e-04
8192/8692 [===========================>..] - ETA: 0s - loss: 0.0014 - acc: 2.4414e-04    
8692/8692 [==============================] - 4s 407us/step - loss: 0.0015 - acc: 2.3010e-04 - val_loss: 0.0012 - val_acc: 0.0000e+00
Epoch 41/50

 512/8692 [>.............................] - ETA: 2s - loss: 5.5611e-04 - acc: 0.0000e+00
1024/8692 [==>...........................] - ETA: 2s - loss: 5.6540e-04 - acc: 0.0000e+00
1536/8692 [====>.........................] - ETA: 2s - loss: 7.3025e-04 - acc: 6.5104e-04
2048/8692 [======>.......................] - ETA: 2s - loss: 7.1746e-04 - acc: 4.8828e-04
2560/8692 [=======>......................] - ETA: 2s - loss: 6.9232e-04 - acc: 3.9063e-04
3072/8692 [=========>....................] - ETA: 2s - loss: 6.5295e-04 - acc: 3.2552e-04
3584/8692 [===========>..................] - ETA: 1s - loss: 5.9931e-04 - acc: 2.7902e-04
4096/8692 [=============>................] - ETA: 1s - loss: 5.4595e-04 - acc: 2.4414e-04
4608/8692 [==============>...............] - ETA: 1s - loss: 5.1835e-04 - acc: 2.1701e-04
5120/8692 [================>.............] - ETA: 1s - loss: 4.9157e-04 - acc: 1.9531e-04
5632/8692 [==================>...........] - ETA: 1s - loss: 4.8028e-04 - acc: 1.7756e-04
6144/8692 [====================>.........] - ETA: 0s - loss: 5.0538e-04 - acc: 1.6276e-04
6656/8692 [=====================>........] - ETA: 0s - loss: 5.2564e-04 - acc: 1.5024e-04
7168/8692 [=======================>......] - ETA: 0s - loss: 0.0012 - acc: 1.3951e-04    
7680/8692 [=========================>....] - ETA: 0s - loss: 0.0026 - acc: 1.3021e-04
8192/8692 [===========================>..] - ETA: 0s - loss: 0.0027 - acc: 2.4414e-04
8692/8692 [==============================] - 4s 406us/step - loss: 0.0030 - acc: 2.3010e-04 - val_loss: 0.0011 - val_acc: 0.0000e+00
Epoch 42/50

 512/8692 [>.............................] - ETA: 3s - loss: 1.6586e-04 - acc: 0.0000e+00
1024/8692 [==>...........................] - ETA: 2s - loss: 1.7330e-04 - acc: 0.0000e+00
1536/8692 [====>.........................] - ETA: 2s - loss: 2.3944e-04 - acc: 6.5104e-04
2048/8692 [======>.......................] - ETA: 2s - loss: 2.3752e-04 - acc: 4.8828e-04
2560/8692 [=======>......................] - ETA: 2s - loss: 2.3996e-04 - acc: 3.9063e-04
3072/8692 [=========>....................] - ETA: 2s - loss: 2.4648e-04 - acc: 3.2552e-04
3584/8692 [===========>..................] - ETA: 1s - loss: 2.4270e-04 - acc: 2.7902e-04
4096/8692 [=============>................] - ETA: 1s - loss: 2.3105e-04 - acc: 2.4414e-04
4608/8692 [==============>...............] - ETA: 1s - loss: 2.3808e-04 - acc: 2.1701e-04
5120/8692 [================>.............] - ETA: 1s - loss: 2.3023e-04 - acc: 1.9531e-04
5632/8692 [==================>...........] - ETA: 1s - loss: 2.2814e-04 - acc: 1.7756e-04
6144/8692 [====================>.........] - ETA: 0s - loss: 3.0974e-04 - acc: 1.6276e-04
6656/8692 [=====================>........] - ETA: 0s - loss: 4.6834e-04 - acc: 1.5024e-04
7168/8692 [=======================>......] - ETA: 0s - loss: 0.0014 - acc: 1.3951e-04    
7680/8692 [=========================>....] - ETA: 0s - loss: 0.0028 - acc: 1.3021e-04
8192/8692 [===========================>..] - ETA: 0s - loss: 0.0049 - acc: 2.4414e-04
8692/8692 [==============================] - 4s 410us/step - loss: 0.0054 - acc: 2.3010e-04 - val_loss: 0.0032 - val_acc: 0.0000e+00
Epoch 43/50

 512/8692 [>.............................] - ETA: 3s - loss: 0.0011 - acc: 0.0000e+00
1024/8692 [==>...........................] - ETA: 3s - loss: 0.0011 - acc: 0.0000e+00
1536/8692 [====>.........................] - ETA: 3s - loss: 0.0013 - acc: 6.5104e-04
2048/8692 [======>.......................] - ETA: 2s - loss: 0.0012 - acc: 4.8828e-04
2560/8692 [=======>......................] - ETA: 2s - loss: 0.0011 - acc: 3.9063e-04
3072/8692 [=========>....................] - ETA: 2s - loss: 0.0010 - acc: 3.2552e-04
3584/8692 [===========>..................] - ETA: 2s - loss: 9.4626e-04 - acc: 2.7902e-04
4096/8692 [=============>................] - ETA: 2s - loss: 8.5613e-04 - acc: 2.4414e-04
4608/8692 [==============>...............] - ETA: 1s - loss: 7.9757e-04 - acc: 2.1701e-04
5120/8692 [================>.............] - ETA: 1s - loss: 7.5440e-04 - acc: 1.9531e-04
5632/8692 [==================>...........] - ETA: 1s - loss: 7.2729e-04 - acc: 1.7756e-04
6144/8692 [====================>.........] - ETA: 1s - loss: 7.0020e-04 - acc: 1.6276e-04
6656/8692 [=====================>........] - ETA: 0s - loss: 6.8926e-04 - acc: 1.5024e-04
7168/8692 [=======================>......] - ETA: 0s - loss: 0.0052 - acc: 1.3951e-04    
7680/8692 [=========================>....] - ETA: 0s - loss: 0.0103 - acc: 1.3021e-04
8192/8692 [===========================>..] - ETA: 0s - loss: 0.0103 - acc: 2.4414e-04
8692/8692 [==============================] - 4s 493us/step - loss: 0.0115 - acc: 2.3010e-04 - val_loss: 0.0061 - val_acc: 0.0000e+00
Epoch 44/50

 512/8692 [>.............................] - ETA: 3s - loss: 0.0015 - acc: 0.0000e+00
1024/8692 [==>...........................] - ETA: 3s - loss: 0.0015 - acc: 0.0000e+00
1536/8692 [====>.........................] - ETA: 3s - loss: 0.0013 - acc: 6.5104e-04
2048/8692 [======>.......................] - ETA: 3s - loss: 0.0012 - acc: 4.8828e-04
2560/8692 [=======>......................] - ETA: 2s - loss: 0.0011 - acc: 3.9063e-04
3072/8692 [=========>....................] - ETA: 2s - loss: 0.0010 - acc: 3.2552e-04
3584/8692 [===========>..................] - ETA: 2s - loss: 8.8549e-04 - acc: 2.7902e-04
4096/8692 [=============>................] - ETA: 2s - loss: 8.0327e-04 - acc: 2.4414e-04
4608/8692 [==============>...............] - ETA: 1s - loss: 7.4048e-04 - acc: 2.1701e-04
5120/8692 [================>.............] - ETA: 1s - loss: 6.8346e-04 - acc: 1.9531e-04
5632/8692 [==================>...........] - ETA: 1s - loss: 6.3827e-04 - acc: 1.7756e-04
6144/8692 [====================>.........] - ETA: 1s - loss: 6.1714e-04 - acc: 1.6276e-04
6656/8692 [=====================>........] - ETA: 0s - loss: 6.3811e-04 - acc: 1.5024e-04
7168/8692 [=======================>......] - ETA: 0s - loss: 0.0010 - acc: 1.3951e-04    
7680/8692 [=========================>....] - ETA: 0s - loss: 0.0018 - acc: 1.3021e-04
8192/8692 [===========================>..] - ETA: 0s - loss: 0.0039 - acc: 2.4414e-04
8692/8692 [==============================] - 4s 484us/step - loss: 0.0046 - acc: 2.3010e-04 - val_loss: 0.0068 - val_acc: 0.0000e+00
Epoch 45/50

 512/8692 [>.............................] - ETA: 3s - loss: 0.0021 - acc: 0.0000e+00
1024/8692 [==>...........................] - ETA: 3s - loss: 0.0021 - acc: 0.0000e+00
1536/8692 [====>.........................] - ETA: 2s - loss: 0.0024 - acc: 6.5104e-04
2048/8692 [======>.......................] - ETA: 2s - loss: 0.0023 - acc: 4.8828e-04
2560/8692 [=======>......................] - ETA: 2s - loss: 0.0022 - acc: 3.9063e-04
3072/8692 [=========>....................] - ETA: 2s - loss: 0.0020 - acc: 3.2552e-04
3584/8692 [===========>..................] - ETA: 2s - loss: 0.0017 - acc: 2.7902e-04
4096/8692 [=============>................] - ETA: 1s - loss: 0.0015 - acc: 2.4414e-04
4608/8692 [==============>...............] - ETA: 1s - loss: 0.0014 - acc: 2.1701e-04
5120/8692 [================>.............] - ETA: 1s - loss: 0.0013 - acc: 1.9531e-04
5632/8692 [==================>...........] - ETA: 1s - loss: 0.0012 - acc: 1.7756e-04
6144/8692 [====================>.........] - ETA: 0s - loss: 0.0013 - acc: 1.6276e-04
6656/8692 [=====================>........] - ETA: 0s - loss: 0.0013 - acc: 1.5024e-04
7168/8692 [=======================>......] - ETA: 0s - loss: 0.0022 - acc: 1.3951e-04
7680/8692 [=========================>....] - ETA: 0s - loss: 0.0039 - acc: 1.3021e-04
8192/8692 [===========================>..] - ETA: 0s - loss: 0.0039 - acc: 2.4414e-04
8692/8692 [==============================] - 4s 414us/step - loss: 0.0043 - acc: 2.3010e-04 - val_loss: 0.0030 - val_acc: 0.0000e+00
Epoch 46/50

 512/8692 [>.............................] - ETA: 3s - loss: 6.5400e-04 - acc: 0.0000e+00
1024/8692 [==>...........................] - ETA: 2s - loss: 6.7873e-04 - acc: 0.0000e+00
1536/8692 [====>.........................] - ETA: 2s - loss: 5.2961e-04 - acc: 6.5104e-04
2048/8692 [======>.......................] - ETA: 2s - loss: 4.6897e-04 - acc: 4.8828e-04
2560/8692 [=======>......................] - ETA: 2s - loss: 4.1827e-04 - acc: 3.9063e-04
3072/8692 [=========>....................] - ETA: 2s - loss: 3.7404e-04 - acc: 3.2552e-04
3584/8692 [===========>..................] - ETA: 1s - loss: 3.4243e-04 - acc: 2.7902e-04
4096/8692 [=============>................] - ETA: 1s - loss: 3.2047e-04 - acc: 2.4414e-04
4608/8692 [==============>...............] - ETA: 1s - loss: 3.0862e-04 - acc: 2.1701e-04
5120/8692 [================>.............] - ETA: 1s - loss: 2.9343e-04 - acc: 1.9531e-04
5632/8692 [==================>...........] - ETA: 1s - loss: 2.7983e-04 - acc: 1.7756e-04
6144/8692 [====================>.........] - ETA: 0s - loss: 2.9413e-04 - acc: 1.6276e-04
6656/8692 [=====================>........] - ETA: 0s - loss: 3.3225e-04 - acc: 1.5024e-04
7168/8692 [=======================>......] - ETA: 0s - loss: 3.8899e-04 - acc: 1.3951e-04
7680/8692 [=========================>....] - ETA: 0s - loss: 4.3116e-04 - acc: 1.3021e-04
8192/8692 [===========================>..] - ETA: 0s - loss: 0.0012 - acc: 2.4414e-04    
8692/8692 [==============================] - 4s 408us/step - loss: 0.0014 - acc: 2.3010e-04 - val_loss: 0.0033 - val_acc: 0.0000e+00
Epoch 47/50

 512/8692 [>.............................] - ETA: 3s - loss: 0.0011 - acc: 0.0000e+00
1024/8692 [==>...........................] - ETA: 2s - loss: 0.0011 - acc: 0.0000e+00
1536/8692 [====>.........................] - ETA: 2s - loss: 0.0014 - acc: 6.5104e-04
2048/8692 [======>.......................] - ETA: 2s - loss: 0.0013 - acc: 4.8828e-04
2560/8692 [=======>......................] - ETA: 2s - loss: 0.0012 - acc: 3.9063e-04
3072/8692 [=========>....................] - ETA: 2s - loss: 0.0012 - acc: 3.2552e-04
3584/8692 [===========>..................] - ETA: 1s - loss: 0.0011 - acc: 2.7902e-04
4096/8692 [=============>................] - ETA: 1s - loss: 9.4050e-04 - acc: 2.4414e-04
4608/8692 [==============>...............] - ETA: 1s - loss: 8.7015e-04 - acc: 2.1701e-04
5120/8692 [================>.............] - ETA: 1s - loss: 8.0408e-04 - acc: 1.9531e-04
5632/8692 [==================>...........] - ETA: 1s - loss: 7.6761e-04 - acc: 1.7756e-04
6144/8692 [====================>.........] - ETA: 0s - loss: 8.3120e-04 - acc: 1.6276e-04
6656/8692 [=====================>........] - ETA: 0s - loss: 9.3883e-04 - acc: 1.5024e-04
7168/8692 [=======================>......] - ETA: 0s - loss: 0.0010 - acc: 1.3951e-04    
7680/8692 [=========================>....] - ETA: 0s - loss: 0.0012 - acc: 1.3021e-04
8192/8692 [===========================>..] - ETA: 0s - loss: 0.0016 - acc: 2.4414e-04
8692/8692 [==============================] - 4s 431us/step - loss: 0.0017 - acc: 2.3010e-04 - val_loss: 0.0020 - val_acc: 0.0000e+00
Epoch 48/50

 512/8692 [>.............................] - ETA: 3s - loss: 1.3771e-04 - acc: 0.0000e+00
1024/8692 [==>...........................] - ETA: 3s - loss: 1.4941e-04 - acc: 0.0000e+00
1536/8692 [====>.........................] - ETA: 3s - loss: 2.2833e-04 - acc: 6.5104e-04
2048/8692 [======>.......................] - ETA: 2s - loss: 2.4614e-04 - acc: 4.8828e-04
2560/8692 [=======>......................] - ETA: 2s - loss: 2.5234e-04 - acc: 3.9063e-04
3072/8692 [=========>....................] - ETA: 2s - loss: 2.6002e-04 - acc: 3.2552e-04
3584/8692 [===========>..................] - ETA: 2s - loss: 2.6011e-04 - acc: 2.7902e-04
4096/8692 [=============>................] - ETA: 1s - loss: 2.4716e-04 - acc: 2.4414e-04
4608/8692 [==============>...............] - ETA: 1s - loss: 2.4504e-04 - acc: 2.1701e-04
5120/8692 [================>.............] - ETA: 1s - loss: 2.3524e-04 - acc: 1.9531e-04
5632/8692 [==================>...........] - ETA: 1s - loss: 2.2942e-04 - acc: 1.7756e-04
6144/8692 [====================>.........] - ETA: 1s - loss: 2.7105e-04 - acc: 1.6276e-04
6656/8692 [=====================>........] - ETA: 0s - loss: 3.5298e-04 - acc: 1.5024e-04
7168/8692 [=======================>......] - ETA: 0s - loss: 4.3271e-04 - acc: 1.3951e-04
7680/8692 [=========================>....] - ETA: 0s - loss: 5.3895e-04 - acc: 1.3021e-04
8192/8692 [===========================>..] - ETA: 0s - loss: 9.4478e-04 - acc: 2.4414e-04
8692/8692 [==============================] - 4s 421us/step - loss: 0.0010 - acc: 2.3010e-04 - val_loss: 0.0017 - val_acc: 0.0000e+00
Epoch 49/50

 512/8692 [>.............................] - ETA: 3s - loss: 4.8582e-04 - acc: 0.0000e+00
1024/8692 [==>...........................] - ETA: 2s - loss: 4.7957e-04 - acc: 0.0000e+00
1536/8692 [====>.........................] - ETA: 2s - loss: 6.9295e-04 - acc: 6.5104e-04
2048/8692 [======>.......................] - ETA: 2s - loss: 6.7969e-04 - acc: 4.8828e-04
2560/8692 [=======>......................] - ETA: 2s - loss: 6.4369e-04 - acc: 3.9063e-04
3072/8692 [=========>....................] - ETA: 2s - loss: 6.1929e-04 - acc: 3.2552e-04
3584/8692 [===========>..................] - ETA: 1s - loss: 5.7503e-04 - acc: 2.7902e-04
4096/8692 [=============>................] - ETA: 1s - loss: 5.2701e-04 - acc: 2.4414e-04
4608/8692 [==============>...............] - ETA: 1s - loss: 5.0663e-04 - acc: 2.1701e-04
5120/8692 [================>.............] - ETA: 1s - loss: 4.7658e-04 - acc: 1.9531e-04
5632/8692 [==================>...........] - ETA: 1s - loss: 4.6421e-04 - acc: 1.7756e-04
6144/8692 [====================>.........] - ETA: 0s - loss: 5.3321e-04 - acc: 1.6276e-04
6656/8692 [=====================>........] - ETA: 0s - loss: 6.4684e-04 - acc: 1.5024e-04
7168/8692 [=======================>......] - ETA: 0s - loss: 7.2209e-04 - acc: 1.3951e-04
7680/8692 [=========================>....] - ETA: 0s - loss: 8.2598e-04 - acc: 1.3021e-04
8192/8692 [===========================>..] - ETA: 0s - loss: 0.0011 - acc: 2.4414e-04    
8692/8692 [==============================] - 3s 402us/step - loss: 0.0012 - acc: 2.3010e-04 - val_loss: 0.0015 - val_acc: 0.0000e+00
Epoch 50/50

 512/8692 [>.............................] - ETA: 2s - loss: 3.0552e-04 - acc: 0.0000e+00
1024/8692 [==>...........................] - ETA: 2s - loss: 3.0081e-04 - acc: 0.0000e+00
1536/8692 [====>.........................] - ETA: 2s - loss: 4.7534e-04 - acc: 6.5104e-04
2048/8692 [======>.......................] - ETA: 2s - loss: 4.9858e-04 - acc: 4.8828e-04
2560/8692 [=======>......................] - ETA: 2s - loss: 4.9692e-04 - acc: 3.9063e-04
3072/8692 [=========>....................] - ETA: 2s - loss: 4.8933e-04 - acc: 3.2552e-04
3584/8692 [===========>..................] - ETA: 1s - loss: 4.6402e-04 - acc: 2.7902e-04
4096/8692 [=============>................] - ETA: 1s - loss: 4.2733e-04 - acc: 2.4414e-04
4608/8692 [==============>...............] - ETA: 1s - loss: 4.1138e-04 - acc: 2.1701e-04
5120/8692 [================>.............] - ETA: 1s - loss: 3.8828e-04 - acc: 1.9531e-04
5632/8692 [==================>...........] - ETA: 1s - loss: 3.7712e-04 - acc: 1.7756e-04
6144/8692 [====================>.........] - ETA: 0s - loss: 4.4117e-04 - acc: 1.6276e-04
6656/8692 [=====================>........] - ETA: 0s - loss: 5.4451e-04 - acc: 1.5024e-04
7168/8692 [=======================>......] - ETA: 0s - loss: 6.2749e-04 - acc: 1.3951e-04
7680/8692 [=========================>....] - ETA: 0s - loss: 7.2434e-04 - acc: 1.3021e-04
8192/8692 [===========================>..] - ETA: 0s - loss: 9.9780e-04 - acc: 2.4414e-04
8692/8692 [==============================] - 3s 402us/step - loss: 0.0011 - acc: 2.3010e-04 - val_loss: 0.0013 - val_acc: 0.0000e+00

   32/10865 [..............................] - ETA: 5s
  128/10865 [..............................] - ETA: 5s
  320/10865 [..............................] - ETA: 4s
  480/10865 [>.............................] - ETA: 3s
  672/10865 [>.............................] - ETA: 3s
  896/10865 [=>............................] - ETA: 3s
 1120/10865 [==>...........................] - ETA: 3s
 1344/10865 [==>...........................] - ETA: 2s
 1568/10865 [===>..........................] - ETA: 2s
 1792/10865 [===>..........................] - ETA: 2s
 2016/10865 [====>.........................] - ETA: 2s
 2240/10865 [=====>........................] - ETA: 2s
 2432/10865 [=====>........................] - ETA: 2s
 2656/10865 [======>.......................] - ETA: 2s
 2880/10865 [======>.......................] - ETA: 2s
 3072/10865 [=======>......................] - ETA: 2s
 3296/10865 [========>.....................] - ETA: 2s
 3520/10865 [========>.....................] - ETA: 2s
 3744/10865 [=========>....................] - ETA: 1s
 3968/10865 [=========>....................] - ETA: 1s
 4160/10865 [==========>...................] - ETA: 1s
 4352/10865 [===========>..................] - ETA: 1s
 4544/10865 [===========>..................] - ETA: 1s
 4768/10865 [============>.................] - ETA: 1s
 4992/10865 [============>.................] - ETA: 1s
 5216/10865 [=============>................] - ETA: 1s
 5440/10865 [==============>...............] - ETA: 1s
 5664/10865 [==============>...............] - ETA: 1s
 5888/10865 [===============>..............] - ETA: 1s
 6080/10865 [===============>..............] - ETA: 1s
 6304/10865 [================>.............] - ETA: 1s
 6528/10865 [=================>............] - ETA: 1s
 6656/10865 [=================>............] - ETA: 1s
 6816/10865 [=================>............] - ETA: 1s
 7008/10865 [==================>...........] - ETA: 1s
 7232/10865 [==================>...........] - ETA: 0s
 7456/10865 [===================>..........] - ETA: 0s
 7680/10865 [====================>.........] - ETA: 0s
 7904/10865 [====================>.........] - ETA: 0s
 8096/10865 [=====================>........] - ETA: 0s
 8320/10865 [=====================>........] - ETA: 0s
 8512/10865 [======================>.......] - ETA: 0s
 8704/10865 [=======================>......] - ETA: 0s
 8896/10865 [=======================>......] - ETA: 0s
 9088/10865 [========================>.....] - ETA: 0s
 9312/10865 [========================>.....] - ETA: 0s
 9504/10865 [=========================>....] - ETA: 0s
 9632/10865 [=========================>....] - ETA: 0s
 9728/10865 [=========================>....] - ETA: 0s
 9888/10865 [==========================>...] - ETA: 0s
10016/10865 [==========================>...] - ETA: 0s
10176/10865 [===========================>..] - ETA: 0s
10336/10865 [===========================>..] - ETA: 0s
10496/10865 [===========================>..] - ETA: 0s
10688/10865 [============================>.] - ETA: 0s
10865/10865 [==============================] - 3s 280us/step
Train Score: 0.00085 MSE (0.03 RMSE)

  32/1207 [..............................] - ETA: 0s
 192/1207 [===>..........................] - ETA: 0s
 384/1207 [========>.....................] - ETA: 0s
 576/1207 [=============>................] - ETA: 0s
 736/1207 [=================>............] - ETA: 0s
 928/1207 [======================>.......] - ETA: 0s
1088/1207 [==========================>...] - ETA: 0s
1207/1207 [==============================] - 0s 320us/step
Test Score: 0.00027 MSE (0.02 RMSE)

HyperparametersArray:-
 ['/home/uttam/uttam/FYP/Data/Data/Stocks/', 'c.us.txt', 0.9, 0.3, 3, 256, 32, 'sigmoid', 'linear', 'mse', 'adam', [['accuracy']], 'uniform', 1, 512, 50, 0.2]

trainmset,trainrmset,testmset,testrmset:-
 0.000850452573049 0.02916252000511598 0.000266700792944 0.016330976484713176

