                Open      High       Low    Volume  adj close
Date                                                         
1970-01-02  0.008281  0.008421  0.008257  0.002926   0.009583
1970-01-05  0.011084  0.011092  0.011246  0.004827   0.011983
1970-01-06  0.011933  0.010809  0.011388  0.003438   0.011561
1970-01-07  0.011372  0.010113  0.010395  0.003819   0.010567
1970-01-08  0.010667  0.009826  0.010822  0.003025   0.010994
1970-01-09  0.010805  0.009547  0.010251  0.003802   0.010567
1970-01-12  0.010523  0.009408  0.009821  0.001604   0.010004
1970-01-13  0.009962  0.008845  0.009682  0.004414   0.009721
1970-01-14  0.009680  0.008421  0.009252  0.001570   0.009583
1970-01-15  0.009543  0.008284  0.008828  0.001951   0.009157
1970-01-16  0.008842  0.007582  0.006261  0.003901   0.007472
1970-01-19  0.007441  0.006879  0.007549  0.002595   0.007749
1970-01-20  0.007716  0.006742  0.007549  0.003091   0.007895
1970-01-21  0.007862  0.006742  0.007117  0.002926   0.007472
1970-01-22  0.007441  0.006602  0.007261  0.002083   0.007328
1970-01-23  0.007297  0.006316  0.006550  0.003306   0.006483
1970-01-26  0.006455  0.005195  0.005692  0.002364   0.006198
1970-01-27  0.006171  0.004911  0.005555  0.002579   0.005775
1970-01-28  0.005610  0.004350  0.004842  0.002942   0.005213
1970-01-29  0.004772  0.003511  0.003704  0.004397   0.004229
1970-01-30  0.004211  0.004074  0.004129  0.002595   0.004372
1970-02-02  0.004627  0.004636  0.004694  0.005505   0.004646
1970-02-03  0.004627  0.004636  0.004557  0.006133   0.005499
1970-02-04  0.005475  0.004778  0.005555  0.004562   0.005921
1970-02-05  0.005896  0.005476  0.005982  0.001686   0.006622
1970-02-06  0.006880  0.006879  0.006980  0.003504   0.007895
1970-02-09  0.008139  0.007582  0.008257  0.001686   0.008596
1970-02-10  0.008559  0.007442  0.008119  0.003554   0.008455
1970-02-11  0.008419  0.007859  0.007549  0.005604   0.009018
1970-02-12  0.008980  0.008566  0.008684  0.002480   0.009583
...              ...       ...       ...       ...        ...
2017-10-02  0.964234  0.976394  0.976342  0.070881   0.977287
2017-10-03  0.975104  0.975094  0.980789  0.045693   0.977464
2017-10-04  0.975104  0.981935  0.985058  0.045227   0.984330
2017-10-05  0.978435  0.979128  0.985236  0.042356   0.983098
2017-10-06  0.978961  0.982285  0.985058  0.032488   0.978520
2017-10-09  0.974052  0.973340  0.979632  0.043436   0.971125
2017-10-10  0.967039  0.977725  0.981144  0.038290   0.981865
2017-10-11  0.978610  0.977725  0.983101  0.051420   0.977464
2017-10-12  0.971422  0.975445  0.982923  0.056175   0.974646
2017-10-13  0.972299  0.974857  0.985236  0.043235   0.978520
2017-10-16  0.976857  0.978251  0.985058  0.042724   0.983274
2017-10-17  0.978786  0.986495  0.993063  0.045043   0.990668
2017-10-18  0.989305  0.988950  0.994930  0.041874   0.988556
2017-10-19  0.979662  0.981408  0.985414  0.040155   0.981337
2017-10-20  0.983519  0.987547  0.991995  0.039087   0.991901
2017-10-23  0.991584  0.993160  0.996442  0.041471   0.992605
2017-10-24  0.994740  1.000000  1.000000  0.060799   1.000000
2017-10-25  1.000000  0.999825  0.989861  0.081008   0.988027
2017-10-26  0.993162  0.992809  0.990394  0.066171   0.988204
2017-10-27  0.984045  0.984092  0.965313  0.086354   0.987323
2017-10-30  0.977383  0.980356  0.979810  0.046996   0.973942
2017-10-31  0.970545  0.977024  0.982034  0.042218   0.975351
2017-11-01  0.977909  0.981935  0.986125  0.058825   0.983274
2017-11-02  0.981766  0.991055  0.987459  0.072753   0.979400
2017-11-03  0.974402  0.976848  0.979442  0.050199   0.972710
2017-11-06  0.968266  0.968955  0.956774  0.077476   0.949645
2017-11-07  0.942143  0.941243  0.946991  0.074656   0.939785
2017-11-08  0.932500  0.937735  0.936674  0.057842   0.940314
2017-11-09  0.931798  0.936332  0.941530  0.052381   0.934151
2017-11-10  0.927065  0.929492  0.932938  0.059065   0.932743

[12075 rows x 5 columns]
Compilation Time :  0.019408702850341797
Train on 8692 samples, validate on 2174 samples
Epoch 1/50

 512/8692 [>.............................] - ETA: 18s - loss: 0.0027 - acc: 0.0020
1024/8692 [==>...........................] - ETA: 10s - loss: 0.0024 - acc: 9.7656e-04
1536/8692 [====>.........................] - ETA: 7s - loss: 0.0023 - acc: 6.5104e-04 
2048/8692 [======>.......................] - ETA: 5s - loss: 0.0024 - acc: 4.8828e-04
2560/8692 [=======>......................] - ETA: 4s - loss: 0.0019 - acc: 3.9063e-04
3072/8692 [=========>....................] - ETA: 3s - loss: 0.0016 - acc: 3.2552e-04
3584/8692 [===========>..................] - ETA: 3s - loss: 0.0015 - acc: 2.7902e-04
4096/8692 [=============>................] - ETA: 2s - loss: 0.0013 - acc: 2.4414e-04
4608/8692 [==============>...............] - ETA: 2s - loss: 0.0022 - acc: 2.1701e-04
5120/8692 [================>.............] - ETA: 2s - loss: 0.0037 - acc: 1.9531e-04
5632/8692 [==================>...........] - ETA: 1s - loss: 0.0075 - acc: 1.7756e-04
6144/8692 [====================>.........] - ETA: 1s - loss: 0.0114 - acc: 1.6276e-04
6656/8692 [=====================>........] - ETA: 1s - loss: 0.0175 - acc: 1.5024e-04
7168/8692 [=======================>......] - ETA: 0s - loss: 0.0286 - acc: 1.3951e-04
7680/8692 [=========================>....] - ETA: 0s - loss: 0.0392 - acc: 1.3021e-04
8192/8692 [===========================>..] - ETA: 0s - loss: 0.0428 - acc: 1.2207e-04
8692/8692 [==============================] - 5s 589us/step - loss: 0.0458 - acc: 1.1505e-04 - val_loss: 0.0397 - val_acc: 0.0000e+00
Epoch 2/50

 512/8692 [>.............................] - ETA: 3s - loss: 0.0470 - acc: 0.0020
1024/8692 [==>...........................] - ETA: 3s - loss: 0.0479 - acc: 9.7656e-04
1536/8692 [====>.........................] - ETA: 3s - loss: 0.0473 - acc: 6.5104e-04
2048/8692 [======>.......................] - ETA: 3s - loss: 0.0457 - acc: 4.8828e-04
2560/8692 [=======>......................] - ETA: 3s - loss: 0.0466 - acc: 3.9063e-04
3072/8692 [=========>....................] - ETA: 2s - loss: 0.0468 - acc: 3.2552e-04
3584/8692 [===========>..................] - ETA: 2s - loss: 0.0456 - acc: 2.7902e-04
4096/8692 [=============>................] - ETA: 2s - loss: 0.0438 - acc: 2.4414e-04
4608/8692 [==============>...............] - ETA: 2s - loss: 0.0399 - acc: 2.1701e-04
5120/8692 [================>.............] - ETA: 1s - loss: 0.0361 - acc: 1.9531e-04
5632/8692 [==================>...........] - ETA: 1s - loss: 0.0335 - acc: 1.7756e-04
6144/8692 [====================>.........] - ETA: 1s - loss: 0.0318 - acc: 1.6276e-04
6656/8692 [=====================>........] - ETA: 1s - loss: 0.0323 - acc: 1.5024e-04
7168/8692 [=======================>......] - ETA: 0s - loss: 0.0378 - acc: 1.3951e-04
7680/8692 [=========================>....] - ETA: 0s - loss: 0.0440 - acc: 1.3021e-04
8192/8692 [===========================>..] - ETA: 0s - loss: 0.0451 - acc: 1.2207e-04
8692/8692 [==============================] - 5s 583us/step - loss: 0.0463 - acc: 1.1505e-04 - val_loss: 0.0273 - val_acc: 0.0000e+00
Epoch 3/50

 512/8692 [>.............................] - ETA: 4s - loss: 0.0674 - acc: 0.0020
1024/8692 [==>...........................] - ETA: 4s - loss: 0.0662 - acc: 9.7656e-04
1536/8692 [====>.........................] - ETA: 4s - loss: 0.0637 - acc: 6.5104e-04
2048/8692 [======>.......................] - ETA: 3s - loss: 0.0601 - acc: 4.8828e-04
2560/8692 [=======>......................] - ETA: 3s - loss: 0.0596 - acc: 3.9063e-04
3072/8692 [=========>....................] - ETA: 3s - loss: 0.0584 - acc: 3.2552e-04
3584/8692 [===========>..................] - ETA: 2s - loss: 0.0558 - acc: 2.7902e-04
4096/8692 [=============>................] - ETA: 2s - loss: 0.0528 - acc: 2.4414e-04
4608/8692 [==============>...............] - ETA: 2s - loss: 0.0479 - acc: 2.1701e-04
5120/8692 [================>.............] - ETA: 2s - loss: 0.0433 - acc: 1.9531e-04
5632/8692 [==================>...........] - ETA: 1s - loss: 0.0401 - acc: 1.7756e-04
6144/8692 [====================>.........] - ETA: 1s - loss: 0.0380 - acc: 1.6276e-04
6656/8692 [=====================>........] - ETA: 1s - loss: 0.0384 - acc: 1.5024e-04
7168/8692 [=======================>......] - ETA: 0s - loss: 0.0440 - acc: 1.3951e-04
7680/8692 [=========================>....] - ETA: 0s - loss: 0.0504 - acc: 1.3021e-04
8192/8692 [===========================>..] - ETA: 0s - loss: 0.0517 - acc: 1.2207e-04
8692/8692 [==============================] - 6s 662us/step - loss: 0.0529 - acc: 1.1505e-04 - val_loss: 0.0320 - val_acc: 0.0000e+00
Epoch 4/50

 512/8692 [>.............................] - ETA: 4s - loss: 0.0577 - acc: 0.0020
1024/8692 [==>...........................] - ETA: 4s - loss: 0.0564 - acc: 9.7656e-04
1536/8692 [====>.........................] - ETA: 4s - loss: 0.0540 - acc: 6.5104e-04
2048/8692 [======>.......................] - ETA: 3s - loss: 0.0507 - acc: 4.8828e-04
2560/8692 [=======>......................] - ETA: 3s - loss: 0.0501 - acc: 3.9063e-04
3072/8692 [=========>....................] - ETA: 3s - loss: 0.0490 - acc: 3.2552e-04
3584/8692 [===========>..................] - ETA: 3s - loss: 0.0467 - acc: 2.7902e-04
4096/8692 [=============>................] - ETA: 2s - loss: 0.0440 - acc: 2.4414e-04
4608/8692 [==============>...............] - ETA: 2s - loss: 0.0398 - acc: 2.1701e-04
5120/8692 [================>.............] - ETA: 2s - loss: 0.0359 - acc: 1.9531e-04
5632/8692 [==================>...........] - ETA: 1s - loss: 0.0336 - acc: 1.7756e-04
6144/8692 [====================>.........] - ETA: 1s - loss: 0.0324 - acc: 1.6276e-04
6656/8692 [=====================>........] - ETA: 1s - loss: 0.0336 - acc: 1.5024e-04
7168/8692 [=======================>......] - ETA: 0s - loss: 0.0399 - acc: 1.3951e-04
7680/8692 [=========================>....] - ETA: 0s - loss: 0.0469 - acc: 1.3021e-04
8192/8692 [===========================>..] - ETA: 0s - loss: 0.0485 - acc: 1.2207e-04
8692/8692 [==============================] - 6s 664us/step - loss: 0.0500 - acc: 1.1505e-04 - val_loss: 0.0316 - val_acc: 0.0000e+00
Epoch 5/50

 512/8692 [>.............................] - ETA: 5s - loss: 0.0517 - acc: 0.0020
1024/8692 [==>...........................] - ETA: 4s - loss: 0.0507 - acc: 9.7656e-04
1536/8692 [====>.........................] - ETA: 4s - loss: 0.0486 - acc: 6.5104e-04
2048/8692 [======>.......................] - ETA: 4s - loss: 0.0457 - acc: 4.8828e-04
2560/8692 [=======>......................] - ETA: 3s - loss: 0.0453 - acc: 3.9063e-04
3072/8692 [=========>....................] - ETA: 3s - loss: 0.0444 - acc: 3.2552e-04
3584/8692 [===========>..................] - ETA: 3s - loss: 0.0424 - acc: 2.7902e-04
4096/8692 [=============>................] - ETA: 2s - loss: 0.0400 - acc: 2.4414e-04
4608/8692 [==============>...............] - ETA: 2s - loss: 0.0363 - acc: 2.1701e-04
5120/8692 [================>.............] - ETA: 2s - loss: 0.0327 - acc: 1.9531e-04
5632/8692 [==================>...........] - ETA: 1s - loss: 0.0304 - acc: 1.7756e-04
6144/8692 [====================>.........] - ETA: 1s - loss: 0.0289 - acc: 1.6276e-04
6656/8692 [=====================>........] - ETA: 1s - loss: 0.0293 - acc: 1.5024e-04
7168/8692 [=======================>......] - ETA: 0s - loss: 0.0331 - acc: 1.3951e-04
7680/8692 [=========================>....] - ETA: 0s - loss: 0.0370 - acc: 1.3021e-04
8192/8692 [===========================>..] - ETA: 0s - loss: 0.0371 - acc: 1.2207e-04
8692/8692 [==============================] - 6s 662us/step - loss: 0.0368 - acc: 1.1505e-04 - val_loss: 0.0099 - val_acc: 0.0000e+00
Epoch 6/50

 512/8692 [>.............................] - ETA: 5s - loss: 0.0386 - acc: 0.0020
1024/8692 [==>...........................] - ETA: 4s - loss: 0.0377 - acc: 9.7656e-04
1536/8692 [====>.........................] - ETA: 4s - loss: 0.0361 - acc: 6.5104e-04
2048/8692 [======>.......................] - ETA: 3s - loss: 0.0342 - acc: 4.8828e-04
2560/8692 [=======>......................] - ETA: 3s - loss: 0.0333 - acc: 3.9063e-04
3072/8692 [=========>....................] - ETA: 3s - loss: 0.0321 - acc: 3.2552e-04
3584/8692 [===========>..................] - ETA: 3s - loss: 0.0306 - acc: 2.7902e-04
4096/8692 [=============>................] - ETA: 2s - loss: 0.0289 - acc: 2.4414e-04
4608/8692 [==============>...............] - ETA: 2s - loss: 0.0271 - acc: 2.1701e-04
5120/8692 [================>.............] - ETA: 2s - loss: 0.0253 - acc: 1.9531e-04
5632/8692 [==================>...........] - ETA: 1s - loss: 0.0234 - acc: 1.7756e-04
6144/8692 [====================>.........] - ETA: 1s - loss: 0.0217 - acc: 1.6276e-04
6656/8692 [=====================>........] - ETA: 1s - loss: 0.0200 - acc: 1.5024e-04
7168/8692 [=======================>......] - ETA: 0s - loss: 0.0195 - acc: 1.3951e-04
7680/8692 [=========================>....] - ETA: 0s - loss: 0.0194 - acc: 1.3021e-04
8192/8692 [===========================>..] - ETA: 0s - loss: 0.0184 - acc: 1.2207e-04
8692/8692 [==============================] - 6s 656us/step - loss: 0.0176 - acc: 1.1505e-04 - val_loss: 0.0017 - val_acc: 0.0000e+00
Epoch 7/50

 512/8692 [>.............................] - ETA: 4s - loss: 7.9008e-04 - acc: 0.0020
1024/8692 [==>...........................] - ETA: 4s - loss: 5.5232e-04 - acc: 9.7656e-04
1536/8692 [====>.........................] - ETA: 4s - loss: 3.9375e-04 - acc: 6.5104e-04
2048/8692 [======>.......................] - ETA: 4s - loss: 3.3024e-04 - acc: 4.8828e-04
2560/8692 [=======>......................] - ETA: 3s - loss: 2.9713e-04 - acc: 3.9063e-04
3072/8692 [=========>....................] - ETA: 3s - loss: 3.0999e-04 - acc: 3.2552e-04
3584/8692 [===========>..................] - ETA: 3s - loss: 3.6474e-04 - acc: 2.7902e-04
4096/8692 [=============>................] - ETA: 2s - loss: 4.2989e-04 - acc: 2.4414e-04
4608/8692 [==============>...............] - ETA: 2s - loss: 4.3099e-04 - acc: 2.1701e-04
5120/8692 [================>.............] - ETA: 2s - loss: 4.0913e-04 - acc: 1.9531e-04
5632/8692 [==================>...........] - ETA: 1s - loss: 5.0221e-04 - acc: 1.7756e-04
6144/8692 [====================>.........] - ETA: 1s - loss: 6.3994e-04 - acc: 1.6276e-04
6656/8692 [=====================>........] - ETA: 1s - loss: 6.5085e-04 - acc: 1.5024e-04
7168/8692 [=======================>......] - ETA: 0s - loss: 0.0012 - acc: 1.3951e-04    
7680/8692 [=========================>....] - ETA: 0s - loss: 0.0019 - acc: 1.3021e-04
8192/8692 [===========================>..] - ETA: 0s - loss: 0.0019 - acc: 1.2207e-04
8692/8692 [==============================] - 6s 659us/step - loss: 0.0019 - acc: 1.1505e-04 - val_loss: 0.0017 - val_acc: 0.0000e+00
Epoch 8/50

 512/8692 [>.............................] - ETA: 4s - loss: 5.0925e-04 - acc: 0.0020
1024/8692 [==>...........................] - ETA: 4s - loss: 5.9922e-04 - acc: 9.7656e-04
1536/8692 [====>.........................] - ETA: 4s - loss: 7.0653e-04 - acc: 6.5104e-04
2048/8692 [======>.......................] - ETA: 3s - loss: 8.5222e-04 - acc: 4.8828e-04
2560/8692 [=======>......................] - ETA: 3s - loss: 8.3246e-04 - acc: 3.9063e-04
3072/8692 [=========>....................] - ETA: 3s - loss: 7.9880e-04 - acc: 3.2552e-04
3584/8692 [===========>..................] - ETA: 3s - loss: 7.8355e-04 - acc: 2.7902e-04
4096/8692 [=============>................] - ETA: 2s - loss: 7.6393e-04 - acc: 2.4414e-04
4608/8692 [==============>...............] - ETA: 2s - loss: 7.1135e-04 - acc: 2.1701e-04
5120/8692 [================>.............] - ETA: 2s - loss: 6.6300e-04 - acc: 1.9531e-04
5632/8692 [==================>...........] - ETA: 1s - loss: 7.6140e-04 - acc: 1.7756e-04
6144/8692 [====================>.........] - ETA: 1s - loss: 9.0440e-04 - acc: 1.6276e-04
6656/8692 [=====================>........] - ETA: 1s - loss: 9.3090e-04 - acc: 1.5024e-04
7168/8692 [=======================>......] - ETA: 0s - loss: 0.0013 - acc: 1.3951e-04    
7680/8692 [=========================>....] - ETA: 0s - loss: 0.0018 - acc: 1.3021e-04
8192/8692 [===========================>..] - ETA: 0s - loss: 0.0017 - acc: 1.2207e-04
8692/8692 [==============================] - 6s 664us/step - loss: 0.0017 - acc: 1.1505e-04 - val_loss: 0.0012 - val_acc: 0.0000e+00
Epoch 9/50

 512/8692 [>.............................] - ETA: 4s - loss: 0.0010 - acc: 0.0020
1024/8692 [==>...........................] - ETA: 4s - loss: 9.3798e-04 - acc: 9.7656e-04
1536/8692 [====>.........................] - ETA: 4s - loss: 7.7917e-04 - acc: 6.5104e-04
2048/8692 [======>.......................] - ETA: 3s - loss: 6.3343e-04 - acc: 4.8828e-04
2560/8692 [=======>......................] - ETA: 3s - loss: 5.8167e-04 - acc: 3.9063e-04
3072/8692 [=========>....................] - ETA: 3s - loss: 5.2375e-04 - acc: 3.2552e-04
3584/8692 [===========>..................] - ETA: 3s - loss: 4.6416e-04 - acc: 2.7902e-04
4096/8692 [=============>................] - ETA: 2s - loss: 4.1438e-04 - acc: 2.4414e-04
4608/8692 [==============>...............] - ETA: 2s - loss: 3.9967e-04 - acc: 2.1701e-04
5120/8692 [================>.............] - ETA: 2s - loss: 3.8562e-04 - acc: 1.9531e-04
5632/8692 [==================>...........] - ETA: 1s - loss: 3.8439e-04 - acc: 1.7756e-04
6144/8692 [====================>.........] - ETA: 1s - loss: 3.9182e-04 - acc: 1.6276e-04
6656/8692 [=====================>........] - ETA: 1s - loss: 3.9585e-04 - acc: 1.5024e-04
7168/8692 [=======================>......] - ETA: 0s - loss: 7.2124e-04 - acc: 1.3951e-04
7680/8692 [=========================>....] - ETA: 0s - loss: 0.0012 - acc: 1.3021e-04    
8192/8692 [===========================>..] - ETA: 0s - loss: 0.0012 - acc: 1.2207e-04
8692/8692 [==============================] - 6s 644us/step - loss: 0.0011 - acc: 1.1505e-04 - val_loss: 0.0012 - val_acc: 0.0000e+00
Epoch 10/50

 512/8692 [>.............................] - ETA: 4s - loss: 6.0069e-04 - acc: 0.0020
1024/8692 [==>...........................] - ETA: 4s - loss: 4.9021e-04 - acc: 9.7656e-04
1536/8692 [====>.........................] - ETA: 4s - loss: 3.7931e-04 - acc: 6.5104e-04
2048/8692 [======>.......................] - ETA: 3s - loss: 3.1407e-04 - acc: 4.8828e-04
2560/8692 [=======>......................] - ETA: 3s - loss: 2.7230e-04 - acc: 3.9063e-04
3072/8692 [=========>....................] - ETA: 3s - loss: 2.4219e-04 - acc: 3.2552e-04
3584/8692 [===========>..................] - ETA: 2s - loss: 2.3580e-04 - acc: 2.7902e-04
4096/8692 [=============>................] - ETA: 2s - loss: 2.4102e-04 - acc: 2.4414e-04
4608/8692 [==============>...............] - ETA: 2s - loss: 2.5909e-04 - acc: 2.1701e-04
5120/8692 [================>.............] - ETA: 2s - loss: 2.5442e-04 - acc: 1.9531e-04
5632/8692 [==================>...........] - ETA: 1s - loss: 3.4216e-04 - acc: 1.7756e-04
6144/8692 [====================>.........] - ETA: 1s - loss: 4.6348e-04 - acc: 1.6276e-04
6656/8692 [=====================>........] - ETA: 1s - loss: 5.5630e-04 - acc: 1.5024e-04
7168/8692 [=======================>......] - ETA: 0s - loss: 7.6284e-04 - acc: 1.3951e-04
7680/8692 [=========================>....] - ETA: 0s - loss: 0.0011 - acc: 1.3021e-04    
8192/8692 [===========================>..] - ETA: 0s - loss: 0.0011 - acc: 1.2207e-04
8692/8692 [==============================] - 5s 621us/step - loss: 0.0010 - acc: 1.1505e-04 - val_loss: 5.9748e-04 - val_acc: 0.0000e+00
Epoch 11/50

 512/8692 [>.............................] - ETA: 3s - loss: 4.9503e-04 - acc: 0.0020
1024/8692 [==>...........................] - ETA: 3s - loss: 3.8860e-04 - acc: 9.7656e-04
1536/8692 [====>.........................] - ETA: 2s - loss: 2.9872e-04 - acc: 6.5104e-04
2048/8692 [======>.......................] - ETA: 2s - loss: 2.7002e-04 - acc: 4.8828e-04
2560/8692 [=======>......................] - ETA: 2s - loss: 2.3428e-04 - acc: 3.9063e-04
3072/8692 [=========>....................] - ETA: 2s - loss: 2.1255e-04 - acc: 3.2552e-04
3584/8692 [===========>..................] - ETA: 2s - loss: 2.2820e-04 - acc: 2.7902e-04
4096/8692 [=============>................] - ETA: 1s - loss: 2.6172e-04 - acc: 2.4414e-04
4608/8692 [==============>...............] - ETA: 1s - loss: 4.0090e-04 - acc: 2.1701e-04
5120/8692 [================>.............] - ETA: 1s - loss: 5.4121e-04 - acc: 1.9531e-04
5632/8692 [==================>...........] - ETA: 1s - loss: 5.6797e-04 - acc: 1.7756e-04
6144/8692 [====================>.........] - ETA: 1s - loss: 5.4170e-04 - acc: 1.6276e-04
6656/8692 [=====================>........] - ETA: 0s - loss: 5.2841e-04 - acc: 1.5024e-04
7168/8692 [=======================>......] - ETA: 0s - loss: 7.4700e-04 - acc: 1.3951e-04
7680/8692 [=========================>....] - ETA: 0s - loss: 0.0010 - acc: 1.3021e-04    
8192/8692 [===========================>..] - ETA: 0s - loss: 0.0010 - acc: 1.2207e-04
8692/8692 [==============================] - 4s 439us/step - loss: 0.0010 - acc: 1.1505e-04 - val_loss: 0.0020 - val_acc: 0.0000e+00
Epoch 12/50

 512/8692 [>.............................] - ETA: 4s - loss: 0.0016 - acc: 0.0020
1024/8692 [==>...........................] - ETA: 4s - loss: 0.0014 - acc: 9.7656e-04
1536/8692 [====>.........................] - ETA: 3s - loss: 0.0012 - acc: 6.5104e-04
2048/8692 [======>.......................] - ETA: 3s - loss: 9.4057e-04 - acc: 4.8828e-04
2560/8692 [=======>......................] - ETA: 3s - loss: 8.4398e-04 - acc: 3.9063e-04
3072/8692 [=========>....................] - ETA: 3s - loss: 7.5340e-04 - acc: 3.2552e-04
3584/8692 [===========>..................] - ETA: 2s - loss: 6.6229e-04 - acc: 2.7902e-04
4096/8692 [=============>................] - ETA: 2s - loss: 5.9060e-04 - acc: 2.4414e-04
4608/8692 [==============>...............] - ETA: 2s - loss: 5.4549e-04 - acc: 2.1701e-04
5120/8692 [================>.............] - ETA: 1s - loss: 5.0375e-04 - acc: 1.9531e-04
5632/8692 [==================>...........] - ETA: 1s - loss: 6.1903e-04 - acc: 1.7756e-04
6144/8692 [====================>.........] - ETA: 1s - loss: 7.7680e-04 - acc: 1.6276e-04
6656/8692 [=====================>........] - ETA: 0s - loss: 8.9804e-04 - acc: 1.5024e-04
7168/8692 [=======================>......] - ETA: 0s - loss: 0.0010 - acc: 1.3951e-04    
7680/8692 [=========================>....] - ETA: 0s - loss: 0.0013 - acc: 1.3021e-04
8192/8692 [===========================>..] - ETA: 0s - loss: 0.0012 - acc: 1.2207e-04
8692/8692 [==============================] - 4s 491us/step - loss: 0.0012 - acc: 1.1505e-04 - val_loss: 2.7759e-04 - val_acc: 0.0000e+00
Epoch 13/50

 512/8692 [>.............................] - ETA: 3s - loss: 1.8692e-04 - acc: 0.0020
1024/8692 [==>...........................] - ETA: 3s - loss: 1.5360e-04 - acc: 9.7656e-04
1536/8692 [====>.........................] - ETA: 2s - loss: 1.5849e-04 - acc: 6.5104e-04
2048/8692 [======>.......................] - ETA: 2s - loss: 2.3969e-04 - acc: 4.8828e-04
2560/8692 [=======>......................] - ETA: 2s - loss: 2.2399e-04 - acc: 3.9063e-04
3072/8692 [=========>....................] - ETA: 2s - loss: 2.2604e-04 - acc: 3.2552e-04
3584/8692 [===========>..................] - ETA: 2s - loss: 2.8766e-04 - acc: 2.7902e-04
4096/8692 [=============>................] - ETA: 1s - loss: 3.6845e-04 - acc: 2.4414e-04
4608/8692 [==============>...............] - ETA: 1s - loss: 6.5213e-04 - acc: 2.1701e-04
5120/8692 [================>.............] - ETA: 1s - loss: 9.5600e-04 - acc: 1.9531e-04
5632/8692 [==================>...........] - ETA: 1s - loss: 0.0011 - acc: 1.7756e-04    
6144/8692 [====================>.........] - ETA: 1s - loss: 0.0012 - acc: 1.6276e-04
6656/8692 [=====================>........] - ETA: 0s - loss: 0.0011 - acc: 1.5024e-04
7168/8692 [=======================>......] - ETA: 0s - loss: 0.0013 - acc: 1.3951e-04
7680/8692 [=========================>....] - ETA: 0s - loss: 0.0015 - acc: 1.3021e-04
8192/8692 [===========================>..] - ETA: 0s - loss: 0.0015 - acc: 1.2207e-04
8692/8692 [==============================] - 4s 435us/step - loss: 0.0015 - acc: 1.1505e-04 - val_loss: 0.0036 - val_acc: 0.0000e+00
Epoch 14/50

 512/8692 [>.............................] - ETA: 3s - loss: 0.0034 - acc: 0.0020
1024/8692 [==>...........................] - ETA: 3s - loss: 0.0031 - acc: 9.7656e-04
1536/8692 [====>.........................] - ETA: 2s - loss: 0.0028 - acc: 6.5104e-04
2048/8692 [======>.......................] - ETA: 2s - loss: 0.0024 - acc: 4.8828e-04
2560/8692 [=======>......................] - ETA: 2s - loss: 0.0022 - acc: 3.9063e-04
3072/8692 [=========>....................] - ETA: 2s - loss: 0.0020 - acc: 3.2552e-04
3584/8692 [===========>..................] - ETA: 2s - loss: 0.0018 - acc: 2.7902e-04
4096/8692 [=============>................] - ETA: 1s - loss: 0.0016 - acc: 2.4414e-04
4608/8692 [==============>...............] - ETA: 1s - loss: 0.0015 - acc: 2.1701e-04
5120/8692 [================>.............] - ETA: 1s - loss: 0.0014 - acc: 1.9531e-04
5632/8692 [==================>...........] - ETA: 1s - loss: 0.0017 - acc: 1.7756e-04
6144/8692 [====================>.........] - ETA: 1s - loss: 0.0021 - acc: 1.6276e-04
6656/8692 [=====================>........] - ETA: 0s - loss: 0.0023 - acc: 1.5024e-04
7168/8692 [=======================>......] - ETA: 0s - loss: 0.0023 - acc: 1.3951e-04
7680/8692 [=========================>....] - ETA: 0s - loss: 0.0024 - acc: 1.3021e-04
8192/8692 [===========================>..] - ETA: 0s - loss: 0.0023 - acc: 1.2207e-04
8692/8692 [==============================] - 4s 435us/step - loss: 0.0022 - acc: 1.1505e-04 - val_loss: 9.9533e-04 - val_acc: 0.0000e+00
Epoch 15/50

 512/8692 [>.............................] - ETA: 3s - loss: 2.2576e-04 - acc: 0.0020
1024/8692 [==>...........................] - ETA: 3s - loss: 3.6965e-04 - acc: 9.7656e-04
1536/8692 [====>.........................] - ETA: 2s - loss: 5.8454e-04 - acc: 6.5104e-04
2048/8692 [======>.......................] - ETA: 2s - loss: 8.7205e-04 - acc: 4.8828e-04
2560/8692 [=======>......................] - ETA: 2s - loss: 8.6762e-04 - acc: 3.9063e-04
3072/8692 [=========>....................] - ETA: 2s - loss: 8.7313e-04 - acc: 3.2552e-04
3584/8692 [===========>..................] - ETA: 2s - loss: 9.7901e-04 - acc: 2.7902e-04
4096/8692 [=============>................] - ETA: 1s - loss: 0.0011 - acc: 2.4414e-04    
4608/8692 [==============>...............] - ETA: 1s - loss: 0.0015 - acc: 2.1701e-04
5120/8692 [================>.............] - ETA: 1s - loss: 0.0021 - acc: 1.9531e-04
5632/8692 [==================>...........] - ETA: 1s - loss: 0.0026 - acc: 1.7756e-04
6144/8692 [====================>.........] - ETA: 1s - loss: 0.0029 - acc: 1.6276e-04
6656/8692 [=====================>........] - ETA: 0s - loss: 0.0031 - acc: 1.5024e-04
7168/8692 [=======================>......] - ETA: 0s - loss: 0.0035 - acc: 1.3951e-04
7680/8692 [=========================>....] - ETA: 0s - loss: 0.0037 - acc: 1.3021e-04
8192/8692 [===========================>..] - ETA: 0s - loss: 0.0035 - acc: 1.2207e-04
8692/8692 [==============================] - 4s 434us/step - loss: 0.0033 - acc: 1.1505e-04 - val_loss: 0.0047 - val_acc: 0.0000e+00
Epoch 16/50

 512/8692 [>.............................] - ETA: 3s - loss: 0.0075 - acc: 0.0020
1024/8692 [==>...........................] - ETA: 3s - loss: 0.0072 - acc: 9.7656e-04
1536/8692 [====>.........................] - ETA: 2s - loss: 0.0067 - acc: 6.5104e-04
2048/8692 [======>.......................] - ETA: 2s - loss: 0.0061 - acc: 4.8828e-04
2560/8692 [=======>......................] - ETA: 2s - loss: 0.0057 - acc: 3.9063e-04
3072/8692 [=========>....................] - ETA: 2s - loss: 0.0053 - acc: 3.2552e-04
3584/8692 [===========>..................] - ETA: 2s - loss: 0.0048 - acc: 2.7902e-04
4096/8692 [=============>................] - ETA: 1s - loss: 0.0043 - acc: 2.4414e-04
4608/8692 [==============>...............] - ETA: 1s - loss: 0.0043 - acc: 2.1701e-04
5120/8692 [================>.............] - ETA: 1s - loss: 0.0045 - acc: 1.9531e-04
5632/8692 [==================>...........] - ETA: 1s - loss: 0.0057 - acc: 1.7756e-04
6144/8692 [====================>.........] - ETA: 1s - loss: 0.0069 - acc: 1.6276e-04
6656/8692 [=====================>........] - ETA: 0s - loss: 0.0074 - acc: 1.5024e-04
7168/8692 [=======================>......] - ETA: 0s - loss: 0.0071 - acc: 1.3951e-04
7680/8692 [=========================>....] - ETA: 0s - loss: 0.0069 - acc: 1.3021e-04
8192/8692 [===========================>..] - ETA: 0s - loss: 0.0065 - acc: 1.2207e-04
8692/8692 [==============================] - 4s 434us/step - loss: 0.0062 - acc: 1.1505e-04 - val_loss: 0.0030 - val_acc: 0.0000e+00
Epoch 17/50

 512/8692 [>.............................] - ETA: 3s - loss: 0.0013 - acc: 0.0020
1024/8692 [==>...........................] - ETA: 2s - loss: 0.0017 - acc: 9.7656e-04
1536/8692 [====>.........................] - ETA: 2s - loss: 0.0021 - acc: 6.5104e-04
2048/8692 [======>.......................] - ETA: 2s - loss: 0.0027 - acc: 4.8828e-04
2560/8692 [=======>......................] - ETA: 2s - loss: 0.0027 - acc: 3.9063e-04
3072/8692 [=========>....................] - ETA: 2s - loss: 0.0026 - acc: 3.2552e-04
3584/8692 [===========>..................] - ETA: 2s - loss: 0.0028 - acc: 2.7902e-04
4096/8692 [=============>................] - ETA: 1s - loss: 0.0028 - acc: 2.4414e-04
4608/8692 [==============>...............] - ETA: 1s - loss: 0.0036 - acc: 2.1701e-04
5120/8692 [================>.............] - ETA: 1s - loss: 0.0047 - acc: 1.9531e-04
5632/8692 [==================>...........] - ETA: 1s - loss: 0.0061 - acc: 1.7756e-04
6144/8692 [====================>.........] - ETA: 1s - loss: 0.0075 - acc: 1.6276e-04
6656/8692 [=====================>........] - ETA: 0s - loss: 0.0089 - acc: 1.5024e-04
7168/8692 [=======================>......] - ETA: 0s - loss: 0.0107 - acc: 1.3951e-04
7680/8692 [=========================>....] - ETA: 0s - loss: 0.0118 - acc: 1.3021e-04
8192/8692 [===========================>..] - ETA: 0s - loss: 0.0115 - acc: 1.2207e-04
8692/8692 [==============================] - 4s 431us/step - loss: 0.0110 - acc: 1.1505e-04 - val_loss: 0.0012 - val_acc: 0.0000e+00
Epoch 18/50

 512/8692 [>.............................] - ETA: 3s - loss: 0.0133 - acc: 0.0020
1024/8692 [==>...........................] - ETA: 3s - loss: 0.0131 - acc: 9.7656e-04
1536/8692 [====>.........................] - ETA: 2s - loss: 0.0125 - acc: 6.5104e-04
2048/8692 [======>.......................] - ETA: 2s - loss: 0.0116 - acc: 4.8828e-04
2560/8692 [=======>......................] - ETA: 2s - loss: 0.0112 - acc: 3.9063e-04
3072/8692 [=========>....................] - ETA: 2s - loss: 0.0106 - acc: 3.2552e-04
3584/8692 [===========>..................] - ETA: 2s - loss: 0.0099 - acc: 2.7902e-04
4096/8692 [=============>................] - ETA: 1s - loss: 0.0091 - acc: 2.4414e-04
4608/8692 [==============>...............] - ETA: 1s - loss: 0.0091 - acc: 2.1701e-04
5120/8692 [================>.............] - ETA: 1s - loss: 0.0099 - acc: 1.9531e-04
5632/8692 [==================>...........] - ETA: 1s - loss: 0.0127 - acc: 1.7756e-04
6144/8692 [====================>.........] - ETA: 1s - loss: 0.0155 - acc: 1.6276e-04
6656/8692 [=====================>........] - ETA: 0s - loss: 0.0169 - acc: 1.5024e-04
7168/8692 [=======================>......] - ETA: 0s - loss: 0.0164 - acc: 1.3951e-04
7680/8692 [=========================>....] - ETA: 0s - loss: 0.0156 - acc: 1.3021e-04
8192/8692 [===========================>..] - ETA: 0s - loss: 0.0149 - acc: 1.2207e-04
8692/8692 [==============================] - 4s 435us/step - loss: 0.0141 - acc: 1.1505e-04 - val_loss: 7.8882e-04 - val_acc: 0.0000e+00
Epoch 19/50

 512/8692 [>.............................] - ETA: 3s - loss: 0.0011 - acc: 0.0020
1024/8692 [==>...........................] - ETA: 3s - loss: 0.0016 - acc: 9.7656e-04
1536/8692 [====>.........................] - ETA: 2s - loss: 0.0023 - acc: 6.5104e-04
2048/8692 [======>.......................] - ETA: 2s - loss: 0.0030 - acc: 4.8828e-04
2560/8692 [=======>......................] - ETA: 2s - loss: 0.0032 - acc: 3.9063e-04
3072/8692 [=========>....................] - ETA: 2s - loss: 0.0033 - acc: 3.2552e-04
3584/8692 [===========>..................] - ETA: 2s - loss: 0.0036 - acc: 2.7902e-04
4096/8692 [=============>................] - ETA: 1s - loss: 0.0039 - acc: 2.4414e-04
4608/8692 [==============>...............] - ETA: 1s - loss: 0.0050 - acc: 2.1701e-04
5120/8692 [================>.............] - ETA: 1s - loss: 0.0064 - acc: 1.9531e-04
5632/8692 [==================>...........] - ETA: 1s - loss: 0.0081 - acc: 1.7756e-04
6144/8692 [====================>.........] - ETA: 1s - loss: 0.0097 - acc: 1.6276e-04
6656/8692 [=====================>........] - ETA: 0s - loss: 0.0113 - acc: 1.5024e-04
7168/8692 [=======================>......] - ETA: 0s - loss: 0.0134 - acc: 1.3951e-04
7680/8692 [=========================>....] - ETA: 0s - loss: 0.0149 - acc: 1.3021e-04
8192/8692 [===========================>..] - ETA: 0s - loss: 0.0149 - acc: 1.2207e-04
8692/8692 [==============================] - 4s 434us/step - loss: 0.0144 - acc: 1.1505e-04 - val_loss: 9.2692e-04 - val_acc: 0.0000e+00
Epoch 20/50

 512/8692 [>.............................] - ETA: 3s - loss: 0.0085 - acc: 0.0020
1024/8692 [==>...........................] - ETA: 3s - loss: 0.0085 - acc: 9.7656e-04
1536/8692 [====>.........................] - ETA: 2s - loss: 0.0081 - acc: 6.5104e-04
2048/8692 [======>.......................] - ETA: 2s - loss: 0.0074 - acc: 4.8828e-04
2560/8692 [=======>......................] - ETA: 2s - loss: 0.0074 - acc: 3.9063e-04
3072/8692 [=========>....................] - ETA: 2s - loss: 0.0072 - acc: 3.2552e-04
3584/8692 [===========>..................] - ETA: 2s - loss: 0.0068 - acc: 2.7902e-04
4096/8692 [=============>................] - ETA: 1s - loss: 0.0063 - acc: 2.4414e-04
4608/8692 [==============>...............] - ETA: 1s - loss: 0.0060 - acc: 2.1701e-04
5120/8692 [================>.............] - ETA: 1s - loss: 0.0060 - acc: 1.9531e-04
5632/8692 [==================>...........] - ETA: 1s - loss: 0.0073 - acc: 1.7756e-04
6144/8692 [====================>.........] - ETA: 1s - loss: 0.0091 - acc: 1.6276e-04
6656/8692 [=====================>........] - ETA: 0s - loss: 0.0102 - acc: 1.5024e-04
7168/8692 [=======================>......] - ETA: 0s - loss: 0.0100 - acc: 1.3951e-04
7680/8692 [=========================>....] - ETA: 0s - loss: 0.0096 - acc: 1.3021e-04
8192/8692 [===========================>..] - ETA: 0s - loss: 0.0094 - acc: 1.2207e-04
8692/8692 [==============================] - 4s 436us/step - loss: 0.0091 - acc: 1.1505e-04 - val_loss: 0.0029 - val_acc: 0.0000e+00
Epoch 21/50

 512/8692 [>.............................] - ETA: 3s - loss: 2.4304e-04 - acc: 0.0020
1024/8692 [==>...........................] - ETA: 2s - loss: 1.7236e-04 - acc: 9.7656e-04
1536/8692 [====>.........................] - ETA: 2s - loss: 2.3306e-04 - acc: 6.5104e-04
2048/8692 [======>.......................] - ETA: 2s - loss: 4.7452e-04 - acc: 4.8828e-04
2560/8692 [=======>......................] - ETA: 2s - loss: 5.0095e-04 - acc: 3.9063e-04
3072/8692 [=========>....................] - ETA: 2s - loss: 5.7572e-04 - acc: 3.2552e-04
3584/8692 [===========>..................] - ETA: 2s - loss: 8.0622e-04 - acc: 2.7902e-04
4096/8692 [=============>................] - ETA: 1s - loss: 0.0011 - acc: 2.4414e-04    
4608/8692 [==============>...............] - ETA: 1s - loss: 0.0018 - acc: 2.1701e-04
5120/8692 [================>.............] - ETA: 1s - loss: 0.0025 - acc: 1.9531e-04
5632/8692 [==================>...........] - ETA: 1s - loss: 0.0029 - acc: 1.7756e-04
6144/8692 [====================>.........] - ETA: 1s - loss: 0.0031 - acc: 1.6276e-04
6656/8692 [=====================>........] - ETA: 0s - loss: 0.0032 - acc: 1.5024e-04
7168/8692 [=======================>......] - ETA: 0s - loss: 0.0040 - acc: 1.3951e-04
7680/8692 [=========================>....] - ETA: 0s - loss: 0.0047 - acc: 1.3021e-04
8192/8692 [===========================>..] - ETA: 0s - loss: 0.0046 - acc: 1.2207e-04
8692/8692 [==============================] - 4s 430us/step - loss: 0.0044 - acc: 1.1505e-04 - val_loss: 4.6449e-04 - val_acc: 0.0000e+00
Epoch 22/50

 512/8692 [>.............................] - ETA: 3s - loss: 0.0018 - acc: 0.0020
1024/8692 [==>...........................] - ETA: 3s - loss: 0.0017 - acc: 9.7656e-04
1536/8692 [====>.........................] - ETA: 2s - loss: 0.0015 - acc: 6.5104e-04
2048/8692 [======>.......................] - ETA: 2s - loss: 0.0012 - acc: 4.8828e-04
2560/8692 [=======>......................] - ETA: 2s - loss: 0.0012 - acc: 3.9063e-04
3072/8692 [=========>....................] - ETA: 2s - loss: 0.0011 - acc: 3.2552e-04
3584/8692 [===========>..................] - ETA: 2s - loss: 0.0010 - acc: 2.7902e-04
4096/8692 [=============>................] - ETA: 1s - loss: 9.1455e-04 - acc: 2.4414e-04
4608/8692 [==============>...............] - ETA: 1s - loss: 8.3203e-04 - acc: 2.1701e-04
5120/8692 [================>.............] - ETA: 1s - loss: 7.8734e-04 - acc: 1.9531e-04
5632/8692 [==================>...........] - ETA: 1s - loss: 0.0012 - acc: 1.7756e-04    
6144/8692 [====================>.........] - ETA: 1s - loss: 0.0018 - acc: 1.6276e-04
6656/8692 [=====================>........] - ETA: 0s - loss: 0.0023 - acc: 1.5024e-04
7168/8692 [=======================>......] - ETA: 0s - loss: 0.0024 - acc: 1.3951e-04
7680/8692 [=========================>....] - ETA: 0s - loss: 0.0025 - acc: 1.3021e-04
8192/8692 [===========================>..] - ETA: 0s - loss: 0.0025 - acc: 1.2207e-04
8692/8692 [==============================] - 4s 448us/step - loss: 0.0025 - acc: 1.1505e-04 - val_loss: 0.0023 - val_acc: 0.0000e+00
Epoch 23/50

 512/8692 [>.............................] - ETA: 3s - loss: 8.5898e-04 - acc: 0.0020
1024/8692 [==>...........................] - ETA: 3s - loss: 6.3923e-04 - acc: 9.7656e-04
1536/8692 [====>.........................] - ETA: 3s - loss: 4.7790e-04 - acc: 6.5104e-04
2048/8692 [======>.......................] - ETA: 2s - loss: 4.2129e-04 - acc: 4.8828e-04
2560/8692 [=======>......................] - ETA: 2s - loss: 3.5324e-04 - acc: 3.9063e-04
3072/8692 [=========>....................] - ETA: 2s - loss: 3.1858e-04 - acc: 3.2552e-04
3584/8692 [===========>..................] - ETA: 2s - loss: 3.5895e-04 - acc: 2.7902e-04
4096/8692 [=============>................] - ETA: 1s - loss: 4.3379e-04 - acc: 2.4414e-04
4608/8692 [==============>...............] - ETA: 1s - loss: 6.9483e-04 - acc: 2.1701e-04
5120/8692 [================>.............] - ETA: 1s - loss: 9.5817e-04 - acc: 1.9531e-04
5632/8692 [==================>...........] - ETA: 1s - loss: 0.0010 - acc: 1.7756e-04    
6144/8692 [====================>.........] - ETA: 1s - loss: 9.9296e-04 - acc: 1.6276e-04
6656/8692 [=====================>........] - ETA: 0s - loss: 9.4874e-04 - acc: 1.5024e-04
7168/8692 [=======================>......] - ETA: 0s - loss: 0.0013 - acc: 1.3951e-04    
7680/8692 [=========================>....] - ETA: 0s - loss: 0.0019 - acc: 1.3021e-04
8192/8692 [===========================>..] - ETA: 0s - loss: 0.0018 - acc: 1.2207e-04
8692/8692 [==============================] - 4s 440us/step - loss: 0.0017 - acc: 1.1505e-04 - val_loss: 8.2297e-04 - val_acc: 0.0000e+00
Epoch 24/50

 512/8692 [>.............................] - ETA: 3s - loss: 0.0015 - acc: 0.0020
1024/8692 [==>...........................] - ETA: 3s - loss: 0.0013 - acc: 9.7656e-04
1536/8692 [====>.........................] - ETA: 2s - loss: 0.0011 - acc: 6.5104e-04
2048/8692 [======>.......................] - ETA: 2s - loss: 8.8481e-04 - acc: 4.8828e-04
2560/8692 [=======>......................] - ETA: 2s - loss: 8.0272e-04 - acc: 3.9063e-04
3072/8692 [=========>....................] - ETA: 2s - loss: 7.1858e-04 - acc: 3.2552e-04
3584/8692 [===========>..................] - ETA: 2s - loss: 6.3876e-04 - acc: 2.7902e-04
4096/8692 [=============>................] - ETA: 1s - loss: 5.7618e-04 - acc: 2.4414e-04
4608/8692 [==============>...............] - ETA: 1s - loss: 5.6305e-04 - acc: 2.1701e-04
5120/8692 [================>.............] - ETA: 1s - loss: 5.3641e-04 - acc: 1.9531e-04
5632/8692 [==================>...........] - ETA: 1s - loss: 6.4387e-04 - acc: 1.7756e-04
6144/8692 [====================>.........] - ETA: 1s - loss: 8.3532e-04 - acc: 1.6276e-04
6656/8692 [=====================>........] - ETA: 0s - loss: 0.0011 - acc: 1.5024e-04    
7168/8692 [=======================>......] - ETA: 0s - loss: 0.0012 - acc: 1.3951e-04
7680/8692 [=========================>....] - ETA: 0s - loss: 0.0014 - acc: 1.3021e-04
8192/8692 [===========================>..] - ETA: 0s - loss: 0.0014 - acc: 1.2207e-04
8692/8692 [==============================] - 4s 443us/step - loss: 0.0014 - acc: 1.1505e-04 - val_loss: 0.0015 - val_acc: 0.0000e+00
Epoch 25/50

 512/8692 [>.............................] - ETA: 3s - loss: 8.1328e-04 - acc: 0.0020
1024/8692 [==>...........................] - ETA: 3s - loss: 6.3305e-04 - acc: 9.7656e-04
1536/8692 [====>.........................] - ETA: 3s - loss: 4.8248e-04 - acc: 6.5104e-04
2048/8692 [======>.......................] - ETA: 2s - loss: 4.0891e-04 - acc: 4.8828e-04
2560/8692 [=======>......................] - ETA: 2s - loss: 3.4837e-04 - acc: 3.9063e-04
3072/8692 [=========>....................] - ETA: 2s - loss: 3.0981e-04 - acc: 3.2552e-04
3584/8692 [===========>..................] - ETA: 2s - loss: 3.2568e-04 - acc: 2.7902e-04
4096/8692 [=============>................] - ETA: 1s - loss: 3.6380e-04 - acc: 2.4414e-04
4608/8692 [==============>...............] - ETA: 1s - loss: 5.4053e-04 - acc: 2.1701e-04
5120/8692 [================>.............] - ETA: 1s - loss: 7.0663e-04 - acc: 1.9531e-04
5632/8692 [==================>...........] - ETA: 1s - loss: 7.3035e-04 - acc: 1.7756e-04
6144/8692 [====================>.........] - ETA: 1s - loss: 6.9200e-04 - acc: 1.6276e-04
6656/8692 [=====================>........] - ETA: 0s - loss: 6.6048e-04 - acc: 1.5024e-04
7168/8692 [=======================>......] - ETA: 0s - loss: 9.2670e-04 - acc: 1.3951e-04
7680/8692 [=========================>....] - ETA: 0s - loss: 0.0013 - acc: 1.3021e-04    
8192/8692 [===========================>..] - ETA: 0s - loss: 0.0013 - acc: 1.2207e-04
8692/8692 [==============================] - 4s 455us/step - loss: 0.0012 - acc: 1.1505e-04 - val_loss: 9.9326e-04 - val_acc: 0.0000e+00
Epoch 26/50

 512/8692 [>.............................] - ETA: 3s - loss: 0.0015 - acc: 0.0020
1024/8692 [==>...........................] - ETA: 3s - loss: 0.0013 - acc: 9.7656e-04
1536/8692 [====>.........................] - ETA: 2s - loss: 0.0011 - acc: 6.5104e-04
2048/8692 [======>.......................] - ETA: 2s - loss: 8.5479e-04 - acc: 4.8828e-04
2560/8692 [=======>......................] - ETA: 2s - loss: 7.6754e-04 - acc: 3.9063e-04
3072/8692 [=========>....................] - ETA: 2s - loss: 6.8838e-04 - acc: 3.2552e-04
3584/8692 [===========>..................] - ETA: 2s - loss: 6.1491e-04 - acc: 2.7902e-04
4096/8692 [=============>................] - ETA: 1s - loss: 5.6115e-04 - acc: 2.4414e-04
4608/8692 [==============>...............] - ETA: 1s - loss: 5.6635e-04 - acc: 2.1701e-04
5120/8692 [================>.............] - ETA: 1s - loss: 5.6042e-04 - acc: 1.9531e-04
5632/8692 [==================>...........] - ETA: 1s - loss: 6.0965e-04 - acc: 1.7756e-04
6144/8692 [====================>.........] - ETA: 1s - loss: 6.8532e-04 - acc: 1.6276e-04
6656/8692 [=====================>........] - ETA: 0s - loss: 8.0928e-04 - acc: 1.5024e-04
7168/8692 [=======================>......] - ETA: 0s - loss: 9.4638e-04 - acc: 1.3951e-04
7680/8692 [=========================>....] - ETA: 0s - loss: 0.0012 - acc: 1.3021e-04    
8192/8692 [===========================>..] - ETA: 0s - loss: 0.0012 - acc: 1.2207e-04
8692/8692 [==============================] - 4s 436us/step - loss: 0.0012 - acc: 1.1505e-04 - val_loss: 0.0012 - val_acc: 0.0000e+00
Epoch 27/50

 512/8692 [>.............................] - ETA: 3s - loss: 7.5484e-04 - acc: 0.0020
1024/8692 [==>...........................] - ETA: 3s - loss: 5.9754e-04 - acc: 9.7656e-04
1536/8692 [====>.........................] - ETA: 2s - loss: 4.7053e-04 - acc: 6.5104e-04
2048/8692 [======>.......................] - ETA: 2s - loss: 4.0287e-04 - acc: 4.8828e-04
2560/8692 [=======>......................] - ETA: 2s - loss: 3.4698e-04 - acc: 3.9063e-04
3072/8692 [=========>....................] - ETA: 2s - loss: 3.0829e-04 - acc: 3.2552e-04
3584/8692 [===========>..................] - ETA: 2s - loss: 3.1862e-04 - acc: 2.7902e-04
4096/8692 [=============>................] - ETA: 1s - loss: 3.4580e-04 - acc: 2.4414e-04
4608/8692 [==============>...............] - ETA: 1s - loss: 4.9771e-04 - acc: 2.1701e-04
5120/8692 [================>.............] - ETA: 1s - loss: 6.4317e-04 - acc: 1.9531e-04
5632/8692 [==================>...........] - ETA: 1s - loss: 6.6016e-04 - acc: 1.7756e-04
6144/8692 [====================>.........] - ETA: 1s - loss: 6.2328e-04 - acc: 1.6276e-04
6656/8692 [=====================>........] - ETA: 0s - loss: 5.9842e-04 - acc: 1.5024e-04
7168/8692 [=======================>......] - ETA: 0s - loss: 8.2073e-04 - acc: 1.3951e-04
7680/8692 [=========================>....] - ETA: 0s - loss: 0.0011 - acc: 1.3021e-04    
8192/8692 [===========================>..] - ETA: 0s - loss: 0.0011 - acc: 1.2207e-04
8692/8692 [==============================] - 4s 436us/step - loss: 0.0011 - acc: 1.1505e-04 - val_loss: 0.0010 - val_acc: 0.0000e+00
Epoch 28/50

 512/8692 [>.............................] - ETA: 3s - loss: 0.0015 - acc: 0.0020
1024/8692 [==>...........................] - ETA: 2s - loss: 0.0013 - acc: 9.7656e-04
1536/8692 [====>.........................] - ETA: 3s - loss: 0.0010 - acc: 6.5104e-04
2048/8692 [======>.......................] - ETA: 2s - loss: 8.3428e-04 - acc: 4.8828e-04
2560/8692 [=======>......................] - ETA: 2s - loss: 7.5194e-04 - acc: 3.9063e-04
3072/8692 [=========>....................] - ETA: 2s - loss: 6.6666e-04 - acc: 3.2552e-04
3584/8692 [===========>..................] - ETA: 2s - loss: 5.9334e-04 - acc: 2.7902e-04
4096/8692 [=============>................] - ETA: 1s - loss: 5.4152e-04 - acc: 2.4414e-04
4608/8692 [==============>...............] - ETA: 1s - loss: 5.5053e-04 - acc: 2.1701e-04
5120/8692 [================>.............] - ETA: 1s - loss: 5.4787e-04 - acc: 1.9531e-04
5632/8692 [==================>...........] - ETA: 1s - loss: 5.7169e-04 - acc: 1.7756e-04
6144/8692 [====================>.........] - ETA: 1s - loss: 6.2684e-04 - acc: 1.6276e-04
6656/8692 [=====================>........] - ETA: 0s - loss: 7.4130e-04 - acc: 1.5024e-04
7168/8692 [=======================>......] - ETA: 0s - loss: 8.6747e-04 - acc: 1.3951e-04
7680/8692 [=========================>....] - ETA: 0s - loss: 0.0011 - acc: 1.3021e-04    
8192/8692 [===========================>..] - ETA: 0s - loss: 0.0011 - acc: 1.2207e-04
8692/8692 [==============================] - 4s 434us/step - loss: 0.0011 - acc: 1.1505e-04 - val_loss: 9.8702e-04 - val_acc: 0.0000e+00
Epoch 29/50

 512/8692 [>.............................] - ETA: 3s - loss: 6.3835e-04 - acc: 0.0020
1024/8692 [==>...........................] - ETA: 2s - loss: 5.1949e-04 - acc: 9.7656e-04
1536/8692 [====>.........................] - ETA: 2s - loss: 4.1424e-04 - acc: 6.5104e-04
2048/8692 [======>.......................] - ETA: 2s - loss: 3.5963e-04 - acc: 4.8828e-04
2560/8692 [=======>......................] - ETA: 2s - loss: 3.1273e-04 - acc: 3.9063e-04
3072/8692 [=========>....................] - ETA: 2s - loss: 2.8200e-04 - acc: 3.2552e-04
3584/8692 [===========>..................] - ETA: 1s - loss: 2.9214e-04 - acc: 2.7902e-04
4096/8692 [=============>................] - ETA: 1s - loss: 3.2784e-04 - acc: 2.4414e-04
4608/8692 [==============>...............] - ETA: 1s - loss: 4.7356e-04 - acc: 2.1701e-04
5120/8692 [================>.............] - ETA: 1s - loss: 6.1114e-04 - acc: 1.9531e-04
5632/8692 [==================>...........] - ETA: 1s - loss: 6.3337e-04 - acc: 1.7756e-04
6144/8692 [====================>.........] - ETA: 0s - loss: 6.0260e-04 - acc: 1.6276e-04
6656/8692 [=====================>........] - ETA: 0s - loss: 5.7856e-04 - acc: 1.5024e-04
7168/8692 [=======================>......] - ETA: 0s - loss: 7.8142e-04 - acc: 1.3951e-04
7680/8692 [=========================>....] - ETA: 0s - loss: 0.0011 - acc: 1.3021e-04    
8192/8692 [===========================>..] - ETA: 0s - loss: 0.0010 - acc: 1.2207e-04
8692/8692 [==============================] - 4s 423us/step - loss: 9.9969e-04 - acc: 1.1505e-04 - val_loss: 0.0010 - val_acc: 0.0000e+00
Epoch 30/50

 512/8692 [>.............................] - ETA: 3s - loss: 0.0016 - acc: 0.0020
1024/8692 [==>...........................] - ETA: 3s - loss: 0.0014 - acc: 9.7656e-04
1536/8692 [====>.........................] - ETA: 2s - loss: 0.0012 - acc: 6.5104e-04
2048/8692 [======>.......................] - ETA: 2s - loss: 9.3161e-04 - acc: 4.8828e-04
2560/8692 [=======>......................] - ETA: 2s - loss: 8.3499e-04 - acc: 3.9063e-04
3072/8692 [=========>....................] - ETA: 2s - loss: 7.3858e-04 - acc: 3.2552e-04
3584/8692 [===========>..................] - ETA: 2s - loss: 6.5622e-04 - acc: 2.7902e-04
4096/8692 [=============>................] - ETA: 1s - loss: 5.9952e-04 - acc: 2.4414e-04
4608/8692 [==============>...............] - ETA: 1s - loss: 5.9319e-04 - acc: 2.1701e-04
5120/8692 [================>.............] - ETA: 1s - loss: 5.7801e-04 - acc: 1.9531e-04
5632/8692 [==================>...........] - ETA: 1s - loss: 6.0876e-04 - acc: 1.7756e-04
6144/8692 [====================>.........] - ETA: 1s - loss: 6.6574e-04 - acc: 1.6276e-04
6656/8692 [=====================>........] - ETA: 0s - loss: 7.8379e-04 - acc: 1.5024e-04
7168/8692 [=======================>......] - ETA: 0s - loss: 8.9238e-04 - acc: 1.3951e-04
7680/8692 [=========================>....] - ETA: 0s - loss: 0.0011 - acc: 1.3021e-04    
8192/8692 [===========================>..] - ETA: 0s - loss: 0.0011 - acc: 1.2207e-04
8692/8692 [==============================] - 4s 439us/step - loss: 0.0010 - acc: 1.1505e-04 - val_loss: 8.5921e-04 - val_acc: 0.0000e+00
Epoch 31/50

 512/8692 [>.............................] - ETA: 3s - loss: 4.9782e-04 - acc: 0.0020
1024/8692 [==>...........................] - ETA: 3s - loss: 3.9941e-04 - acc: 9.7656e-04
1536/8692 [====>.........................] - ETA: 2s - loss: 3.1694e-04 - acc: 6.5104e-04
2048/8692 [======>.......................] - ETA: 2s - loss: 3.0697e-04 - acc: 4.8828e-04
2560/8692 [=======>......................] - ETA: 2s - loss: 2.6723e-04 - acc: 3.9063e-04
3072/8692 [=========>....................] - ETA: 2s - loss: 2.4777e-04 - acc: 3.2552e-04
3584/8692 [===========>..................] - ETA: 2s - loss: 2.6860e-04 - acc: 2.7902e-04
4096/8692 [=============>................] - ETA: 1s - loss: 3.0752e-04 - acc: 2.4414e-04
4608/8692 [==============>...............] - ETA: 1s - loss: 4.6343e-04 - acc: 2.1701e-04
5120/8692 [================>.............] - ETA: 1s - loss: 6.0911e-04 - acc: 1.9531e-04
5632/8692 [==================>...........] - ETA: 1s - loss: 6.4214e-04 - acc: 1.7756e-04
6144/8692 [====================>.........] - ETA: 1s - loss: 6.1914e-04 - acc: 1.6276e-04
6656/8692 [=====================>........] - ETA: 0s - loss: 5.9289e-04 - acc: 1.5024e-04
7168/8692 [=======================>......] - ETA: 0s - loss: 7.9135e-04 - acc: 1.3951e-04
7680/8692 [=========================>....] - ETA: 0s - loss: 0.0011 - acc: 1.3021e-04    
8192/8692 [===========================>..] - ETA: 0s - loss: 0.0010 - acc: 1.2207e-04
8692/8692 [==============================] - 4s 437us/step - loss: 9.9963e-04 - acc: 1.1505e-04 - val_loss: 0.0010 - val_acc: 0.0000e+00
Epoch 32/50

 512/8692 [>.............................] - ETA: 3s - loss: 0.0018 - acc: 0.0020
1024/8692 [==>...........................] - ETA: 3s - loss: 0.0016 - acc: 9.7656e-04
1536/8692 [====>.........................] - ETA: 2s - loss: 0.0014 - acc: 6.5104e-04
2048/8692 [======>.......................] - ETA: 2s - loss: 0.0011 - acc: 4.8828e-04
2560/8692 [=======>......................] - ETA: 2s - loss: 9.9273e-04 - acc: 3.9063e-04
3072/8692 [=========>....................] - ETA: 2s - loss: 8.8248e-04 - acc: 3.2552e-04
3584/8692 [===========>..................] - ETA: 2s - loss: 7.7687e-04 - acc: 2.7902e-04
4096/8692 [=============>................] - ETA: 1s - loss: 6.9869e-04 - acc: 2.4414e-04
4608/8692 [==============>...............] - ETA: 1s - loss: 6.6531e-04 - acc: 2.1701e-04
5120/8692 [================>.............] - ETA: 1s - loss: 6.3002e-04 - acc: 1.9531e-04
5632/8692 [==================>...........] - ETA: 1s - loss: 6.6555e-04 - acc: 1.7756e-04
6144/8692 [====================>.........] - ETA: 1s - loss: 7.4657e-04 - acc: 1.6276e-04
6656/8692 [=====================>........] - ETA: 0s - loss: 8.9987e-04 - acc: 1.5024e-04
7168/8692 [=======================>......] - ETA: 0s - loss: 9.9517e-04 - acc: 1.3951e-04
7680/8692 [=========================>....] - ETA: 0s - loss: 0.0011 - acc: 1.3021e-04    
8192/8692 [===========================>..] - ETA: 0s - loss: 0.0011 - acc: 1.2207e-04
8692/8692 [==============================] - 4s 441us/step - loss: 0.0011 - acc: 1.1505e-04 - val_loss: 7.0922e-04 - val_acc: 0.0000e+00
Epoch 33/50

 512/8692 [>.............................] - ETA: 3s - loss: 3.0001e-04 - acc: 0.0020
1024/8692 [==>...........................] - ETA: 3s - loss: 2.4684e-04 - acc: 9.7656e-04
1536/8692 [====>.........................] - ETA: 2s - loss: 2.1828e-04 - acc: 6.5104e-04
2048/8692 [======>.......................] - ETA: 2s - loss: 2.5195e-04 - acc: 4.8828e-04
2560/8692 [=======>......................] - ETA: 2s - loss: 2.2936e-04 - acc: 3.9063e-04
3072/8692 [=========>....................] - ETA: 2s - loss: 2.2361e-04 - acc: 3.2552e-04
3584/8692 [===========>..................] - ETA: 2s - loss: 2.6711e-04 - acc: 2.7902e-04
4096/8692 [=============>................] - ETA: 1s - loss: 3.2034e-04 - acc: 2.4414e-04
4608/8692 [==============>...............] - ETA: 1s - loss: 4.9499e-04 - acc: 2.1701e-04
5120/8692 [================>.............] - ETA: 1s - loss: 6.6576e-04 - acc: 1.9531e-04
5632/8692 [==================>...........] - ETA: 1s - loss: 7.2569e-04 - acc: 1.7756e-04
6144/8692 [====================>.........] - ETA: 1s - loss: 7.2628e-04 - acc: 1.6276e-04
6656/8692 [=====================>........] - ETA: 0s - loss: 7.0730e-04 - acc: 1.5024e-04
7168/8692 [=======================>......] - ETA: 0s - loss: 9.3041e-04 - acc: 1.3951e-04
7680/8692 [=========================>....] - ETA: 0s - loss: 0.0012 - acc: 1.3021e-04    
8192/8692 [===========================>..] - ETA: 0s - loss: 0.0012 - acc: 1.2207e-04
8692/8692 [==============================] - 4s 428us/step - loss: 0.0011 - acc: 1.1505e-04 - val_loss: 0.0011 - val_acc: 0.0000e+00
Epoch 34/50

 512/8692 [>.............................] - ETA: 3s - loss: 0.0024 - acc: 0.0020
1024/8692 [==>...........................] - ETA: 2s - loss: 0.0022 - acc: 9.7656e-04
1536/8692 [====>.........................] - ETA: 2s - loss: 0.0019 - acc: 6.5104e-04
2048/8692 [======>.......................] - ETA: 2s - loss: 0.0016 - acc: 4.8828e-04
2560/8692 [=======>......................] - ETA: 2s - loss: 0.0014 - acc: 3.9063e-04
3072/8692 [=========>....................] - ETA: 2s - loss: 0.0013 - acc: 3.2552e-04
3584/8692 [===========>..................] - ETA: 2s - loss: 0.0011 - acc: 2.7902e-04
4096/8692 [=============>................] - ETA: 1s - loss: 0.0010 - acc: 2.4414e-04
4608/8692 [==============>...............] - ETA: 1s - loss: 9.2474e-04 - acc: 2.1701e-04
5120/8692 [================>.............] - ETA: 1s - loss: 8.4876e-04 - acc: 1.9531e-04
5632/8692 [==================>...........] - ETA: 1s - loss: 9.3264e-04 - acc: 1.7756e-04
6144/8692 [====================>.........] - ETA: 1s - loss: 0.0011 - acc: 1.6276e-04    
6656/8692 [=====================>........] - ETA: 0s - loss: 0.0013 - acc: 1.5024e-04
7168/8692 [=======================>......] - ETA: 0s - loss: 0.0014 - acc: 1.3951e-04
7680/8692 [=========================>....] - ETA: 0s - loss: 0.0015 - acc: 1.3021e-04
8192/8692 [===========================>..] - ETA: 0s - loss: 0.0015 - acc: 1.2207e-04
8692/8692 [==============================] - 4s 424us/step - loss: 0.0014 - acc: 1.1505e-04 - val_loss: 5.2288e-04 - val_acc: 0.0000e+00
Epoch 35/50

 512/8692 [>.............................] - ETA: 3s - loss: 1.1779e-04 - acc: 0.0020
1024/8692 [==>...........................] - ETA: 3s - loss: 1.3852e-04 - acc: 9.7656e-04
1536/8692 [====>.........................] - ETA: 2s - loss: 2.1562e-04 - acc: 6.5104e-04
2048/8692 [======>.......................] - ETA: 2s - loss: 3.4559e-04 - acc: 4.8828e-04
2560/8692 [=======>......................] - ETA: 2s - loss: 3.3596e-04 - acc: 3.9063e-04
3072/8692 [=========>....................] - ETA: 2s - loss: 3.5429e-04 - acc: 3.2552e-04
3584/8692 [===========>..................] - ETA: 2s - loss: 4.1839e-04 - acc: 2.7902e-04
4096/8692 [=============>................] - ETA: 1s - loss: 4.8029e-04 - acc: 2.4414e-04
4608/8692 [==============>...............] - ETA: 1s - loss: 6.9407e-04 - acc: 2.1701e-04
5120/8692 [================>.............] - ETA: 1s - loss: 9.1488e-04 - acc: 1.9531e-04
5632/8692 [==================>...........] - ETA: 1s - loss: 0.0010 - acc: 1.7756e-04    
6144/8692 [====================>.........] - ETA: 1s - loss: 0.0011 - acc: 1.6276e-04
6656/8692 [=====================>........] - ETA: 0s - loss: 0.0011 - acc: 1.5024e-04
7168/8692 [=======================>......] - ETA: 0s - loss: 0.0015 - acc: 1.3951e-04
7680/8692 [=========================>....] - ETA: 0s - loss: 0.0018 - acc: 1.3021e-04
8192/8692 [===========================>..] - ETA: 0s - loss: 0.0017 - acc: 1.2207e-04
8692/8692 [==============================] - 4s 427us/step - loss: 0.0017 - acc: 1.1505e-04 - val_loss: 0.0013 - val_acc: 0.0000e+00
Epoch 36/50

 512/8692 [>.............................] - ETA: 3s - loss: 0.0042 - acc: 0.0020
1024/8692 [==>...........................] - ETA: 3s - loss: 0.0040 - acc: 9.7656e-04
1536/8692 [====>.........................] - ETA: 2s - loss: 0.0035 - acc: 6.5104e-04
2048/8692 [======>.......................] - ETA: 2s - loss: 0.0030 - acc: 4.8828e-04
2560/8692 [=======>......................] - ETA: 2s - loss: 0.0028 - acc: 3.9063e-04
3072/8692 [=========>....................] - ETA: 2s - loss: 0.0025 - acc: 3.2552e-04
3584/8692 [===========>..................] - ETA: 2s - loss: 0.0022 - acc: 2.7902e-04
4096/8692 [=============>................] - ETA: 1s - loss: 0.0019 - acc: 2.4414e-04
4608/8692 [==============>...............] - ETA: 1s - loss: 0.0017 - acc: 2.1701e-04
5120/8692 [================>.............] - ETA: 1s - loss: 0.0016 - acc: 1.9531e-04
5632/8692 [==================>...........] - ETA: 1s - loss: 0.0018 - acc: 1.7756e-04
6144/8692 [====================>.........] - ETA: 1s - loss: 0.0022 - acc: 1.6276e-04
6656/8692 [=====================>........] - ETA: 0s - loss: 0.0026 - acc: 1.5024e-04
7168/8692 [=======================>......] - ETA: 0s - loss: 0.0027 - acc: 1.3951e-04
7680/8692 [=========================>....] - ETA: 0s - loss: 0.0027 - acc: 1.3021e-04
8192/8692 [===========================>..] - ETA: 0s - loss: 0.0026 - acc: 1.2207e-04
8692/8692 [==============================] - 4s 427us/step - loss: 0.0025 - acc: 1.1505e-04 - val_loss: 4.2485e-04 - val_acc: 0.0000e+00
Epoch 37/50

 512/8692 [>.............................] - ETA: 3s - loss: 5.6331e-04 - acc: 0.0020
1024/8692 [==>...........................] - ETA: 3s - loss: 7.4538e-04 - acc: 9.7656e-04
1536/8692 [====>.........................] - ETA: 3s - loss: 0.0010 - acc: 6.5104e-04    
2048/8692 [======>.......................] - ETA: 3s - loss: 0.0013 - acc: 4.8828e-04
2560/8692 [=======>......................] - ETA: 2s - loss: 0.0013 - acc: 3.9063e-04
3072/8692 [=========>....................] - ETA: 2s - loss: 0.0012 - acc: 3.2552e-04
3584/8692 [===========>..................] - ETA: 2s - loss: 0.0013 - acc: 2.7902e-04
4096/8692 [=============>................] - ETA: 2s - loss: 0.0013 - acc: 2.4414e-04
4608/8692 [==============>...............] - ETA: 2s - loss: 0.0016 - acc: 2.1701e-04
5120/8692 [================>.............] - ETA: 1s - loss: 0.0019 - acc: 1.9531e-04
5632/8692 [==================>...........] - ETA: 1s - loss: 0.0022 - acc: 1.7756e-04
6144/8692 [====================>.........] - ETA: 1s - loss: 0.0025 - acc: 1.6276e-04
6656/8692 [=====================>........] - ETA: 1s - loss: 0.0028 - acc: 1.5024e-04
7168/8692 [=======================>......] - ETA: 0s - loss: 0.0035 - acc: 1.3951e-04
7680/8692 [=========================>....] - ETA: 0s - loss: 0.0040 - acc: 1.3021e-04
8192/8692 [===========================>..] - ETA: 0s - loss: 0.0039 - acc: 1.2207e-04
8692/8692 [==============================] - 5s 546us/step - loss: 0.0037 - acc: 1.1505e-04 - val_loss: 0.0014 - val_acc: 0.0000e+00
Epoch 38/50

 512/8692 [>.............................] - ETA: 5s - loss: 0.0094 - acc: 0.0020
1024/8692 [==>...........................] - ETA: 4s - loss: 0.0090 - acc: 9.7656e-04
1536/8692 [====>.........................] - ETA: 4s - loss: 0.0083 - acc: 6.5104e-04
2048/8692 [======>.......................] - ETA: 3s - loss: 0.0074 - acc: 4.8828e-04
2560/8692 [=======>......................] - ETA: 3s - loss: 0.0068 - acc: 3.9063e-04
3072/8692 [=========>....................] - ETA: 2s - loss: 0.0062 - acc: 3.2552e-04
3584/8692 [===========>..................] - ETA: 2s - loss: 0.0055 - acc: 2.7902e-04
4096/8692 [=============>................] - ETA: 2s - loss: 0.0048 - acc: 2.4414e-04
4608/8692 [==============>...............] - ETA: 1s - loss: 0.0044 - acc: 2.1701e-04
5120/8692 [================>.............] - ETA: 1s - loss: 0.0041 - acc: 1.9531e-04
5632/8692 [==================>...........] - ETA: 1s - loss: 0.0047 - acc: 1.7756e-04
6144/8692 [====================>.........] - ETA: 1s - loss: 0.0056 - acc: 1.6276e-04
6656/8692 [=====================>........] - ETA: 0s - loss: 0.0065 - acc: 1.5024e-04
7168/8692 [=======================>......] - ETA: 0s - loss: 0.0064 - acc: 1.3951e-04
7680/8692 [=========================>....] - ETA: 0s - loss: 0.0062 - acc: 1.3021e-04
8192/8692 [===========================>..] - ETA: 0s - loss: 0.0060 - acc: 1.2207e-04
8692/8692 [==============================] - 4s 474us/step - loss: 0.0057 - acc: 1.1505e-04 - val_loss: 0.0011 - val_acc: 0.0000e+00
Epoch 39/50

 512/8692 [>.............................] - ETA: 3s - loss: 0.0029 - acc: 0.0020
1024/8692 [==>...........................] - ETA: 2s - loss: 0.0035 - acc: 9.7656e-04
1536/8692 [====>.........................] - ETA: 2s - loss: 0.0040 - acc: 6.5104e-04
2048/8692 [======>.......................] - ETA: 2s - loss: 0.0047 - acc: 4.8828e-04
2560/8692 [=======>......................] - ETA: 2s - loss: 0.0045 - acc: 3.9063e-04
3072/8692 [=========>....................] - ETA: 2s - loss: 0.0044 - acc: 3.2552e-04
3584/8692 [===========>..................] - ETA: 1s - loss: 0.0043 - acc: 2.7902e-04
4096/8692 [=============>................] - ETA: 1s - loss: 0.0043 - acc: 2.4414e-04
4608/8692 [==============>...............] - ETA: 1s - loss: 0.0047 - acc: 2.1701e-04
5120/8692 [================>.............] - ETA: 1s - loss: 0.0051 - acc: 1.9531e-04
5632/8692 [==================>...........] - ETA: 1s - loss: 0.0058 - acc: 1.7756e-04
6144/8692 [====================>.........] - ETA: 0s - loss: 0.0063 - acc: 1.6276e-04
6656/8692 [=====================>........] - ETA: 0s - loss: 0.0070 - acc: 1.5024e-04
7168/8692 [=======================>......] - ETA: 0s - loss: 0.0082 - acc: 1.3951e-04
7680/8692 [=========================>....] - ETA: 0s - loss: 0.0092 - acc: 1.3021e-04
8192/8692 [===========================>..] - ETA: 0s - loss: 0.0090 - acc: 1.2207e-04
8692/8692 [==============================] - 4s 426us/step - loss: 0.0086 - acc: 1.1505e-04 - val_loss: 0.0013 - val_acc: 0.0000e+00
Epoch 40/50

 512/8692 [>.............................] - ETA: 3s - loss: 0.0178 - acc: 0.0020
1024/8692 [==>...........................] - ETA: 3s - loss: 0.0178 - acc: 9.7656e-04
1536/8692 [====>.........................] - ETA: 2s - loss: 0.0170 - acc: 6.5104e-04
2048/8692 [======>.......................] - ETA: 2s - loss: 0.0158 - acc: 4.8828e-04
2560/8692 [=======>......................] - ETA: 2s - loss: 0.0151 - acc: 3.9063e-04
3072/8692 [=========>....................] - ETA: 2s - loss: 0.0140 - acc: 3.2552e-04
3584/8692 [===========>..................] - ETA: 2s - loss: 0.0128 - acc: 2.7902e-04
4096/8692 [=============>................] - ETA: 1s - loss: 0.0115 - acc: 2.4414e-04
4608/8692 [==============>...............] - ETA: 1s - loss: 0.0105 - acc: 2.1701e-04
5120/8692 [================>.............] - ETA: 1s - loss: 0.0097 - acc: 1.9531e-04
5632/8692 [==================>...........] - ETA: 1s - loss: 0.0102 - acc: 1.7756e-04
6144/8692 [====================>.........] - ETA: 1s - loss: 0.0110 - acc: 1.6276e-04
6656/8692 [=====================>........] - ETA: 0s - loss: 0.0119 - acc: 1.5024e-04
7168/8692 [=======================>......] - ETA: 0s - loss: 0.0116 - acc: 1.3951e-04
7680/8692 [=========================>....] - ETA: 0s - loss: 0.0111 - acc: 1.3021e-04
8192/8692 [===========================>..] - ETA: 0s - loss: 0.0106 - acc: 1.2207e-04
8692/8692 [==============================] - 4s 499us/step - loss: 0.0101 - acc: 1.1505e-04 - val_loss: 0.0015 - val_acc: 0.0000e+00
Epoch 41/50

 512/8692 [>.............................] - ETA: 3s - loss: 0.0027 - acc: 0.0020
1024/8692 [==>...........................] - ETA: 3s - loss: 0.0035 - acc: 9.7656e-04
1536/8692 [====>.........................] - ETA: 2s - loss: 0.0044 - acc: 6.5104e-04
2048/8692 [======>.......................] - ETA: 2s - loss: 0.0055 - acc: 4.8828e-04
2560/8692 [=======>......................] - ETA: 2s - loss: 0.0056 - acc: 3.9063e-04
3072/8692 [=========>....................] - ETA: 2s - loss: 0.0057 - acc: 3.2552e-04
3584/8692 [===========>..................] - ETA: 2s - loss: 0.0059 - acc: 2.7902e-04
4096/8692 [=============>................] - ETA: 1s - loss: 0.0062 - acc: 2.4414e-04
4608/8692 [==============>...............] - ETA: 1s - loss: 0.0072 - acc: 2.1701e-04
5120/8692 [================>.............] - ETA: 1s - loss: 0.0083 - acc: 1.9531e-04
5632/8692 [==================>...........] - ETA: 1s - loss: 0.0092 - acc: 1.7756e-04
6144/8692 [====================>.........] - ETA: 1s - loss: 0.0100 - acc: 1.6276e-04
6656/8692 [=====================>........] - ETA: 0s - loss: 0.0105 - acc: 1.5024e-04
7168/8692 [=======================>......] - ETA: 0s - loss: 0.0114 - acc: 1.3951e-04
7680/8692 [=========================>....] - ETA: 0s - loss: 0.0120 - acc: 1.3021e-04
8192/8692 [===========================>..] - ETA: 0s - loss: 0.0115 - acc: 1.2207e-04
8692/8692 [==============================] - 4s 432us/step - loss: 0.0110 - acc: 1.1505e-04 - val_loss: 8.0489e-04 - val_acc: 0.0000e+00
Epoch 42/50

 512/8692 [>.............................] - ETA: 3s - loss: 0.0118 - acc: 0.0020
1024/8692 [==>...........................] - ETA: 2s - loss: 0.0119 - acc: 9.7656e-04
1536/8692 [====>.........................] - ETA: 2s - loss: 0.0115 - acc: 6.5104e-04
2048/8692 [======>.......................] - ETA: 2s - loss: 0.0108 - acc: 4.8828e-04
2560/8692 [=======>......................] - ETA: 2s - loss: 0.0107 - acc: 3.9063e-04
3072/8692 [=========>....................] - ETA: 2s - loss: 0.0104 - acc: 3.2552e-04
3584/8692 [===========>..................] - ETA: 1s - loss: 0.0096 - acc: 2.7902e-04
4096/8692 [=============>................] - ETA: 1s - loss: 0.0089 - acc: 2.4414e-04
4608/8692 [==============>...............] - ETA: 1s - loss: 0.0082 - acc: 2.1701e-04
5120/8692 [================>.............] - ETA: 1s - loss: 0.0077 - acc: 1.9531e-04
5632/8692 [==================>...........] - ETA: 1s - loss: 0.0084 - acc: 1.7756e-04
6144/8692 [====================>.........] - ETA: 0s - loss: 0.0094 - acc: 1.6276e-04
6656/8692 [=====================>........] - ETA: 0s - loss: 0.0104 - acc: 1.5024e-04
7168/8692 [=======================>......] - ETA: 0s - loss: 0.0102 - acc: 1.3951e-04
7680/8692 [=========================>....] - ETA: 0s - loss: 0.0098 - acc: 1.3021e-04
8192/8692 [===========================>..] - ETA: 0s - loss: 0.0094 - acc: 1.2207e-04
8692/8692 [==============================] - 4s 426us/step - loss: 0.0089 - acc: 1.1505e-04 - val_loss: 6.5082e-04 - val_acc: 0.0000e+00
Epoch 43/50

 512/8692 [>.............................] - ETA: 3s - loss: 7.8572e-05 - acc: 0.0020
1024/8692 [==>...........................] - ETA: 3s - loss: 1.7085e-04 - acc: 9.7656e-04
1536/8692 [====>.........................] - ETA: 2s - loss: 4.3620e-04 - acc: 6.5104e-04
2048/8692 [======>.......................] - ETA: 2s - loss: 9.5342e-04 - acc: 4.8828e-04
2560/8692 [=======>......................] - ETA: 2s - loss: 0.0010 - acc: 3.9063e-04    
3072/8692 [=========>....................] - ETA: 2s - loss: 0.0012 - acc: 3.2552e-04
3584/8692 [===========>..................] - ETA: 2s - loss: 0.0016 - acc: 2.7902e-04
4096/8692 [=============>................] - ETA: 1s - loss: 0.0020 - acc: 2.4414e-04
4608/8692 [==============>...............] - ETA: 1s - loss: 0.0032 - acc: 2.1701e-04
5120/8692 [================>.............] - ETA: 1s - loss: 0.0045 - acc: 1.9531e-04
5632/8692 [==================>...........] - ETA: 1s - loss: 0.0057 - acc: 1.7756e-04
6144/8692 [====================>.........] - ETA: 1s - loss: 0.0066 - acc: 1.6276e-04
6656/8692 [=====================>........] - ETA: 0s - loss: 0.0072 - acc: 1.5024e-04
7168/8692 [=======================>......] - ETA: 0s - loss: 0.0083 - acc: 1.3951e-04
7680/8692 [=========================>....] - ETA: 0s - loss: 0.0092 - acc: 1.3021e-04
8192/8692 [===========================>..] - ETA: 0s - loss: 0.0089 - acc: 1.2207e-04
8692/8692 [==============================] - 4s 449us/step - loss: 0.0085 - acc: 1.1505e-04 - val_loss: 3.9338e-04 - val_acc: 0.0000e+00
Epoch 44/50

 512/8692 [>.............................] - ETA: 3s - loss: 0.0044 - acc: 0.0020
1024/8692 [==>...........................] - ETA: 2s - loss: 0.0044 - acc: 9.7656e-04
1536/8692 [====>.........................] - ETA: 2s - loss: 0.0041 - acc: 6.5104e-04
2048/8692 [======>.......................] - ETA: 2s - loss: 0.0037 - acc: 4.8828e-04
2560/8692 [=======>......................] - ETA: 2s - loss: 0.0037 - acc: 3.9063e-04
3072/8692 [=========>....................] - ETA: 2s - loss: 0.0036 - acc: 3.2552e-04
3584/8692 [===========>..................] - ETA: 2s - loss: 0.0034 - acc: 2.7902e-04
4096/8692 [=============>................] - ETA: 1s - loss: 0.0031 - acc: 2.4414e-04
4608/8692 [==============>...............] - ETA: 1s - loss: 0.0029 - acc: 2.1701e-04
5120/8692 [================>.............] - ETA: 1s - loss: 0.0028 - acc: 1.9531e-04
5632/8692 [==================>...........] - ETA: 1s - loss: 0.0038 - acc: 1.7756e-04
6144/8692 [====================>.........] - ETA: 1s - loss: 0.0052 - acc: 1.6276e-04
6656/8692 [=====================>........] - ETA: 0s - loss: 0.0065 - acc: 1.5024e-04
7168/8692 [=======================>......] - ETA: 0s - loss: 0.0066 - acc: 1.3951e-04
7680/8692 [=========================>....] - ETA: 0s - loss: 0.0065 - acc: 1.3021e-04
8192/8692 [===========================>..] - ETA: 0s - loss: 0.0064 - acc: 1.2207e-04
8692/8692 [==============================] - 4s 440us/step - loss: 0.0061 - acc: 1.1505e-04 - val_loss: 8.6461e-04 - val_acc: 0.0000e+00
Epoch 45/50

 512/8692 [>.............................] - ETA: 3s - loss: 4.4570e-04 - acc: 0.0020
1024/8692 [==>...........................] - ETA: 3s - loss: 2.9499e-04 - acc: 9.7656e-04
1536/8692 [====>.........................] - ETA: 2s - loss: 2.6154e-04 - acc: 6.5104e-04
2048/8692 [======>.......................] - ETA: 2s - loss: 4.0131e-04 - acc: 4.8828e-04
2560/8692 [=======>......................] - ETA: 2s - loss: 3.8397e-04 - acc: 3.9063e-04
3072/8692 [=========>....................] - ETA: 2s - loss: 4.2784e-04 - acc: 3.2552e-04
3584/8692 [===========>..................] - ETA: 2s - loss: 6.2694e-04 - acc: 2.7902e-04
4096/8692 [=============>................] - ETA: 1s - loss: 8.8816e-04 - acc: 2.4414e-04
4608/8692 [==============>...............] - ETA: 1s - loss: 0.0018 - acc: 2.1701e-04    
5120/8692 [================>.............] - ETA: 1s - loss: 0.0028 - acc: 1.9531e-04
5632/8692 [==================>...........] - ETA: 1s - loss: 0.0038 - acc: 1.7756e-04
6144/8692 [====================>.........] - ETA: 1s - loss: 0.0045 - acc: 1.6276e-04
6656/8692 [=====================>........] - ETA: 0s - loss: 0.0050 - acc: 1.5024e-04
7168/8692 [=======================>......] - ETA: 0s - loss: 0.0062 - acc: 1.3951e-04
7680/8692 [=========================>....] - ETA: 0s - loss: 0.0072 - acc: 1.3021e-04
8192/8692 [===========================>..] - ETA: 0s - loss: 0.0070 - acc: 1.2207e-04
8692/8692 [==============================] - 4s 437us/step - loss: 0.0067 - acc: 1.1505e-04 - val_loss: 3.5718e-04 - val_acc: 0.0000e+00
Epoch 46/50

 512/8692 [>.............................] - ETA: 3s - loss: 0.0036 - acc: 0.0020
1024/8692 [==>...........................] - ETA: 2s - loss: 0.0035 - acc: 9.7656e-04
1536/8692 [====>.........................] - ETA: 2s - loss: 0.0032 - acc: 6.5104e-04
2048/8692 [======>.......................] - ETA: 2s - loss: 0.0028 - acc: 4.8828e-04
2560/8692 [=======>......................] - ETA: 2s - loss: 0.0028 - acc: 3.9063e-04
3072/8692 [=========>....................] - ETA: 2s - loss: 0.0027 - acc: 3.2552e-04
3584/8692 [===========>..................] - ETA: 2s - loss: 0.0025 - acc: 2.7902e-04
4096/8692 [=============>................] - ETA: 1s - loss: 0.0022 - acc: 2.4414e-04
4608/8692 [==============>...............] - ETA: 1s - loss: 0.0020 - acc: 2.1701e-04
5120/8692 [================>.............] - ETA: 1s - loss: 0.0019 - acc: 1.9531e-04
5632/8692 [==================>...........] - ETA: 1s - loss: 0.0027 - acc: 1.7756e-04
6144/8692 [====================>.........] - ETA: 1s - loss: 0.0038 - acc: 1.6276e-04
6656/8692 [=====================>........] - ETA: 0s - loss: 0.0049 - acc: 1.5024e-04
7168/8692 [=======================>......] - ETA: 0s - loss: 0.0051 - acc: 1.3951e-04
7680/8692 [=========================>....] - ETA: 0s - loss: 0.0050 - acc: 1.3021e-04
8192/8692 [===========================>..] - ETA: 0s - loss: 0.0050 - acc: 1.2207e-04
8692/8692 [==============================] - 4s 439us/step - loss: 0.0048 - acc: 1.1505e-04 - val_loss: 0.0012 - val_acc: 0.0000e+00
Epoch 47/50

 512/8692 [>.............................] - ETA: 3s - loss: 4.7189e-04 - acc: 0.0020
1024/8692 [==>...........................] - ETA: 3s - loss: 3.2724e-04 - acc: 9.7656e-04
1536/8692 [====>.........................] - ETA: 2s - loss: 2.7457e-04 - acc: 6.5104e-04
2048/8692 [======>.......................] - ETA: 2s - loss: 3.7869e-04 - acc: 4.8828e-04
2560/8692 [=======>......................] - ETA: 2s - loss: 3.5327e-04 - acc: 3.9063e-04
3072/8692 [=========>....................] - ETA: 2s - loss: 3.7083e-04 - acc: 3.2552e-04
3584/8692 [===========>..................] - ETA: 2s - loss: 5.3392e-04 - acc: 2.7902e-04
4096/8692 [=============>................] - ETA: 1s - loss: 7.4210e-04 - acc: 2.4414e-04
4608/8692 [==============>...............] - ETA: 1s - loss: 0.0014 - acc: 2.1701e-04    
5120/8692 [================>.............] - ETA: 1s - loss: 0.0023 - acc: 1.9531e-04
5632/8692 [==================>...........] - ETA: 1s - loss: 0.0029 - acc: 1.7756e-04
6144/8692 [====================>.........] - ETA: 1s - loss: 0.0034 - acc: 1.6276e-04
6656/8692 [=====================>........] - ETA: 0s - loss: 0.0037 - acc: 1.5024e-04
7168/8692 [=======================>......] - ETA: 0s - loss: 0.0046 - acc: 1.3951e-04
7680/8692 [=========================>....] - ETA: 0s - loss: 0.0054 - acc: 1.3021e-04
8192/8692 [===========================>..] - ETA: 0s - loss: 0.0053 - acc: 1.2207e-04
8692/8692 [==============================] - 4s 429us/step - loss: 0.0051 - acc: 1.1505e-04 - val_loss: 3.9778e-04 - val_acc: 0.0000e+00
Epoch 48/50

 512/8692 [>.............................] - ETA: 3s - loss: 0.0031 - acc: 0.0020
1024/8692 [==>...........................] - ETA: 3s - loss: 0.0030 - acc: 9.7656e-04
1536/8692 [====>.........................] - ETA: 2s - loss: 0.0027 - acc: 6.5104e-04
2048/8692 [======>.......................] - ETA: 2s - loss: 0.0023 - acc: 4.8828e-04
2560/8692 [=======>......................] - ETA: 2s - loss: 0.0023 - acc: 3.9063e-04
3072/8692 [=========>....................] - ETA: 2s - loss: 0.0021 - acc: 3.2552e-04
3584/8692 [===========>..................] - ETA: 2s - loss: 0.0020 - acc: 2.7902e-04
4096/8692 [=============>................] - ETA: 1s - loss: 0.0018 - acc: 2.4414e-04
4608/8692 [==============>...............] - ETA: 1s - loss: 0.0016 - acc: 2.1701e-04
5120/8692 [================>.............] - ETA: 1s - loss: 0.0015 - acc: 1.9531e-04
5632/8692 [==================>...........] - ETA: 1s - loss: 0.0020 - acc: 1.7756e-04
6144/8692 [====================>.........] - ETA: 1s - loss: 0.0027 - acc: 1.6276e-04
6656/8692 [=====================>........] - ETA: 0s - loss: 0.0036 - acc: 1.5024e-04
7168/8692 [=======================>......] - ETA: 0s - loss: 0.0037 - acc: 1.3951e-04
7680/8692 [=========================>....] - ETA: 0s - loss: 0.0037 - acc: 1.3021e-04
8192/8692 [===========================>..] - ETA: 0s - loss: 0.0038 - acc: 1.2207e-04
8692/8692 [==============================] - 4s 440us/step - loss: 0.0037 - acc: 1.1505e-04 - val_loss: 0.0013 - val_acc: 0.0000e+00
Epoch 49/50

 512/8692 [>.............................] - ETA: 3s - loss: 5.4435e-04 - acc: 0.0020
1024/8692 [==>...........................] - ETA: 3s - loss: 3.8363e-04 - acc: 9.7656e-04
1536/8692 [====>.........................] - ETA: 2s - loss: 3.0715e-04 - acc: 6.5104e-04
2048/8692 [======>.......................] - ETA: 2s - loss: 3.6892e-04 - acc: 4.8828e-04
2560/8692 [=======>......................] - ETA: 2s - loss: 3.2807e-04 - acc: 3.9063e-04
3072/8692 [=========>....................] - ETA: 2s - loss: 3.3210e-04 - acc: 3.2552e-04
3584/8692 [===========>..................] - ETA: 2s - loss: 4.5597e-04 - acc: 2.7902e-04
4096/8692 [=============>................] - ETA: 1s - loss: 6.2126e-04 - acc: 2.4414e-04
4608/8692 [==============>...............] - ETA: 1s - loss: 0.0012 - acc: 2.1701e-04    
5120/8692 [================>.............] - ETA: 1s - loss: 0.0018 - acc: 1.9531e-04
5632/8692 [==================>...........] - ETA: 1s - loss: 0.0022 - acc: 1.7756e-04
6144/8692 [====================>.........] - ETA: 1s - loss: 0.0025 - acc: 1.6276e-04
6656/8692 [=====================>........] - ETA: 0s - loss: 0.0026 - acc: 1.5024e-04
7168/8692 [=======================>......] - ETA: 0s - loss: 0.0033 - acc: 1.3951e-04
7680/8692 [=========================>....] - ETA: 0s - loss: 0.0040 - acc: 1.3021e-04
8192/8692 [===========================>..] - ETA: 0s - loss: 0.0039 - acc: 1.2207e-04
8692/8692 [==============================] - 4s 450us/step - loss: 0.0037 - acc: 1.1505e-04 - val_loss: 4.6900e-04 - val_acc: 0.0000e+00
Epoch 50/50

 512/8692 [>.............................] - ETA: 3s - loss: 0.0027 - acc: 0.0020
1024/8692 [==>...........................] - ETA: 3s - loss: 0.0026 - acc: 9.7656e-04
1536/8692 [====>.........................] - ETA: 2s - loss: 0.0023 - acc: 6.5104e-04
2048/8692 [======>.......................] - ETA: 2s - loss: 0.0020 - acc: 4.8828e-04
2560/8692 [=======>......................] - ETA: 2s - loss: 0.0019 - acc: 3.9063e-04
3072/8692 [=========>....................] - ETA: 2s - loss: 0.0018 - acc: 3.2552e-04
3584/8692 [===========>..................] - ETA: 2s - loss: 0.0016 - acc: 2.7902e-04
4096/8692 [=============>................] - ETA: 1s - loss: 0.0014 - acc: 2.4414e-04
4608/8692 [==============>...............] - ETA: 1s - loss: 0.0013 - acc: 2.1701e-04
5120/8692 [================>.............] - ETA: 1s - loss: 0.0012 - acc: 1.9531e-04
5632/8692 [==================>...........] - ETA: 1s - loss: 0.0015 - acc: 1.7756e-04
6144/8692 [====================>.........] - ETA: 1s - loss: 0.0020 - acc: 1.6276e-04
6656/8692 [=====================>........] - ETA: 0s - loss: 0.0026 - acc: 1.5024e-04
7168/8692 [=======================>......] - ETA: 0s - loss: 0.0028 - acc: 1.3951e-04
7680/8692 [=========================>....] - ETA: 0s - loss: 0.0028 - acc: 1.3021e-04
8192/8692 [===========================>..] - ETA: 0s - loss: 0.0028 - acc: 1.2207e-04
8692/8692 [==============================] - 4s 459us/step - loss: 0.0028 - acc: 1.1505e-04 - val_loss: 0.0013 - val_acc: 0.0000e+00

   32/10866 [..............................] - ETA: 6s
  128/10866 [..............................] - ETA: 6s
  256/10866 [..............................] - ETA: 5s
  416/10866 [>.............................] - ETA: 4s
  576/10866 [>.............................] - ETA: 4s
  768/10866 [=>............................] - ETA: 3s
  992/10866 [=>............................] - ETA: 3s
 1184/10866 [==>...........................] - ETA: 3s
 1376/10866 [==>...........................] - ETA: 3s
 1568/10866 [===>..........................] - ETA: 3s
 1728/10866 [===>..........................] - ETA: 3s
 1888/10866 [====>.........................] - ETA: 3s
 2016/10866 [====>.........................] - ETA: 3s
 2112/10866 [====>.........................] - ETA: 3s
 2208/10866 [=====>........................] - ETA: 3s
 2368/10866 [=====>........................] - ETA: 3s
 2496/10866 [=====>........................] - ETA: 3s
 2624/10866 [======>.......................] - ETA: 3s
 2784/10866 [======>.......................] - ETA: 3s
 2912/10866 [=======>......................] - ETA: 2s
 3040/10866 [=======>......................] - ETA: 2s
 3200/10866 [=======>......................] - ETA: 2s
 3328/10866 [========>.....................] - ETA: 2s
 3488/10866 [========>.....................] - ETA: 2s
 3648/10866 [=========>....................] - ETA: 2s
 3776/10866 [=========>....................] - ETA: 2s
 3840/10866 [=========>....................] - ETA: 2s
 3968/10866 [=========>....................] - ETA: 2s
 4160/10866 [==========>...................] - ETA: 2s
 4352/10866 [===========>..................] - ETA: 2s
 4544/10866 [===========>..................] - ETA: 2s
 4768/10866 [============>.................] - ETA: 2s
 4960/10866 [============>.................] - ETA: 2s
 5120/10866 [=============>................] - ETA: 2s
 5344/10866 [=============>................] - ETA: 1s
 5568/10866 [==============>...............] - ETA: 1s
 5760/10866 [==============>...............] - ETA: 1s
 5952/10866 [===============>..............] - ETA: 1s
 6176/10866 [================>.............] - ETA: 1s
 6336/10866 [================>.............] - ETA: 1s
 6528/10866 [=================>............] - ETA: 1s
 6656/10866 [=================>............] - ETA: 1s
 6880/10866 [=================>............] - ETA: 1s
 7072/10866 [==================>...........] - ETA: 1s
 7296/10866 [===================>..........] - ETA: 1s
 7488/10866 [===================>..........] - ETA: 1s
 7648/10866 [====================>.........] - ETA: 1s
 7808/10866 [====================>.........] - ETA: 1s
 8000/10866 [=====================>........] - ETA: 0s
 8160/10866 [=====================>........] - ETA: 0s
 8352/10866 [======================>.......] - ETA: 0s
 8544/10866 [======================>.......] - ETA: 0s
 8704/10866 [=======================>......] - ETA: 0s
 8864/10866 [=======================>......] - ETA: 0s
 9056/10866 [========================>.....] - ETA: 0s
 9216/10866 [========================>.....] - ETA: 0s
 9376/10866 [========================>.....] - ETA: 0s
 9536/10866 [=========================>....] - ETA: 0s
 9728/10866 [=========================>....] - ETA: 0s
 9888/10866 [==========================>...] - ETA: 0s
10080/10866 [==========================>...] - ETA: 0s
10272/10866 [===========================>..] - ETA: 0s
10432/10866 [===========================>..] - ETA: 0s
10624/10866 [============================>.] - ETA: 0s
10848/10866 [============================>.] - ETA: 0s
10866/10866 [==============================] - 4s 333us/step
Train Score: 0.00096 MSE (0.03 RMSE)

  32/1207 [..............................] - ETA: 0s
 192/1207 [===>..........................] - ETA: 0s
 384/1207 [========>.....................] - ETA: 0s
 576/1207 [=============>................] - ETA: 0s
 768/1207 [==================>...........] - ETA: 0s
 992/1207 [=======================>......] - ETA: 0s
1207/1207 [==============================] - 0s 281us/step
Test Score: 0.02881 MSE (0.17 RMSE)

HyperparametersArray:-
 ['/home/uttam/uttam/FYP/Data/Data/Stocks/', 'ip.us.txt', 0.9, 0.3, 3, 256, 32, 'sigmoid', 'linear', 'mse', 'adam', [['accuracy']], 'uniform', 1, 512, 50, 0.2]

trainmset,trainrmset,testmset,testrmset:-
 0.000963025426558 0.031032650975353182 0.0288130639193 0.16974411306241724
