                Open      High       Low    Volume  adj close
Date                                                         
1970-01-02  0.010584  0.010391  0.011090  0.000228   0.010700
1970-01-05  0.010584  0.010186  0.010644  0.000258   0.010481
1970-01-06  0.010368  0.009974  0.010434  0.000922   0.010054
1970-01-07  0.009946  0.009560  0.010434  0.000734   0.010054
1970-01-08  0.009946  0.009560  0.010222  0.000575   0.009846
1970-01-09  0.009740  0.009358  0.009995  0.000624   0.009623
1970-01-12  0.009519  0.009141  0.009782  0.000813   0.009414
1970-01-13  0.009312  0.009141  0.009782  0.000585   0.009623
1970-01-14  0.009519  0.009141  0.009782  0.000575   0.009414
1970-01-15  0.009312  0.009141  0.009782  0.000793   0.009623
1970-01-16  0.009519  0.009141  0.009782  0.000912   0.009623
1970-01-19  0.009519  0.009141  0.009782  0.000942   0.009414
1970-01-20  0.009312  0.009141  0.009782  0.000198   0.009623
1970-01-21  0.009519  0.009560  0.009995  0.000327   0.010054
1970-01-22  0.009946  0.010186  0.010434  0.001834   0.010261
1970-01-23  0.010150  0.009761  0.010222  0.000347   0.009846
1970-01-26  0.009519  0.009141  0.009565  0.000862   0.009414
1970-01-27  0.009312  0.009141  0.009340  0.000377   0.008978
1970-01-28  0.008881  0.008730  0.009340  0.001140   0.008978
1970-01-29  0.008881  0.008515  0.008913  0.001417   0.008559
1970-01-30  0.008467  0.008313  0.008913  0.000406   0.008559
1970-02-02  0.008675  0.008515  0.009127  0.000436   0.008769
1970-02-03  0.008675  0.008730  0.009127  0.000981   0.009200
1970-02-04  0.009100  0.008730  0.009127  0.002369   0.008978
1970-02-05  0.008881  0.008515  0.009127  0.000426   0.008769
1970-02-06  0.008675  0.008313  0.009127  0.000426   0.008769
1970-02-09  0.008881  0.008730  0.009340  0.000317   0.009200
1970-02-10  0.009100  0.008730  0.009340  0.000198   0.008978
1970-02-11  0.008881  0.009358  0.009340  0.000406   0.009846
1970-02-12  0.009740  0.009358  0.009995  0.001239   0.009623
...              ...       ...       ...       ...        ...
2017-10-02  0.457828  0.465026  0.470698  0.034859   0.475327
2017-10-03  0.473435  0.468010  0.481429  0.028539   0.482088
2017-10-04  0.476475  0.477657  0.484659  0.035566   0.477990
2017-10-05  0.474549  0.471981  0.483617  0.027523   0.481473
2017-10-06  0.472624  0.463634  0.479971  0.034179   0.473687
2017-10-09  0.469989  0.461943  0.472469  0.019280   0.469385
2017-10-10  0.466442  0.459258  0.472469  0.030860   0.467541
2017-10-11  0.460767  0.454782  0.468614  0.023525   0.468053
2017-10-12  0.463098  0.462440  0.474761  0.026108   0.474097
2017-10-13  0.476982  0.470993  0.483096  0.028250   0.475941
2017-10-16  0.473739  0.473977  0.481846  0.040359   0.481371
2017-10-17  0.480326  0.471889  0.481221  0.034127   0.476556
2017-10-18  0.467456  0.463137  0.471740  0.040398   0.476351
2017-10-19  0.458538  0.462142  0.466530  0.052027   0.463955
2017-10-20  0.464821  0.466021  0.477470  0.036293   0.478195
2017-10-23  0.474144  0.470297  0.485493  0.034667   0.478195
2017-10-24  0.475056  0.487702  0.487889  0.057797   0.500221
2017-10-25  0.491271  0.483425  0.492578  0.028009   0.494484
2017-10-26  0.489142  0.481934  0.492682  0.029909   0.490694
2017-10-27  0.470800  0.467214  0.476949  0.033375   0.477990
2017-10-30  0.471712  0.468507  0.480700  0.017869   0.472970
2017-10-31  0.465530  0.465424  0.470385  0.023469   0.476658
2017-11-01  0.482961  0.477359  0.481533  0.027379   0.475839
2017-11-02  0.470496  0.462412  0.477574  0.017756   0.473380
2017-11-03  0.466138  0.459059  0.473823  0.015859   0.469897
2017-11-06  0.465631  0.461545  0.471948  0.014881   0.471639
2017-11-07  0.464719  0.456813  0.472052  0.018699   0.468360
2017-11-08  0.460868  0.452495  0.459862  0.028871   0.457296
2017-11-09  0.440398  0.432007  0.436315  0.066158   0.431069
2017-11-10  0.422359  0.429521  0.432565  0.038494   0.427791

[12074 rows x 5 columns]
[[  1.05840052e-02   1.03911604e-02   1.10899028e-02   2.27980593e-04
    1.06995919e-02]
 [  1.05840052e-02   1.01862810e-02   1.06439729e-02   2.57731814e-04
    1.04813792e-02]
 [  1.03681499e-02   9.97443981e-03   1.04335106e-02   9.21856692e-04
    1.00541741e-02]
 ..., 
 [  4.60868367e-01   4.52494853e-01   4.59862137e-01   2.88710166e-02
    4.57295884e-01]
 [  4.40397579e-01   4.32006922e-01   4.36315368e-01   6.61581795e-02
    4.31069385e-01]
 [  4.22358964e-01   4.29520523e-01   4.32564556e-01   3.84941053e-02
    4.27791073e-01]]
10867
[[ 0.01058401  0.01039116  0.0110899   0.00022798  0.01069959]
 [ 0.01058401  0.01018628  0.01064397  0.00025773  0.01048138]
 [ 0.01036815  0.00997444  0.01043351  0.00092186  0.01005417]
 ..., 
 [ 0.1831041   0.179707    0.18691758  0.05279117  0.18423296]
 [ 0.1831041   0.17991586  0.1840107   0.06566254  0.18139517]
 [ 0.18028683  0.17737973  0.18423992  0.04513326  0.18095464]]
[[ 0.01058401  0.01039116  0.0110899   0.00022798  0.01069959]
 [ 0.01058401  0.01018628  0.01064397  0.00025773  0.01048138]
 [ 0.01036815  0.00997444  0.01043351  0.00092186  0.01005417]
 ..., 
 [ 0.18482689  0.18225308  0.18712596  0.05450489  0.1844481 ]
 [ 0.1831041   0.179707    0.18691758  0.05279117  0.18423296]
 [ 0.1831041   0.17991586  0.1840107   0.06566254  0.18139517]]
[ 0.01048138  0.01005417  0.01005417 ...,  0.18423296  0.18139517
  0.18095464]
Compilation Time :  0.018407106399536133
Train on 8692 samples, validate on 2174 samples
Epoch 1/50

 512/8692 [>.............................] - ETA: 2s - loss: 0.0417 - acc: 0.0039
2048/8692 [======>.......................] - ETA: 0s - loss: 0.0262 - acc: 9.7656e-04
3584/8692 [===========>..................] - ETA: 0s - loss: 0.0218 - acc: 5.5804e-04
5120/8692 [================>.............] - ETA: 0s - loss: 0.0161 - acc: 3.9063e-04
6656/8692 [=====================>........] - ETA: 0s - loss: 0.0135 - acc: 3.0048e-04
8192/8692 [===========================>..] - ETA: 0s - loss: 0.0288 - acc: 2.4414e-04
8692/8692 [==============================] - 0s 57us/step - loss: 0.0280 - acc: 2.3010e-04 - val_loss: 0.1228 - val_acc: 4.5998e-04
Epoch 2/50

 512/8692 [>.............................] - ETA: 0s - loss: 0.5042 - acc: 0.0000e+00
2048/8692 [======>.......................] - ETA: 0s - loss: 0.3703 - acc: 0.0000e+00
3584/8692 [===========>..................] - ETA: 0s - loss: 0.2226 - acc: 0.0000e+00
5120/8692 [================>.............] - ETA: 0s - loss: 0.2044 - acc: 0.0000e+00
6656/8692 [=====================>........] - ETA: 0s - loss: 0.1983 - acc: 0.0000e+00
8192/8692 [===========================>..] - ETA: 0s - loss: 0.2001 - acc: 0.0000e+00
8692/8692 [==============================] - 0s 39us/step - loss: 0.1909 - acc: 0.0000e+00 - val_loss: 0.0675 - val_acc: 4.5998e-04
Epoch 3/50

 512/8692 [>.............................] - ETA: 0s - loss: 0.3182 - acc: 0.0000e+00
2048/8692 [======>.......................] - ETA: 0s - loss: 0.4202 - acc: 0.0000e+00
3584/8692 [===========>..................] - ETA: 0s - loss: 0.3516 - acc: 0.0000e+00
5120/8692 [================>.............] - ETA: 0s - loss: 0.2551 - acc: 0.0000e+00
6656/8692 [=====================>........] - ETA: 0s - loss: 0.2120 - acc: 0.0000e+00
8192/8692 [===========================>..] - ETA: 0s - loss: 0.2702 - acc: 0.0000e+00
8692/8692 [==============================] - 0s 38us/step - loss: 0.2797 - acc: 0.0000e+00 - val_loss: 0.2508 - val_acc: 0.0000e+00
Epoch 4/50

 512/8692 [>.............................] - ETA: 0s - loss: 1.0953e-05 - acc: 0.0039
2048/8692 [======>.......................] - ETA: 0s - loss: 0.0157 - acc: 9.7656e-04
3584/8692 [===========>..................] - ETA: 0s - loss: 0.0334 - acc: 5.5804e-04
5120/8692 [================>.............] - ETA: 0s - loss: 0.0354 - acc: 3.9063e-04
6656/8692 [=====================>........] - ETA: 0s - loss: 0.0286 - acc: 3.0048e-04
8192/8692 [===========================>..] - ETA: 0s - loss: 0.0569 - acc: 2.4414e-04
8692/8692 [==============================] - 0s 38us/step - loss: 0.0628 - acc: 2.3010e-04 - val_loss: 0.1019 - val_acc: 0.0000e+00
Epoch 5/50

 512/8692 [>.............................] - ETA: 0s - loss: 0.0508 - acc: 0.0039
2048/8692 [======>.......................] - ETA: 0s - loss: 0.0640 - acc: 9.7656e-04
3584/8692 [===========>..................] - ETA: 0s - loss: 0.0572 - acc: 5.5804e-04
5120/8692 [================>.............] - ETA: 0s - loss: 0.0427 - acc: 3.9063e-04
6656/8692 [=====================>........] - ETA: 0s - loss: 0.0364 - acc: 3.0048e-04
8192/8692 [===========================>..] - ETA: 0s - loss: 0.0815 - acc: 2.4414e-04
8692/8692 [==============================] - 0s 37us/step - loss: 0.0897 - acc: 2.3010e-04 - val_loss: 0.1274 - val_acc: 0.0000e+00
Epoch 6/50

 512/8692 [>.............................] - ETA: 0s - loss: 0.0298 - acc: 0.0039
2048/8692 [======>.......................] - ETA: 0s - loss: 0.0564 - acc: 9.7656e-04
3584/8692 [===========>..................] - ETA: 0s - loss: 0.0620 - acc: 5.5804e-04
5120/8692 [================>.............] - ETA: 0s - loss: 0.0504 - acc: 3.9063e-04
6656/8692 [=====================>........] - ETA: 0s - loss: 0.0404 - acc: 3.0048e-04
8192/8692 [===========================>..] - ETA: 0s - loss: 0.0797 - acc: 2.4414e-04
8692/8692 [==============================] - 0s 37us/step - loss: 0.0874 - acc: 2.3010e-04 - val_loss: 0.1263 - val_acc: 0.0000e+00
Epoch 7/50

 512/8692 [>.............................] - ETA: 0s - loss: 0.0302 - acc: 0.0039
2048/8692 [======>.......................] - ETA: 0s - loss: 0.0512 - acc: 9.7656e-04
3584/8692 [===========>..................] - ETA: 0s - loss: 0.0532 - acc: 5.5804e-04
5120/8692 [================>.............] - ETA: 0s - loss: 0.0421 - acc: 3.9063e-04
6656/8692 [=====================>........] - ETA: 0s - loss: 0.0344 - acc: 3.0048e-04
8192/8692 [===========================>..] - ETA: 0s - loss: 0.0752 - acc: 2.4414e-04
8692/8692 [==============================] - 0s 38us/step - loss: 0.0829 - acc: 2.3010e-04 - val_loss: 0.1212 - val_acc: 0.0000e+00
Epoch 8/50

 512/8692 [>.............................] - ETA: 0s - loss: 0.0333 - acc: 0.0039
2048/8692 [======>.......................] - ETA: 0s - loss: 0.0570 - acc: 9.7656e-04
3584/8692 [===========>..................] - ETA: 0s - loss: 0.0595 - acc: 5.5804e-04
5120/8692 [================>.............] - ETA: 0s - loss: 0.0472 - acc: 3.9063e-04
6656/8692 [=====================>........] - ETA: 0s - loss: 0.0383 - acc: 3.0048e-04
8192/8692 [===========================>..] - ETA: 0s - loss: 0.0790 - acc: 2.4414e-04
8692/8692 [==============================] - 0s 39us/step - loss: 0.0867 - acc: 2.3010e-04 - val_loss: 0.1244 - val_acc: 0.0000e+00
Epoch 9/50

 512/8692 [>.............................] - ETA: 0s - loss: 0.0307 - acc: 0.0039
2048/8692 [======>.......................] - ETA: 0s - loss: 0.0537 - acc: 9.7656e-04
3584/8692 [===========>..................] - ETA: 0s - loss: 0.0565 - acc: 5.5804e-04
5120/8692 [================>.............] - ETA: 0s - loss: 0.0449 - acc: 3.9063e-04
6656/8692 [=====================>........] - ETA: 0s - loss: 0.0365 - acc: 3.0048e-04
8192/8692 [===========================>..] - ETA: 0s - loss: 0.0768 - acc: 2.4414e-04
8692/8692 [==============================] - 0s 39us/step - loss: 0.0845 - acc: 2.3010e-04 - val_loss: 0.1223 - val_acc: 0.0000e+00
Epoch 10/50

 512/8692 [>.............................] - ETA: 0s - loss: 0.0317 - acc: 0.0039
2048/8692 [======>.......................] - ETA: 0s - loss: 0.0546 - acc: 9.7656e-04
3584/8692 [===========>..................] - ETA: 0s - loss: 0.0572 - acc: 5.5804e-04
5120/8692 [================>.............] - ETA: 0s - loss: 0.0454 - acc: 3.9063e-04
6656/8692 [=====================>........] - ETA: 0s - loss: 0.0369 - acc: 3.0048e-04
8192/8692 [===========================>..] - ETA: 0s - loss: 0.0771 - acc: 2.4414e-04
8692/8692 [==============================] - 0s 38us/step - loss: 0.0848 - acc: 2.3010e-04 - val_loss: 0.1225 - val_acc: 0.0000e+00
Epoch 11/50

 512/8692 [>.............................] - ETA: 0s - loss: 0.0312 - acc: 0.0039
2048/8692 [======>.......................] - ETA: 0s - loss: 0.0539 - acc: 9.7656e-04
3584/8692 [===========>..................] - ETA: 0s - loss: 0.0566 - acc: 5.5804e-04
5120/8692 [================>.............] - ETA: 0s - loss: 0.0450 - acc: 3.9063e-04
6656/8692 [=====================>........] - ETA: 0s - loss: 0.0365 - acc: 3.0048e-04
8192/8692 [===========================>..] - ETA: 0s - loss: 0.0764 - acc: 2.4414e-04
8692/8692 [==============================] - 0s 38us/step - loss: 0.0841 - acc: 2.3010e-04 - val_loss: 0.1217 - val_acc: 0.0000e+00
Epoch 12/50

 512/8692 [>.............................] - ETA: 0s - loss: 0.0312 - acc: 0.0039
2048/8692 [======>.......................] - ETA: 0s - loss: 0.0537 - acc: 9.7656e-04
3584/8692 [===========>..................] - ETA: 0s - loss: 0.0563 - acc: 5.5804e-04
5120/8692 [================>.............] - ETA: 0s - loss: 0.0447 - acc: 3.9063e-04
6656/8692 [=====================>........] - ETA: 0s - loss: 0.0363 - acc: 3.0048e-04
8192/8692 [===========================>..] - ETA: 0s - loss: 0.0760 - acc: 2.4414e-04
8692/8692 [==============================] - 0s 39us/step - loss: 0.0836 - acc: 2.3010e-04 - val_loss: 0.1211 - val_acc: 0.0000e+00
Epoch 13/50

 512/8692 [>.............................] - ETA: 0s - loss: 0.0310 - acc: 0.0039
2048/8692 [======>.......................] - ETA: 0s - loss: 0.0533 - acc: 9.7656e-04
3584/8692 [===========>..................] - ETA: 0s - loss: 0.0558 - acc: 5.5804e-04
5120/8692 [================>.............] - ETA: 0s - loss: 0.0444 - acc: 3.9063e-04
6656/8692 [=====================>........] - ETA: 0s - loss: 0.0360 - acc: 3.0048e-04
8192/8692 [===========================>..] - ETA: 0s - loss: 0.0754 - acc: 2.4414e-04
8692/8692 [==============================] - 0s 38us/step - loss: 0.0830 - acc: 2.3010e-04 - val_loss: 0.1203 - val_acc: 0.0000e+00
Epoch 14/50

 512/8692 [>.............................] - ETA: 0s - loss: 0.0308 - acc: 0.0039
2048/8692 [======>.......................] - ETA: 0s - loss: 0.0529 - acc: 9.7656e-04
3584/8692 [===========>..................] - ETA: 0s - loss: 0.0554 - acc: 5.5804e-04
5120/8692 [================>.............] - ETA: 0s - loss: 0.0441 - acc: 3.9063e-04
6656/8692 [=====================>........] - ETA: 0s - loss: 0.0357 - acc: 3.0048e-04
8192/8692 [===========================>..] - ETA: 0s - loss: 0.0749 - acc: 2.4414e-04
8692/8692 [==============================] - 0s 39us/step - loss: 0.0823 - acc: 2.3010e-04 - val_loss: 0.1194 - val_acc: 0.0000e+00
Epoch 15/50

 512/8692 [>.............................] - ETA: 0s - loss: 0.0307 - acc: 0.0039
2048/8692 [======>.......................] - ETA: 0s - loss: 0.0525 - acc: 9.7656e-04
3584/8692 [===========>..................] - ETA: 0s - loss: 0.0550 - acc: 5.5804e-04
5120/8692 [================>.............] - ETA: 0s - loss: 0.0438 - acc: 3.9063e-04
6656/8692 [=====================>........] - ETA: 0s - loss: 0.0355 - acc: 3.0048e-04
8192/8692 [===========================>..] - ETA: 0s - loss: 0.0743 - acc: 2.4414e-04
8692/8692 [==============================] - 0s 39us/step - loss: 0.0817 - acc: 2.3010e-04 - val_loss: 0.1182 - val_acc: 0.0000e+00
Epoch 16/50

 512/8692 [>.............................] - ETA: 0s - loss: 0.0304 - acc: 0.0039
2048/8692 [======>.......................] - ETA: 0s - loss: 0.0522 - acc: 9.7656e-04
3584/8692 [===========>..................] - ETA: 0s - loss: 0.0547 - acc: 5.5804e-04
5120/8692 [================>.............] - ETA: 0s - loss: 0.0435 - acc: 3.9063e-04
6656/8692 [=====================>........] - ETA: 0s - loss: 0.0353 - acc: 3.0048e-04
8192/8692 [===========================>..] - ETA: 0s - loss: 0.0737 - acc: 2.4414e-04
8692/8692 [==============================] - 0s 39us/step - loss: 0.0810 - acc: 2.3010e-04 - val_loss: 0.1167 - val_acc: 0.0000e+00
Epoch 17/50

 512/8692 [>.............................] - ETA: 0s - loss: 0.0301 - acc: 0.0039
2048/8692 [======>.......................] - ETA: 0s - loss: 0.0517 - acc: 9.7656e-04
3584/8692 [===========>..................] - ETA: 0s - loss: 0.0542 - acc: 5.5804e-04
5120/8692 [================>.............] - ETA: 0s - loss: 0.0431 - acc: 3.9063e-04
6656/8692 [=====================>........] - ETA: 0s - loss: 0.0350 - acc: 3.0048e-04
8192/8692 [===========================>..] - ETA: 0s - loss: 0.0729 - acc: 2.4414e-04
8692/8692 [==============================] - 0s 38us/step - loss: 0.0800 - acc: 2.3010e-04 - val_loss: 0.1147 - val_acc: 0.0000e+00
Epoch 18/50

 512/8692 [>.............................] - ETA: 0s - loss: 0.0299 - acc: 0.0039
2048/8692 [======>.......................] - ETA: 0s - loss: 0.0514 - acc: 9.7656e-04
3584/8692 [===========>..................] - ETA: 0s - loss: 0.0539 - acc: 5.5804e-04
5120/8692 [================>.............] - ETA: 0s - loss: 0.0428 - acc: 3.9063e-04
6656/8692 [=====================>........] - ETA: 0s - loss: 0.0347 - acc: 3.0048e-04
8192/8692 [===========================>..] - ETA: 0s - loss: 0.0721 - acc: 2.4414e-04
8692/8692 [==============================] - 0s 39us/step - loss: 0.0791 - acc: 2.3010e-04 - val_loss: 0.1123 - val_acc: 0.0000e+00
Epoch 19/50

 512/8692 [>.............................] - ETA: 0s - loss: 0.0293 - acc: 0.0039
2560/8692 [=======>......................] - ETA: 0s - loss: 0.0541 - acc: 7.8125e-04
4096/8692 [=============>................] - ETA: 0s - loss: 0.0505 - acc: 4.8828e-04
5632/8692 [==================>...........] - ETA: 0s - loss: 0.0385 - acc: 3.5511e-04
7168/8692 [=======================>......] - ETA: 0s - loss: 0.0371 - acc: 2.7902e-04
8692/8692 [==============================] - 0s 39us/step - loss: 0.0778 - acc: 2.3010e-04 - val_loss: 0.1090 - val_acc: 0.0000e+00
Epoch 20/50

 512/8692 [>.............................] - ETA: 0s - loss: 0.0288 - acc: 0.0039
2048/8692 [======>.......................] - ETA: 0s - loss: 0.0503 - acc: 9.7656e-04
3584/8692 [===========>..................] - ETA: 0s - loss: 0.0527 - acc: 5.5804e-04
5120/8692 [================>.............] - ETA: 0s - loss: 0.0418 - acc: 3.9063e-04
6656/8692 [=====================>........] - ETA: 0s - loss: 0.0340 - acc: 3.0048e-04
8192/8692 [===========================>..] - ETA: 0s - loss: 0.0697 - acc: 2.4414e-04
8692/8692 [==============================] - 0s 39us/step - loss: 0.0763 - acc: 2.3010e-04 - val_loss: 0.1048 - val_acc: 0.0000e+00
Epoch 21/50

 512/8692 [>.............................] - ETA: 0s - loss: 0.0281 - acc: 0.0039
2048/8692 [======>.......................] - ETA: 0s - loss: 0.0495 - acc: 9.7656e-04
3584/8692 [===========>..................] - ETA: 0s - loss: 0.0520 - acc: 5.5804e-04
5120/8692 [================>.............] - ETA: 0s - loss: 0.0412 - acc: 3.9063e-04
6656/8692 [=====================>........] - ETA: 0s - loss: 0.0335 - acc: 3.0048e-04
8192/8692 [===========================>..] - ETA: 0s - loss: 0.0680 - acc: 2.4414e-04
8692/8692 [==============================] - 0s 37us/step - loss: 0.0743 - acc: 2.3010e-04 - val_loss: 0.0993 - val_acc: 0.0000e+00
Epoch 22/50

 512/8692 [>.............................] - ETA: 0s - loss: 0.0271 - acc: 0.0039
2048/8692 [======>.......................] - ETA: 0s - loss: 0.0485 - acc: 9.7656e-04
3584/8692 [===========>..................] - ETA: 0s - loss: 0.0510 - acc: 5.5804e-04
5120/8692 [================>.............] - ETA: 0s - loss: 0.0403 - acc: 3.9063e-04
6656/8692 [=====================>........] - ETA: 0s - loss: 0.0329 - acc: 3.0048e-04
8192/8692 [===========================>..] - ETA: 0s - loss: 0.0657 - acc: 2.4414e-04
8692/8692 [==============================] - 0s 39us/step - loss: 0.0715 - acc: 2.3010e-04 - val_loss: 0.0919 - val_acc: 0.0000e+00
Epoch 23/50

 512/8692 [>.............................] - ETA: 0s - loss: 0.0258 - acc: 0.0039
2048/8692 [======>.......................] - ETA: 0s - loss: 0.0472 - acc: 9.7656e-04
3584/8692 [===========>..................] - ETA: 0s - loss: 0.0497 - acc: 5.5804e-04
5120/8692 [================>.............] - ETA: 0s - loss: 0.0392 - acc: 3.9063e-04
6656/8692 [=====================>........] - ETA: 0s - loss: 0.0320 - acc: 3.0048e-04
8192/8692 [===========================>..] - ETA: 0s - loss: 0.0627 - acc: 2.4414e-04
8692/8692 [==============================] - 0s 39us/step - loss: 0.0679 - acc: 2.3010e-04 - val_loss: 0.0823 - val_acc: 0.0000e+00
Epoch 24/50

 512/8692 [>.............................] - ETA: 0s - loss: 0.0240 - acc: 0.0039
2048/8692 [======>.......................] - ETA: 0s - loss: 0.0453 - acc: 9.7656e-04
3584/8692 [===========>..................] - ETA: 0s - loss: 0.0478 - acc: 5.5804e-04
5120/8692 [================>.............] - ETA: 0s - loss: 0.0375 - acc: 3.9063e-04
6656/8692 [=====================>........] - ETA: 0s - loss: 0.0308 - acc: 3.0048e-04
8192/8692 [===========================>..] - ETA: 0s - loss: 0.0584 - acc: 2.4414e-04
8692/8692 [==============================] - 0s 39us/step - loss: 0.0629 - acc: 2.3010e-04 - val_loss: 0.0701 - val_acc: 0.0000e+00
Epoch 25/50

 512/8692 [>.............................] - ETA: 0s - loss: 0.0216 - acc: 0.0039
2048/8692 [======>.......................] - ETA: 0s - loss: 0.0424 - acc: 9.7656e-04
3584/8692 [===========>..................] - ETA: 0s - loss: 0.0450 - acc: 5.5804e-04
5120/8692 [================>.............] - ETA: 0s - loss: 0.0350 - acc: 3.9063e-04
6656/8692 [=====================>........] - ETA: 0s - loss: 0.0289 - acc: 3.0048e-04
8192/8692 [===========================>..] - ETA: 0s - loss: 0.0525 - acc: 2.4414e-04
8692/8692 [==============================] - 0s 39us/step - loss: 0.0560 - acc: 2.3010e-04 - val_loss: 0.0548 - val_acc: 0.0000e+00
Epoch 26/50

 512/8692 [>.............................] - ETA: 0s - loss: 0.0185 - acc: 0.0039
2048/8692 [======>.......................] - ETA: 0s - loss: 0.0384 - acc: 9.7656e-04
3584/8692 [===========>..................] - ETA: 0s - loss: 0.0408 - acc: 5.5804e-04
5120/8692 [================>.............] - ETA: 0s - loss: 0.0315 - acc: 3.9063e-04
6656/8692 [=====================>........] - ETA: 0s - loss: 0.0263 - acc: 3.0048e-04
8192/8692 [===========================>..] - ETA: 0s - loss: 0.0446 - acc: 2.4414e-04
8692/8692 [==============================] - 0s 39us/step - loss: 0.0469 - acc: 2.3010e-04 - val_loss: 0.0375 - val_acc: 4.5998e-04
Epoch 27/50

 512/8692 [>.............................] - ETA: 0s - loss: 0.0143 - acc: 0.0039
2048/8692 [======>.......................] - ETA: 0s - loss: 0.0321 - acc: 9.7656e-04
3584/8692 [===========>..................] - ETA: 0s - loss: 0.0342 - acc: 5.5804e-04
5120/8692 [================>.............] - ETA: 0s - loss: 0.0261 - acc: 3.9063e-04
6656/8692 [=====================>........] - ETA: 0s - loss: 0.0221 - acc: 3.0048e-04
8192/8692 [===========================>..] - ETA: 0s - loss: 0.0341 - acc: 2.4414e-04
8692/8692 [==============================] - 0s 39us/step - loss: 0.0351 - acc: 2.3010e-04 - val_loss: 0.0203 - val_acc: 4.5998e-04
Epoch 28/50

 512/8692 [>.............................] - ETA: 0s - loss: 0.0094 - acc: 0.0039
2048/8692 [======>.......................] - ETA: 0s - loss: 0.0236 - acc: 9.7656e-04
3584/8692 [===========>..................] - ETA: 0s - loss: 0.0251 - acc: 5.5804e-04
5120/8692 [================>.............] - ETA: 0s - loss: 0.0189 - acc: 3.9063e-04
6656/8692 [=====================>........] - ETA: 0s - loss: 0.0162 - acc: 3.0048e-04
8192/8692 [===========================>..] - ETA: 0s - loss: 0.0218 - acc: 2.4414e-04
8692/8692 [==============================] - 0s 39us/step - loss: 0.0219 - acc: 2.3010e-04 - val_loss: 0.0071 - val_acc: 4.5998e-04
Epoch 29/50

 512/8692 [>.............................] - ETA: 0s - loss: 0.0042 - acc: 0.0039
2048/8692 [======>.......................] - ETA: 0s - loss: 0.0128 - acc: 9.7656e-04
3584/8692 [===========>..................] - ETA: 0s - loss: 0.0138 - acc: 5.5804e-04
5120/8692 [================>.............] - ETA: 0s - loss: 0.0103 - acc: 3.9063e-04
6656/8692 [=====================>........] - ETA: 0s - loss: 0.0090 - acc: 3.0048e-04
8192/8692 [===========================>..] - ETA: 0s - loss: 0.0100 - acc: 2.4414e-04
8692/8692 [==============================] - 0s 39us/step - loss: 0.0097 - acc: 2.3010e-04 - val_loss: 0.0012 - val_acc: 4.5998e-04
Epoch 30/50

 512/8692 [>.............................] - ETA: 0s - loss: 4.9345e-04 - acc: 0.0039
2048/8692 [======>.......................] - ETA: 0s - loss: 0.0031 - acc: 9.7656e-04
3584/8692 [===========>..................] - ETA: 0s - loss: 0.0037 - acc: 5.5804e-04
5120/8692 [================>.............] - ETA: 0s - loss: 0.0028 - acc: 3.9063e-04
6656/8692 [=====================>........] - ETA: 0s - loss: 0.0024 - acc: 3.0048e-04
8192/8692 [===========================>..] - ETA: 0s - loss: 0.0021 - acc: 2.4414e-04
8692/8692 [==============================] - 0s 40us/step - loss: 0.0020 - acc: 2.3010e-04 - val_loss: 3.4602e-04 - val_acc: 4.5998e-04
Epoch 31/50

 512/8692 [>.............................] - ETA: 0s - loss: 6.9954e-04 - acc: 0.0039
2048/8692 [======>.......................] - ETA: 0s - loss: 2.9794e-04 - acc: 9.7656e-04
3584/8692 [===========>..................] - ETA: 0s - loss: 2.4796e-04 - acc: 5.5804e-04
5120/8692 [================>.............] - ETA: 0s - loss: 3.1641e-04 - acc: 3.9063e-04
6656/8692 [=====================>........] - ETA: 0s - loss: 3.0463e-04 - acc: 3.0048e-04
8192/8692 [===========================>..] - ETA: 0s - loss: 4.0460e-04 - acc: 2.4414e-04
8692/8692 [==============================] - 0s 39us/step - loss: 3.9894e-04 - acc: 2.3010e-04 - val_loss: 5.8815e-04 - val_acc: 4.5998e-04
Epoch 32/50

 512/8692 [>.............................] - ETA: 0s - loss: 0.0030 - acc: 0.0039
2048/8692 [======>.......................] - ETA: 0s - loss: 0.0031 - acc: 9.7656e-04
3584/8692 [===========>..................] - ETA: 0s - loss: 0.0021 - acc: 5.5804e-04
5120/8692 [================>.............] - ETA: 0s - loss: 0.0016 - acc: 3.9063e-04
6656/8692 [=====================>........] - ETA: 0s - loss: 0.0016 - acc: 3.0048e-04
8192/8692 [===========================>..] - ETA: 0s - loss: 0.0016 - acc: 2.4414e-04
8692/8692 [==============================] - 0s 38us/step - loss: 0.0015 - acc: 2.3010e-04 - val_loss: 5.2754e-04 - val_acc: 4.5998e-04
Epoch 33/50

 512/8692 [>.............................] - ETA: 0s - loss: 0.0012 - acc: 0.0039
2048/8692 [======>.......................] - ETA: 0s - loss: 0.0019 - acc: 9.7656e-04
3584/8692 [===========>..................] - ETA: 0s - loss: 0.0016 - acc: 5.5804e-04
5120/8692 [================>.............] - ETA: 0s - loss: 0.0011 - acc: 3.9063e-04
6656/8692 [=====================>........] - ETA: 0s - loss: 0.0010 - acc: 3.0048e-04
8192/8692 [===========================>..] - ETA: 0s - loss: 0.0010 - acc: 2.4414e-04
8692/8692 [==============================] - 0s 39us/step - loss: 9.8085e-04 - acc: 2.3010e-04 - val_loss: 4.9365e-04 - val_acc: 4.5998e-04
Epoch 34/50

 512/8692 [>.............................] - ETA: 0s - loss: 9.2388e-05 - acc: 0.0039
2048/8692 [======>.......................] - ETA: 0s - loss: 6.3384e-05 - acc: 9.7656e-04
3584/8692 [===========>..................] - ETA: 0s - loss: 1.8436e-04 - acc: 5.5804e-04
5120/8692 [================>.............] - ETA: 0s - loss: 2.2648e-04 - acc: 3.9063e-04
6656/8692 [=====================>........] - ETA: 0s - loss: 1.9158e-04 - acc: 3.0048e-04
8192/8692 [===========================>..] - ETA: 0s - loss: 2.4389e-04 - acc: 2.4414e-04
8692/8692 [==============================] - 0s 39us/step - loss: 2.6154e-04 - acc: 2.3010e-04 - val_loss: 0.0012 - val_acc: 4.5998e-04
Epoch 35/50

 512/8692 [>.............................] - ETA: 0s - loss: 0.0015 - acc: 0.0039
2048/8692 [======>.......................] - ETA: 0s - loss: 0.0011 - acc: 9.7656e-04
3584/8692 [===========>..................] - ETA: 0s - loss: 6.8981e-04 - acc: 5.5804e-04
5120/8692 [================>.............] - ETA: 0s - loss: 6.6247e-04 - acc: 3.9063e-04
6656/8692 [=====================>........] - ETA: 0s - loss: 6.9318e-04 - acc: 3.0048e-04
8192/8692 [===========================>..] - ETA: 0s - loss: 6.7840e-04 - acc: 2.4414e-04
8692/8692 [==============================] - 0s 39us/step - loss: 6.7002e-04 - acc: 2.3010e-04 - val_loss: 0.0015 - val_acc: 4.5998e-04
Epoch 36/50

 512/8692 [>.............................] - ETA: 0s - loss: 0.0018 - acc: 0.0039
2048/8692 [======>.......................] - ETA: 0s - loss: 0.0017 - acc: 9.7656e-04
3584/8692 [===========>..................] - ETA: 0s - loss: 0.0011 - acc: 5.5804e-04
5120/8692 [================>.............] - ETA: 0s - loss: 8.9838e-04 - acc: 3.9063e-04
6656/8692 [=====================>........] - ETA: 0s - loss: 9.0691e-04 - acc: 3.0048e-04
8192/8692 [===========================>..] - ETA: 0s - loss: 8.3613e-04 - acc: 2.4414e-04
8692/8692 [==============================] - 0s 39us/step - loss: 8.1885e-04 - acc: 2.3010e-04 - val_loss: 0.0012 - val_acc: 4.5998e-04
Epoch 37/50

 512/8692 [>.............................] - ETA: 0s - loss: 8.4746e-04 - acc: 0.0039
2048/8692 [======>.......................] - ETA: 0s - loss: 8.6540e-04 - acc: 9.7656e-04
3584/8692 [===========>..................] - ETA: 0s - loss: 5.6429e-04 - acc: 5.5804e-04
5120/8692 [================>.............] - ETA: 0s - loss: 4.6432e-04 - acc: 3.9063e-04
6656/8692 [=====================>........] - ETA: 0s - loss: 4.5995e-04 - acc: 3.0048e-04
8192/8692 [===========================>..] - ETA: 0s - loss: 4.4180e-04 - acc: 2.4414e-04
8692/8692 [==============================] - 0s 40us/step - loss: 4.4845e-04 - acc: 2.3010e-04 - val_loss: 8.5953e-04 - val_acc: 4.5998e-04
Epoch 38/50

 512/8692 [>.............................] - ETA: 0s - loss: 2.1894e-04 - acc: 0.0039
2048/8692 [======>.......................] - ETA: 0s - loss: 1.8089e-04 - acc: 9.7656e-04
3584/8692 [===========>..................] - ETA: 0s - loss: 1.1156e-04 - acc: 5.5804e-04
5120/8692 [================>.............] - ETA: 0s - loss: 1.0790e-04 - acc: 3.9063e-04
6656/8692 [=====================>........] - ETA: 0s - loss: 1.0821e-04 - acc: 3.0048e-04
8192/8692 [===========================>..] - ETA: 0s - loss: 1.6216e-04 - acc: 2.4414e-04
8692/8692 [==============================] - 0s 39us/step - loss: 1.8299e-04 - acc: 2.3010e-04 - val_loss: 6.4149e-04 - val_acc: 4.5998e-04
Epoch 39/50

 512/8692 [>.............................] - ETA: 0s - loss: 6.3771e-05 - acc: 0.0039
2048/8692 [======>.......................] - ETA: 0s - loss: 2.7947e-05 - acc: 9.7656e-04
3584/8692 [===========>..................] - ETA: 0s - loss: 2.9842e-05 - acc: 5.5804e-04
5120/8692 [================>.............] - ETA: 0s - loss: 4.3274e-05 - acc: 3.9063e-04
6656/8692 [=====================>........] - ETA: 0s - loss: 4.2326e-05 - acc: 3.0048e-04
8192/8692 [===========================>..] - ETA: 0s - loss: 1.1732e-04 - acc: 2.4414e-04
8692/8692 [==============================] - 0s 39us/step - loss: 1.3883e-04 - acc: 2.3010e-04 - val_loss: 6.2522e-04 - val_acc: 4.5998e-04
Epoch 40/50

 512/8692 [>.............................] - ETA: 0s - loss: 1.0708e-04 - acc: 0.0039
2048/8692 [======>.......................] - ETA: 0s - loss: 4.4705e-05 - acc: 9.7656e-04
3584/8692 [===========>..................] - ETA: 0s - loss: 5.0124e-05 - acc: 5.5804e-04
5120/8692 [================>.............] - ETA: 0s - loss: 7.1038e-05 - acc: 3.9063e-04
6656/8692 [=====================>........] - ETA: 0s - loss: 6.6379e-05 - acc: 3.0048e-04
8192/8692 [===========================>..] - ETA: 0s - loss: 1.3483e-04 - acc: 2.4414e-04
8692/8692 [==============================] - 0s 43us/step - loss: 1.5629e-04 - acc: 2.3010e-04 - val_loss: 7.5505e-04 - val_acc: 4.5998e-04
Epoch 41/50

 512/8692 [>.............................] - ETA: 0s - loss: 3.0334e-04 - acc: 0.0039
2048/8692 [======>.......................] - ETA: 0s - loss: 1.6283e-04 - acc: 9.7656e-04
3584/8692 [===========>..................] - ETA: 0s - loss: 1.1480e-04 - acc: 5.5804e-04
4608/8692 [==============>...............] - ETA: 0s - loss: 1.3149e-04 - acc: 4.3403e-04
5632/8692 [==================>...........] - ETA: 0s - loss: 1.5072e-04 - acc: 3.5511e-04
6656/8692 [=====================>........] - ETA: 0s - loss: 1.3880e-04 - acc: 3.0048e-04
8192/8692 [===========================>..] - ETA: 0s - loss: 1.8944e-04 - acc: 2.4414e-04
8692/8692 [==============================] - 0s 48us/step - loss: 2.1082e-04 - acc: 2.3010e-04 - val_loss: 9.4406e-04 - val_acc: 4.5998e-04
Epoch 42/50

 512/8692 [>.............................] - ETA: 0s - loss: 5.6989e-04 - acc: 0.0039
2048/8692 [======>.......................] - ETA: 0s - loss: 3.6166e-04 - acc: 9.7656e-04
3584/8692 [===========>..................] - ETA: 0s - loss: 2.2690e-04 - acc: 5.5804e-04
5120/8692 [================>.............] - ETA: 0s - loss: 2.5302e-04 - acc: 3.9063e-04
6656/8692 [=====================>........] - ETA: 0s - loss: 2.4456e-04 - acc: 3.0048e-04
8192/8692 [===========================>..] - ETA: 0s - loss: 2.7309e-04 - acc: 2.4414e-04
8692/8692 [==============================] - 0s 39us/step - loss: 2.9312e-04 - acc: 2.3010e-04 - val_loss: 0.0011 - val_acc: 4.5998e-04
Epoch 43/50

 512/8692 [>.............................] - ETA: 0s - loss: 7.4732e-04 - acc: 0.0039
2048/8692 [======>.......................] - ETA: 0s - loss: 5.0669e-04 - acc: 9.7656e-04
3584/8692 [===========>..................] - ETA: 0s - loss: 3.1160e-04 - acc: 5.5804e-04
5120/8692 [================>.............] - ETA: 0s - loss: 3.3030e-04 - acc: 3.9063e-04
6656/8692 [=====================>........] - ETA: 0s - loss: 3.1766e-04 - acc: 3.0048e-04
8192/8692 [===========================>..] - ETA: 0s - loss: 3.3173e-04 - acc: 2.4414e-04
8692/8692 [==============================] - 0s 41us/step - loss: 3.5096e-04 - acc: 2.3010e-04 - val_loss: 0.0012 - val_acc: 4.5998e-04
Epoch 44/50

 512/8692 [>.............................] - ETA: 0s - loss: 7.9996e-04 - acc: 0.0039
2048/8692 [======>.......................] - ETA: 0s - loss: 5.4631e-04 - acc: 9.7656e-04
3584/8692 [===========>..................] - ETA: 0s - loss: 3.3574e-04 - acc: 5.5804e-04
5120/8692 [================>.............] - ETA: 0s - loss: 3.5354e-04 - acc: 3.9063e-04
6656/8692 [=====================>........] - ETA: 0s - loss: 3.3672e-04 - acc: 3.0048e-04
8192/8692 [===========================>..] - ETA: 0s - loss: 3.4767e-04 - acc: 2.4414e-04
8692/8692 [==============================] - 0s 39us/step - loss: 3.6726e-04 - acc: 2.3010e-04 - val_loss: 0.0012 - val_acc: 4.5998e-04
Epoch 45/50

 512/8692 [>.............................] - ETA: 0s - loss: 7.9753e-04 - acc: 0.0039
2048/8692 [======>.......................] - ETA: 0s - loss: 5.3367e-04 - acc: 9.7656e-04
3584/8692 [===========>..................] - ETA: 0s - loss: 3.2993e-04 - acc: 5.5804e-04
5120/8692 [================>.............] - ETA: 0s - loss: 3.5151e-04 - acc: 3.9063e-04
6656/8692 [=====================>........] - ETA: 0s - loss: 3.3120e-04 - acc: 3.0048e-04
8192/8692 [===========================>..] - ETA: 0s - loss: 3.4440e-04 - acc: 2.4414e-04
8692/8692 [==============================] - 0s 40us/step - loss: 3.6466e-04 - acc: 2.3010e-04 - val_loss: 0.0012 - val_acc: 4.5998e-04
Epoch 46/50

 512/8692 [>.............................] - ETA: 0s - loss: 8.0791e-04 - acc: 0.0039
2048/8692 [======>.......................] - ETA: 0s - loss: 5.2835e-04 - acc: 9.7656e-04
3584/8692 [===========>..................] - ETA: 0s - loss: 3.2919e-04 - acc: 5.5804e-04
5120/8692 [================>.............] - ETA: 0s - loss: 3.5504e-04 - acc: 3.9063e-04
6656/8692 [=====================>........] - ETA: 0s - loss: 3.3114e-04 - acc: 3.0048e-04
8192/8692 [===========================>..] - ETA: 0s - loss: 3.4572e-04 - acc: 2.4414e-04
8692/8692 [==============================] - 0s 40us/step - loss: 3.6640e-04 - acc: 2.3010e-04 - val_loss: 0.0012 - val_acc: 4.5998e-04
Epoch 47/50

 512/8692 [>.............................] - ETA: 0s - loss: 8.5652e-04 - acc: 0.0039
2048/8692 [======>.......................] - ETA: 0s - loss: 5.5231e-04 - acc: 9.7656e-04
3584/8692 [===========>..................] - ETA: 0s - loss: 3.4610e-04 - acc: 5.5804e-04
5120/8692 [================>.............] - ETA: 0s - loss: 3.7546e-04 - acc: 3.9063e-04
6656/8692 [=====================>........] - ETA: 0s - loss: 3.4710e-04 - acc: 3.0048e-04
8192/8692 [===========================>..] - ETA: 0s - loss: 3.5988e-04 - acc: 2.4414e-04
8692/8692 [==============================] - 0s 41us/step - loss: 3.8071e-04 - acc: 2.3010e-04 - val_loss: 0.0013 - val_acc: 4.5998e-04
Epoch 48/50

 512/8692 [>.............................] - ETA: 0s - loss: 9.4048e-04 - acc: 0.0039
2048/8692 [======>.......................] - ETA: 0s - loss: 6.0291e-04 - acc: 9.7656e-04
3072/8692 [=========>....................] - ETA: 0s - loss: 4.1065e-04 - acc: 6.5104e-04
4096/8692 [=============>................] - ETA: 0s - loss: 3.7633e-04 - acc: 4.8828e-04
5632/8692 [==================>...........] - ETA: 0s - loss: 4.1707e-04 - acc: 3.5511e-04
7168/8692 [=======================>......] - ETA: 0s - loss: 3.5576e-04 - acc: 2.7902e-04
8692/8692 [==============================] - 0s 46us/step - loss: 4.0618e-04 - acc: 2.3010e-04 - val_loss: 0.0014 - val_acc: 4.5998e-04
Epoch 49/50

 512/8692 [>.............................] - ETA: 0s - loss: 0.0010 - acc: 0.0039
2048/8692 [======>.......................] - ETA: 0s - loss: 6.7073e-04 - acc: 9.7656e-04
3584/8692 [===========>..................] - ETA: 0s - loss: 4.2216e-04 - acc: 5.5804e-04
5120/8692 [================>.............] - ETA: 0s - loss: 4.5728e-04 - acc: 3.9063e-04
6656/8692 [=====================>........] - ETA: 0s - loss: 4.1649e-04 - acc: 3.0048e-04
8192/8692 [===========================>..] - ETA: 0s - loss: 4.1841e-04 - acc: 2.4414e-04
8692/8692 [==============================] - 0s 40us/step - loss: 4.3907e-04 - acc: 2.3010e-04 - val_loss: 0.0014 - val_acc: 4.5998e-04
Epoch 50/50

 512/8692 [>.............................] - ETA: 0s - loss: 0.0012 - acc: 0.0039
2048/8692 [======>.......................] - ETA: 0s - loss: 7.4913e-04 - acc: 9.7656e-04
3584/8692 [===========>..................] - ETA: 0s - loss: 4.7221e-04 - acc: 5.5804e-04
5120/8692 [================>.............] - ETA: 0s - loss: 5.1039e-04 - acc: 3.9063e-04
6656/8692 [=====================>........] - ETA: 0s - loss: 4.6169e-04 - acc: 3.0048e-04
8192/8692 [===========================>..] - ETA: 0s - loss: 4.5629e-04 - acc: 2.4414e-04
8692/8692 [==============================] - 0s 40us/step - loss: 4.7677e-04 - acc: 2.3010e-04 - val_loss: 0.0015 - val_acc: 4.5998e-04

   32/10866 [..............................] - ETA: 1s
  704/10866 [>.............................] - ETA: 0s
 1600/10866 [===>..........................] - ETA: 0s
 2528/10866 [=====>........................] - ETA: 0s
 3776/10866 [=========>....................] - ETA: 0s
 5088/10866 [=============>................] - ETA: 0s
 6496/10866 [================>.............] - ETA: 0s
 7904/10866 [====================>.........] - ETA: 0s
 9152/10866 [========================>.....] - ETA: 0s
10400/10866 [===========================>..] - ETA: 0s
10866/10866 [==============================] - 0s 44us/step
Train Score: 0.00107 MSE (0.03 RMSE)

  32/1206 [..............................] - ETA: 0s
1206/1206 [==============================] - 0s 41us/step
Test Score: 0.00158 MSE (0.04 RMSE)

HyperparametersArray:-
 ['/home/uttam/uttam/FYP/Data/Data/Stocks/', 'aa.us.txt', 0.9, 0.3, 3, 256, 32, 'sigmoid', 'linear', 'mse', 'adam', [['accuracy']], 'uniform', 1, 512, 50, 0.2]

trainmset,trainrmset,testmset,testrmset:-
 0.00107003101591 0.032711328556148694 0.00157826140181 0.03972733821700796
